correlations/verilog/tb/vcd/correlation.vcd
$date
	Mon Jun 20 18:05:54 2022
$end
$version
	Icarus Verilog
$end
$timescale
	1fs
$end
$scope module correlation_tb $end
$var wire 1 ! y1 $end
$var reg 1 " VGND $end
$var reg 1 # VPWR $end
$var reg 1 $ a $end
$var reg 1 % b $end
$var reg 1 & r1 $end
$var reg 1 ' r2 $end
$var integer 32 ( i [31:0] $end
$var integer 32 ) j [31:0] $end
$var integer 32 * sim [31:0] $end
$scope module uut_r $end
$var wire 1 " VGND $end
$var wire 1 # VPWR $end
$var wire 1 + _delA_ $end
$var wire 1 , _delB_ $end
$var wire 1 - _delR1_ $end
$var wire 1 . _delR2_ $end
$var wire 1 $ a $end
$var wire 1 % b $end
$var wire 1 & r1 $end
$var wire 1 ' r2 $end
$var wire 1 ! y $end
$var wire 1 / _02_ $end
$var wire 1 0 _01_ $end
$scope module _nand_ $end
$var wire 1 + A $end
$var wire 1 , B $end
$var wire 1 " VGND $end
$var wire 1 " VNB $end
$var wire 1 # VPB $end
$var wire 1 # VPWR $end
$var wire 1 0 Y $end
$scope module base $end
$var wire 1 + A $end
$var wire 1 , B $end
$var wire 1 " VGND $end
$var wire 1 " VNB $end
$var wire 1 # VPB $end
$var wire 1 # VPWR $end
$var wire 1 0 Y $end
$var wire 1 1 nand0_out_Y $end
$var wire 1 2 pwrgood_pp0_out_Y $end
$upscope $end
$upscope $end
$scope module _xnor_ $end
$var wire 1 0 A $end
$var wire 1 " VGND $end
$var wire 1 " VNB $end
$var wire 1 # VPB $end
$var wire 1 # VPWR $end
$var wire 1 ! Y $end
$var wire 1 / B $end
$scope module base $end
$var wire 1 0 A $end
$var wire 1 " VGND $end
$var wire 1 " VNB $end
$var wire 1 # VPB $end
$var wire 1 # VPWR $end
$var wire 1 ! Y $end
$var wire 1 3 pwrgood_pp0_out_Y $end
$var wire 1 4 xnor0_out_Y $end
$var wire 1 / B $end
$upscope $end
$upscope $end
$scope module _xor_ $end
$var wire 1 - A $end
$var wire 1 . B $end
$var wire 1 " VGND $end
$var wire 1 " VNB $end
$var wire 1 # VPB $end
$var wire 1 # VPWR $end
$var wire 1 / X $end
$scope module base $end
$var wire 1 - A $end
$var wire 1 . B $end
$var wire 1 " VGND $end
$var wire 1 " VNB $end
$var wire 1 # VPB $end
$var wire 1 # VPWR $end
$var wire 1 / X $end
$var wire 1 5 pwrgood_pp0_out_X $end
$var wire 1 6 xor0_out_X $end
$upscope $end
$upscope $end
$upscope $end
$upscope $end
$enddefinitions $end
#0
$dumpvars
x6
x5
x4
x3
x2
x1
x0
x/
0.
0-
x,
0+
b0 *
b0 )
b0 (
0'
0&
0%
0$
1#
0"
x!
$end
#200000
10
12
11
#350000
0,
#500000
0/
05
06
#600000
0!
03
04
#5000000
b1 *
#10000000
b1 )
#15000000
1.
1'
b10 *
#15500000
1/
15
16
#15600000
1!
13
14
#20000000
0.
0'
b10 )
#20500000
0/
05
06
#20600000
0!
03
04
#25000000
1-
1&
b11 *
#25500000
1/
15
16
#25600000
1!
13
14
#30000000
0-
0&
b11 )
#30500000
0/
05
06
#30600000
0!
03
04
#35000000
1-
1&
1.
1'
b100 *
#40000000
0-
0&
0.
0'
b100 )
#45000000
1%
b101 *
#45350000
1,
#50000000
0%
b101 )
#50350000
0,
#55000000
1%
1.
1'
b110 *
#55350000
1,
#55500000
1/
15
16
#55600000
1!
13
14
#60000000
0%
0.
0'
b110 )
#60350000
0,
#60500000
0/
05
06
#60600000
0!
03
04
#65000000
1%
1-
1&
b111 *
#65350000
1,
#65500000
1/
15
16
#65600000
1!
13
14
#70000000
0%
0-
0&
b111 )
#70350000
0,
#70500000
0/
05
06
#70600000
0!
03
04
#75000000
1%
1-
1&
1.
1'
b1000 *
#75350000
1,
#80000000
0%
0-
0&
0.
0'
b1000 )
#80350000
0,
#85000000
1+
1$
b1001 *
#90000000
0+
0$
b1001 )
#95000000
1+
1$
1.
1'
b1010 *
#95500000
1/
15
16
#95600000
1!
13
14
#100000000
0+
0$
0.
0'
b1010 )
#100500000
0/
05
06
#100600000
0!
03
04
#105000000
1+
1$
1-
1&
b1011 *
#105500000
1/
15
16
#105600000
1!
13
14
#110000000
0+
0$
0-
0&
b1011 )
#110500000
0/
05
06
#110600000
0!
03
04
#115000000
1+
1$
1-
1&
1.
1'
b1100 *
#120000000
0+
0$
0-
0&
0.
0'
b1100 )
#125000000
1+
1$
1%
b1101 *
#125350000
1,
#125550000
00
02
01
#125650000
1!
13
14
#130000000
0+
0$
0%
b1101 )
#130200000
10
12
11
#130300000
0!
03
04
#130350000
0,
#135000000
1+
1$
1%
1.
1'
b1110 *
#135350000
1,
#135500000
1/
15
16
#135550000
00
02
01
#140000000
0+
0$
0%
0.
0'
b1110 )
#140200000
10
12
11
#140300000
1!
13
14
#140350000
0,
#140500000
0/
05
06
#140600000
0!
03
04
#145000000
1+
1$
1%
1-
1&
b1111 *
#145350000
1,
#145500000
1/
15
16
#145550000
00
02
01
#150000000
0+
0$
0%
0-
0&
b1111 )
#150200000
10
12
11
#150300000
1!
13
14
#150350000
0,
#150500000
0/
05
06
#150600000
0!
03
04
#155000000
1+
1$
1%
1-
1&
1.
1'
b10000 *
#155350000
1,
#155550000
00
02
01
#155650000
1!
13
14
#160000000
0+
0$
0%
0-
0&
b1 (
b0 )
#160200000
10
12
11
#160300000
0!
03
04
#160350000
0,
#160500000
1/
15
16
#160600000
1!
13
14
#165000000
0.
0'
b10001 *
#165500000
0/
05
06
#165600000
0!
03
04
#170000000
1.
1'
b1 )
#170500000
1/
15
16
#170600000
1!
13
14
#175000000
b10010 *
#180000000
b10 )
#185000000
1-
1&
0.
0'
b10011 *
#190000000
0-
0&
1.
1'
b11 )
#195000000
1-
1&
b10100 *
#195500000
0/
05
06
#195600000
0!
03
04
#200000000
0-
0&
b100 )
#200500000
1/
15
16
#200600000
1!
13
14
#205000000
1%
0.
0'
b10101 *
#205350000
1,
#205500000
0/
05
06
#205600000
0!
03
04
#210000000
0%
1.
1'
b101 )
#210350000
0,
#210500000
1/
15
16
#210600000
1!
13
14
#215000000
1%
b10110 *
#215350000
1,
#220000000
0%
b110 )
#220350000
0,
#225000000
1%
1-
1&
0.
0'
b10111 *
#225350000
1,
#230000000
0%
0-
0&
1.
1'
b111 )
#230350000
0,
#235000000
1%
1-
1&
b11000 *
#235350000
1,
#235500000
0/
05
06
#235600000
0!
03
04
#240000000
0%
0-
0&
b1000 )
#240350000
0,
#240500000
1/
15
16
#240600000
1!
13
14
#245000000
1+
1$
0.
0'
b11001 *
#245500000
0/
05
06
#245600000
0!
03
04
#250000000
0+
0$
1.
1'
b1001 )
#250500000
1/
15
16
#250600000
1!
13
14
#255000000
1+
1$
b11010 *
#260000000
0+
0$
b1010 )
#265000000
1+
1$
1-
1&
0.
0'
b11011 *
#270000000
0+
0$
0-
0&
1.
1'
b1011 )
#275000000
1+
1$
1-
1&
b11100 *
#275500000
0/
05
06
#275600000
0!
03
04
#280000000
0+
0$
0-
0&
b1100 )
#280500000
1/
15
16
#280600000
1!
13
14
#285000000
1+
1$
1%
0.
0'
b11101 *
#285350000
1,
#285500000
0/
05
06
#285550000
00
02
01
#290000000
0+
0$
0%
1.
1'
b1101 )
#290200000
10
12
11
#290300000
0!
03
04
#290350000
0,
#290500000
1/
15
16
#290600000
1!
13
14
#295000000
1+
1$
1%
b11110 *
#295350000
1,
#295550000
00
02
01
#295650000
0!
03
04
#300000000
0+
0$
0%
b1110 )
#300200000
10
12
11
#300300000
1!
13
14
#300350000
0,
#305000000
1+
1$
1%
1-
1&
0.
0'
b11111 *
#305350000
1,
#305550000
00
02
01
#305650000
0!
03
04
#310000000
0+
0$
0%
0-
0&
1.
1'
b1111 )
#310200000
10
12
11
#310300000
1!
13
14
#310350000
0,
#315000000
1+
1$
1%
1-
1&
b100000 *
#315350000
1,
#315500000
0/
05
06
#315550000
00
02
01
#320000000
0+
0$
0%
0.
0'
b10 (
b0 )
#320200000
10
12
11
#320300000
0!
03
04
#320350000
0,
#320500000
1/
15
16
#320600000
1!
13
14
#325000000
0-
0&
b100001 *
#325500000
0/
05
06
#325600000
0!
03
04
#330000000
1-
1&
b1 )
#330500000
1/
15
16
#330600000
1!
13
14
#335000000
0-
0&
1.
1'
b100010 *
#340000000
1-
1&
0.
0'
b10 )
#345000000
b100011 *
#350000000
b11 )
#355000000
1.
1'
b100100 *
#355500000
0/
05
06
#355600000
0!
03
04
#360000000
0.
0'
b100 )
#360500000
1/
15
16
#360600000
1!
13
14
#365000000
1%
0-
0&
b100101 *
#365350000
1,
#365500000
0/
05
06
#365600000
0!
03
04
#370000000
0%
1-
1&
b101 )
#370350000
0,
#370500000
1/
15
16
#370600000
1!
13
14
#375000000
1%
0-
0&
1.
1'
b100110 *
#375350000
1,
#380000000
0%
1-
1&
0.
0'
b110 )
#380350000
0,
#385000000
1%
b100111 *
#385350000
1,
#390000000
0%
b111 )
#390350000
0,
#395000000
1%
1.
1'
b101000 *
#395350000
1,
#395500000
0/
05
06
#395600000
0!
03
04
#400000000
0%
0.
0'
b1000 )
#400350000
0,
#400500000
1/
15
16
#400600000
1!
13
14
#405000000
1+
1$
0-
0&
b101001 *
#405500000
0/
05
06
#405600000
0!
03
04
#410000000
0+
0$
1-
1&
b1001 )
#410500000
1/
15
16
#410600000
1!
13
14
#415000000
1+
1$
0-
0&
1.
1'
b101010 *
#420000000
0+
0$
1-
1&
0.
0'
b1010 )
#425000000
1+
1$
b101011 *
#430000000
0+
0$
b1011 )
#435000000
1+
1$
1.
1'
b101100 *
#435500000
0/
05
06
#435600000
0!
03
04
#440000000
0+
0$
0.
0'
b1100 )
#440500000
1/
15
16
#440600000
1!
13
14
#445000000
1+
1$
1%
0-
0&
b101101 *
#445350000
1,
#445500000
0/
05
06
#445550000
00
02
01
#450000000
0+
0$
0%
1-
1&
b1101 )
#450200000
10
12
11
#450300000
0!
03
04
#450350000
0,
#450500000
1/
15
16
#450600000
1!
13
14
#455000000
1+
1$
1%
0-
0&
1.
1'
b101110 *
#455350000
1,
#455550000
00
02
01
#455650000
0!
03
04
#460000000
0+
0$
0%
1-
1&
0.
0'
b1110 )
#460200000
10
12
11
#460300000
1!
13
14
#460350000
0,
#465000000
1+
1$
1%
b101111 *
#465350000
1,
#465550000
00
02
01
#465650000
0!
03
04
#470000000
0+
0$
0%
b1111 )
#470200000
10
12
11
#470300000
1!
13
14
#470350000
0,
#475000000
1+
1$
1%
1.
1'
b110000 *
#475350000
1,
#475500000
0/
05
06
#475550000
00
02
01
#480000000
0+
0$
0%
b11 (
b0 )
#480200000
10
12
11
#480300000
0!
03
04
#480350000
0,
#485000000
0-
0&
0.
0'
b110001 *
#490000000
1-
1&
1.
1'
b1 )
#495000000
0-
0&
b110010 *
#495500000
1/
15
16
#495600000
1!
13
14
#500000000
1-
1&
b10 )
#500500000
0/
05
06
#500600000
0!
03
04
#505000000
0.
0'
b110011 *
#505500000
1/
15
16
#505600000
1!
13
14
#510000000
1.
1'
b11 )
#510500000
0/
05
06
#510600000
0!
03
04
#515000000
b110100 *
#520000000
b100 )
#525000000
1%
0-
0&
0.
0'
b110101 *
#525350000
1,
#530000000
0%
1-
1&
1.
1'
b101 )
#530350000
0,
#535000000
1%
0-
0&
b110110 *
#535350000
1,
#535500000
1/
15
16
#535600000
1!
13
14
#540000000
0%
1-
1&
b110 )
#540350000
0,
#540500000
0/
05
06
#540600000
0!
03
04
#545000000
1%
0.
0'
b110111 *
#545350000
1,
#545500000
1/
15
16
#545600000
1!
13
14
#550000000
0%
1.
1'
b111 )
#550350000
0,
#550500000
0/
05
06
#550600000
0!
03
04
#555000000
1%
b111000 *
#555350000
1,
#560000000
0%
b1000 )
#560350000
0,
#565000000
1+
1$
0-
0&
0.
0'
b111001 *
#570000000
0+
0$
1-
1&
1.
1'
b1001 )
#575000000
1+
1$
0-
0&
b111010 *
#575500000
1/
15
16
#575600000
1!
13
14
#580000000
0+
0$
1-
1&
b1010 )
#580500000
0/
05
06
#580600000
0!
03
04
#585000000
1+
1$
0.
0'
b111011 *
#585500000
1/
15
16
#585600000
1!
13
14
#590000000
0+
0$
1.
1'
b1011 )
#590500000
0/
05
06
#590600000
0!
03
04
#595000000
1+
1$
b111100 *
#600000000
0+
0$
b1100 )
#605000000
1+
1$
1%
0-
0&
0.
0'
b111101 *
#605350000
1,
#605550000
00
02
01
#605650000
1!
13
14
#610000000
0+
0$
0%
1-
1&
1.
1'
b1101 )
#610200000
10
12
11
#610300000
0!
03
04
#610350000
0,
#615000000
1+
1$
1%
0-
0&
b111110 *
#615350000
1,
#615500000
1/
15
16
#615550000
00
02
01
#620000000
0+
0$
0%
1-
1&
b1110 )
#620200000
10
12
11
#620300000
1!
13
14
#620350000
0,
#620500000
0/
05
06
#620600000
0!
03
04
#625000000
1+
1$
1%
0.
0'
b111111 *
#625350000
1,
#625500000
1/
15
16
#625550000
00
02
01
#630000000
0+
0$
0%
1.
1'
b1111 )
#630200000
10
12
11
#630300000
1!
13
14
#630350000
0,
#630500000
0/
05
06
#630600000
0!
03
04
#635000000
1+
1$
1%
b1000000 *
#635350000
1,
#635550000
00
02
01
#635650000
1!
13
14
#640000000
0+
0$
0-
0&
0.
0'
b100 (
b0 )
#640200000
10
12
11
#640300000
0!
03
04
#645000000
0%
b1000001 *
#645350000
0,
#650000000
1%
b1 )
#650350000
1,
#655000000
0%
1.
1'
b1000010 *
#655350000
0,
#655500000
1/
15
16
#655600000
1!
13
14
#660000000
1%
0.
0'
b10 )
#660350000
1,
#660500000
0/
05
06
#660600000
0!
03
04
#665000000
0%
1-
1&
b1000011 *
#665350000
0,
#665500000
1/
15
16
#665600000
1!
13
14
#670000000
1%
0-
0&
b11 )
#670350000
1,
#670500000
0/
05
06
#670600000
0!
03
04
#675000000
0%
1-
1&
1.
1'
b1000100 *
#675350000
0,
#680000000
1%
0-
0&
0.
0'
b100 )
#680350000
1,
#685000000
b1000101 *
#690000000
b101 )
#695000000
1.
1'
b1000110 *
#695500000
1/
15
16
#695600000
1!
13
14
#700000000
0.
0'
b110 )
#700500000
0/
05
06
#700600000
0!
03
04
#705000000
1-
1&
b1000111 *
#705500000
1/
15
16
#705600000
1!
13
14
#710000000
0-
0&
b111 )
#710500000
0/
05
06
#710600000
0!
03
04
#715000000
1-
1&
1.
1'
b1001000 *
#720000000
0-
0&
0.
0'
b1000 )
#725000000
1+
1$
0%
b1001001 *
#725200000
00
02
01
#725300000
1!
13
14
#725350000
0,
#725550000
10
12
11
#725650000
0!
03
04
#730000000
0+
0$
1%
b1001 )
#730350000
1,
#735000000
1+
1$
0%
1.
1'
b1001010 *
#735200000
00
02
01
#735300000
1!
13
14
#735350000
0,
#735500000
1/
15
16
#735550000
10
12
11
#740000000
0+
0$
1%
0.
0'
b1010 )
#740350000
1,
#740500000
0/
05
06
#740600000
0!
03
04
#745000000
1+
1$
0%
1-
1&
b1001011 *
#745200000
00
02
01
#745300000
1!
13
14
#745350000
0,
#745500000
1/
15
16
#745550000
10
12
11
#750000000
0+
0$
1%
0-
0&
b1011 )
#750350000
1,
#750500000
0/
05
06
#750600000
0!
03
04
#755000000
1+
1$
0%
1-
1&
1.
1'
b1001100 *
#755200000
00
02
01
#755300000
1!
13
14
#755350000
0,
#755550000
10
12
11
#755650000
0!
03
04
#760000000
0+
0$
1%
0-
0&
0.
0'
b1100 )
#760350000
1,
#765000000
1+
1$
b1001101 *
#765200000
00
02
01
#765300000
1!
13
14
#770000000
0+
0$
b1101 )
#770200000
10
12
11
#770300000
0!
03
04
#775000000
1+
1$
1.
1'
b1001110 *
#775200000
00
02
01
#775300000
1!
13
14
#775500000
1/
15
16
#775600000
0!
03
04
#780000000
0+
0$
0.
0'
b1110 )
#780200000
10
12
11
#780300000
1!
13
14
#780500000
0/
05
06
#780600000
0!
03
04
#785000000
1+
1$
1-
1&
b1001111 *
#785200000
00
02
01
#785300000
1!
13
14
#785500000
1/
15
16
#785600000
0!
03
04
#790000000
0+
0$
0-
0&
b1111 )
#790200000
10
12
11
#790300000
1!
13
14
#790500000
0/
05
06
#790600000
0!
03
04
#795000000
1+
1$
1-
1&
1.
1'
b1010000 *
#795200000
00
02
01
#795300000
1!
13
14
#800000000
0+
0$
0-
0&
b101 (
b0 )
#800200000
10
12
11
#800300000
0!
03
04
#800500000
1/
15
16
#800600000
1!
13
14
#805000000
0%
0.
0'
b1010001 *
#805350000
0,
#805500000
0/
05
06
#805600000
0!
03
04
#810000000
1%
1.
1'
b1 )
#810350000
1,
#810500000
1/
15
16
#810600000
1!
13
14
#815000000
0%
b1010010 *
#815350000
0,
#820000000
1%
b10 )
#820350000
1,
#825000000
0%
1-
1&
0.
0'
b1010011 *
#825350000
0,
#830000000
1%
0-
0&
1.
1'
b11 )
#830350000
1,
#835000000
0%
1-
1&
b1010100 *
#835350000
0,
#835500000
0/
05
06
#835600000
0!
03
04
#840000000
1%
0-
0&
b100 )
#840350000
1,
#840500000
1/
15
16
#840600000
1!
13
14
#845000000
0.
0'
b1010101 *
#845500000
0/
05
06
#845600000
0!
03
04
#850000000
1.
1'
b101 )
#850500000
1/
15
16
#850600000
1!
13
14
#855000000
b1010110 *
#860000000
b110 )
#865000000
1-
1&
0.
0'
b1010111 *
#870000000
0-
0&
1.
1'
b111 )
#875000000
1-
1&
b1011000 *
#875500000
0/
05
06
#875600000
0!
03
04
#880000000
0-
0&
b1000 )
#880500000
1/
15
16
#880600000
1!
13
14
#885000000
1+
1$
0%
0.
0'
b1011001 *
#885200000
00
02
01
#885300000
0!
03
04
#885350000
0,
#885500000
0/
05
06
#885550000
10
12
11
#890000000
0+
0$
1%
1.
1'
b1001 )
#890350000
1,
#890500000
1/
15
16
#890600000
1!
13
14
#895000000
1+
1$
0%
b1011010 *
#895200000
00
02
01
#895300000
0!
03
04
#895350000
0,
#895550000
10
12
11
#895650000
1!
13
14
#900000000
0+
0$
1%
b1010 )
#900350000
1,
#905000000
1+
1$
0%
1-
1&
0.
0'
b1011011 *
#905200000
00
02
01
#905300000
0!
03
04
#905350000
0,
#905550000
10
12
11
#905650000
1!
13
14
#910000000
0+
0$
1%
0-
0&
1.
1'
b1011 )
#910350000
1,
#915000000
1+
1$
0%
1-
1&
b1011100 *
#915200000
00
02
01
#915300000
0!
03
04
#915350000
0,
#915500000
0/
05
06
#915550000
10
12
11
#920000000
0+
0$
1%
0-
0&
b1100 )
#920350000
1,
#920500000
1/
15
16
#920600000
1!
13
14
#925000000
1+
1$
0.
0'
b1011101 *
#925200000
00
02
01
#925300000
0!
03
04
#925500000
0/
05
06
#925600000
1!
13
14
#930000000
0+
0$
1.
1'
b1101 )
#930200000
10
12
11
#930300000
0!
03
04
#930500000
1/
15
16
#930600000
1!
13
14
#935000000
1+
1$
b1011110 *
#935200000
00
02
01
#935300000
0!
03
04
#940000000
0+
0$
b1110 )
#940200000
10
12
11
#940300000
1!
13
14
#945000000
1+
1$
1-
1&
0.
0'
b1011111 *
#945200000
00
02
01
#945300000
0!
03
04
#950000000
0+
0$
0-
0&
1.
1'
b1111 )
#950200000
10
12
11
#950300000
1!
13
14
#955000000
1+
1$
1-
1&
b1100000 *
#955200000
00
02
01
#955300000
0!
03
04
#955500000
0/
05
06
#955600000
1!
13
14
#960000000
0+
0$
0.
0'
b110 (
b0 )
#960200000
10
12
11
#960300000
0!
03
04
#960500000
1/
15
16
#960600000
1!
13
14
#965000000
0%
0-
0&
b1100001 *
#965350000
0,
#965500000
0/
05
06
#965600000
0!
03
04
#970000000
1%
1-
1&
b1 )
#970350000
1,
#970500000
1/
15
16
#970600000
1!
13
14
#975000000
0%
0-
0&
1.
1'
b1100010 *
#975350000
0,
#980000000
1%
1-
1&
0.
0'
b10 )
#980350000
1,
#985000000
0%
b1100011 *
#985350000
0,
#990000000
1%
b11 )
#990350000
1,
#995000000
0%
1.
1'
b1100100 *
#995350000
0,
#995500000
0/
05
06
#995600000
0!
03
04
#1000000000
1%
0.
0'
b100 )
#1000350000
1,
#1000500000
1/
15
16
#1000600000
1!
13
14
#1005000000
0-
0&
b1100101 *
#1005500000
0/
05
06
#1005600000
0!
03
04
#1010000000
1-
1&
b101 )
#1010500000
1/
15
16
#1010600000
1!
13
14
#1015000000
0-
0&
1.
1'
b1100110 *
#1020000000
1-
1&
0.
0'
b110 )
#1025000000
b1100111 *
#1030000000
b111 )
#1035000000
1.
1'
b1101000 *
#1035500000
0/
05
06
#1035600000
0!
03
04
#1040000000
0.
0'
b1000 )
#1040500000
1/
15
16
#1040600000
1!
13
14
#1045000000
1+
1$
0%
0-
0&
b1101001 *
#1045200000
00
02
01
#1045300000
0!
03
04
#1045350000
0,
#1045500000
0/
05
06
#1045550000
10
12
11
#1050000000
0+
0$
1%
1-
1&
b1001 )
#1050350000
1,
#1050500000
1/
15
16
#1050600000
1!
13
14
#1055000000
1+
1$
0%
0-
0&
1.
1'
b1101010 *
#1055200000
00
02
01
#1055300000
0!
03
04
#1055350000
0,
#1055550000
10
12
11
#1055650000
1!
13
14
#1060000000
0+
0$
1%
1-
1&
0.
0'
b1010 )
#1060350000
1,
#1065000000
1+
1$
0%
b1101011 *
#1065200000
00
02
01
#1065300000
0!
03
04
#1065350000
0,
#1065550000
10
12
11
#1065650000
1!
13
14
#1070000000
0+
0$
1%
b1011 )
#1070350000
1,
#1075000000
1+
1$
0%
1.
1'
b1101100 *
#1075200000
00
02
01
#1075300000
0!
03
04
#1075350000
0,
#1075500000
0/
05
06
#1075550000
10
12
11
#1080000000
0+
0$
1%
0.
0'
b1100 )
#1080350000
1,
#1080500000
1/
15
16
#1080600000
1!
13
14
#1085000000
1+
1$
0-
0&
b1101101 *
#1085200000
00
02
01
#1085300000
0!
03
04
#1085500000
0/
05
06
#1085600000
1!
13
14
#1090000000
0+
0$
1-
1&
b1101 )
#1090200000
10
12
11
#1090300000
0!
03
04
#1090500000
1/
15
16
#1090600000
1!
13
14
#1095000000
1+
1$
0-
0&
1.
1'
b1101110 *
#1095200000
00
02
01
#1095300000
0!
03
04
#1100000000
0+
0$
1-
1&
0.
0'
b1110 )
#1100200000
10
12
11
#1100300000
1!
13
14
#1105000000
1+
1$
b1101111 *
#1105200000
00
02
01
#1105300000
0!
03
04
#1110000000
0+
0$
b1111 )
#1110200000
10
12
11
#1110300000
1!
13
14
#1115000000
1+
1$
1.
1'
b1110000 *
#1115200000
00
02
01
#1115300000
0!
03
04
#1115500000
0/
05
06
#1115600000
1!
13
14
#1120000000
0+
0$
b111 (
b0 )
#1120200000
10
12
11
#1120300000
0!
03
04
#1125000000
0%
0-
0&
0.
0'
b1110001 *
#1125350000
0,
#1130000000
1%
1-
1&
1.
1'
b1 )
#1130350000
1,
#1135000000
0%
0-
0&
b1110010 *
#1135350000
0,
#1135500000
1/
15
16
#1135600000
1!
13
14
#1140000000
1%
1-
1&
b10 )
#1140350000
1,
#1140500000
0/
05
06
#1140600000
0!
03
04
#1145000000
0%
0.
0'
b1110011 *
#1145350000
0,
#1145500000
1/
15
16
#1145600000
1!
13
14
#1150000000
1%
1.
1'
b11 )
#1150350000
1,
#1150500000
0/
05
06
#1150600000
0!
03
04
#1155000000
0%
b1110100 *
#1155350000
0,
#1160000000
1%
b100 )
#1160350000
1,
#1165000000
0-
0&
0.
0'
b1110101 *
#1170000000
1-
1&
1.
1'
b101 )
#1175000000
0-
0&
b1110110 *
#1175500000
1/
15
16
#1175600000
1!
13
14
#1180000000
1-
1&
b110 )
#1180500000
0/
05
06
#1180600000
0!
03
04
#1185000000
0.
0'
b1110111 *
#1185500000
1/
15
16
#1185600000
1!
13
14
#1190000000
1.
1'
b111 )
#1190500000
0/
05
06
#1190600000
0!
03
04
#1195000000
b1111000 *
#1200000000
b1000 )
#1205000000
1+
1$
0%
0-
0&
0.
0'
b1111001 *
#1205200000
00
02
01
#1205300000
1!
13
14
#1205350000
0,
#1205550000
10
12
11
#1205650000
0!
03
04
#1210000000
0+
0$
1%
1-
1&
1.
1'
b1001 )
#1210350000
1,
#1215000000
1+
1$
0%
0-
0&
b1111010 *
#1215200000
00
02
01
#1215300000
1!
13
14
#1215350000
0,
#1215500000
1/
15
16
#1215550000
10
12
11
#1220000000
0+
0$
1%
1-
1&
b1010 )
#1220350000
1,
#1220500000
0/
05
06
#1220600000
0!
03
04
#1225000000
1+
1$
0%
0.
0'
b1111011 *
#1225200000
00
02
01
#1225300000
1!
13
14
#1225350000
0,
#1225500000
1/
15
16
#1225550000
10
12
11
#1230000000
0+
0$
1%
1.
1'
b1011 )
#1230350000
1,
#1230500000
0/
05
06
#1230600000
0!
03
04
#1235000000
1+
1$
0%
b1111100 *
#1235200000
00
02
01
#1235300000
1!
13
14
#1235350000
0,
#1235550000
10
12
11
#1235650000
0!
03
04
#1240000000
0+
0$
1%
b1100 )
#1240350000
1,
#1245000000
1+
1$
0-
0&
0.
0'
b1111101 *
#1245200000
00
02
01
#1245300000
1!
13
14
#1250000000
0+
0$
1-
1&
1.
1'
b1101 )
#1250200000
10
12
11
#1250300000
0!
03
04
#1255000000
1+
1$
0-
0&
b1111110 *
#1255200000
00
02
01
#1255300000
1!
13
14
#1255500000
1/
15
16
#1255600000
0!
03
04
#1260000000
0+
0$
1-
1&
b1110 )
#1260200000
10
12
11
#1260300000
1!
13
14
#1260500000
0/
05
06
#1260600000
0!
03
04
#1265000000
1+
1$
0.
0'
b1111111 *
#1265200000
00
02
01
#1265300000
1!
13
14
#1265500000
1/
15
16
#1265600000
0!
03
04
#1270000000
0+
0$
1.
1'
b1111 )
#1270200000
10
12
11
#1270300000
1!
13
14
#1270500000
0/
05
06
#1270600000
0!
03
04
#1275000000
1+
1$
b10000000 *
#1275200000
00
02
01
#1275300000
1!
13
14
#1280000000
0%
0-
0&
0.
0'
b1000 (
b0 )
#1280350000
0,
#1280550000
10
12
11
#1280650000
0!
03
04
#1285000000
0+
0$
b10000001 *
#1290000000
1+
1$
b1 )
#1295000000
0+
0$
1.
1'
b10000010 *
#1295500000
1/
15
16
#1295600000
1!
13
14
#1300000000
1+
1$
0.
0'
b10 )
#1300500000
0/
05
06
#1300600000
0!
03
04
#1305000000
0+
0$
1-
1&
b10000011 *
#1305500000
1/
15
16
#1305600000
1!
13
14
#1310000000
1+
1$
0-
0&
b11 )
#1310500000
0/
05
06
#1310600000
0!
03
04
#1315000000
0+
0$
1-
1&
1.
1'
b10000100 *
#1320000000
1+
1$
0-
0&
0.
0'
b100 )
#1325000000
0+
0$
1%
b10000101 *
#1325350000
1,
#1330000000
1+
1$
0%
b101 )
#1330200000
00
02
01
#1330300000
1!
13
14
#1330350000
0,
#1330550000
10
12
11
#1330650000
0!
03
04
#1335000000
0+
0$
1%
1.
1'
b10000110 *
#1335350000
1,
#1335500000
1/
15
16
#1335600000
1!
13
14
#1340000000
1+
1$
0%
0.
0'
b110 )
#1340200000
00
02
01
#1340300000
0!
03
04
#1340350000
0,
#1340500000
0/
05
06
#1340550000
10
12
11
#1345000000
0+
0$
1%
1-
1&
b10000111 *
#1345350000
1,
#1345500000
1/
15
16
#1345600000
1!
13
14
#1350000000
1+
1$
0%
0-
0&
b111 )
#1350200000
00
02
01
#1350300000
0!
03
04
#1350350000
0,
#1350500000
0/
05
06
#1350550000
10
12
11
#1355000000
0+
0$
1%
1-
1&
1.
1'
b10001000 *
#1355350000
1,
#1360000000
1+
1$
0%
0-
0&
0.
0'
b1000 )
#1360200000
00
02
01
#1360300000
1!
13
14
#1360350000
0,
#1360550000
10
12
11
#1360650000
0!
03
04
#1365000000
b10001001 *
#1370000000
b1001 )
#1375000000
1.
1'
b10001010 *
#1375500000
1/
15
16
#1375600000
1!
13
14
#1380000000
0.
0'
b1010 )
#1380500000
0/
05
06
#1380600000
0!
03
04
#1385000000
1-
1&
b10001011 *
#1385500000
1/
15
16
#1385600000
1!
13
14
#1390000000
0-
0&
b1011 )
#1390500000
0/
05
06
#1390600000
0!
03
04
#1395000000
1-
1&
1.
1'
b10001100 *
#1400000000
0-
0&
0.
0'
b1100 )
#1405000000
1%
b10001101 *
#1405350000
1,
#1405550000
00
02
01
#1405650000
1!
13
14
#1410000000
0%
b1101 )
#1410350000
0,
#1410550000
10
12
11
#1410650000
0!
03
04
#1415000000
1%
1.
1'
b10001110 *
#1415350000
1,
#1415500000
1/
15
16
#1415550000
00
02
01
#1420000000
0%
0.
0'
b1110 )
#1420350000
0,
#1420500000
0/
05
06
#1420550000
10
12
11
#1425000000
1%
1-
1&
b10001111 *
#1425350000
1,
#1425500000
1/
15
16
#1425550000
00
02
01
#1430000000
0%
0-
0&
b1111 )
#1430350000
0,
#1430500000
0/
05
06
#1430550000
10
12
11
#1435000000
1%
1-
1&
1.
1'
b10010000 *
#1435350000
1,
#1435550000
00
02
01
#1435650000
1!
13
14
#1440000000
0%
0-
0&
b1001 (
b0 )
#1440350000
0,
#1440500000
1/
15
16
#1440550000
10
12
11
#1445000000
0+
0$
0.
0'
b10010001 *
#1445500000
0/
05
06
#1445600000
0!
03
04
#1450000000
1+
1$
1.
1'
b1 )
#1450500000
1/
15
16
#1450600000
1!
13
14
#1455000000
0+
0$
b10010010 *
#1460000000
1+
1$
b10 )
#1465000000
0+
0$
1-
1&
0.
0'
b10010011 *
#1470000000
1+
1$
0-
0&
1.
1'
b11 )
#1475000000
0+
0$
1-
1&
b10010100 *
#1475500000
0/
05
06
#1475600000
0!
03
04
#1480000000
1+
1$
0-
0&
b100 )
#1480500000
1/
15
16
#1480600000
1!
13
14
#1485000000
0+
0$
1%
0.
0'
b10010101 *
#1485350000
1,
#1485500000
0/
05
06
#1485600000
0!
03
04
#1490000000
1+
1$
0%
1.
1'
b101 )
#1490200000
00
02
01
#1490300000
1!
13
14
