correlations/verilog/tb/vcd/correlation.vcd
$date
	Wed Jun 15 15:04:30 2022
$end
$version
	Icarus Verilog
$end
$timescale
	1fs
$end
$scope module correlation_tb $end
$var wire 1 ! y1 $end
$var reg 1 " VGND $end
$var reg 1 # VPWR $end
$var reg 1 $ a $end
$var reg 1 % b $end
$var reg 1 & r1 $end
$var reg 1 ' r2 $end
$var integer 32 ( i [31:0] $end
$var integer 32 ) j [31:0] $end
$var integer 32 * sim [31:0] $end
$scope module uut_r $end
$var wire 1 " VGND $end
$var wire 1 # VPWR $end
$var wire 1 + _delA_ $end
$var wire 1 , _delB_ $end
$var wire 1 - _delR1_ $end
$var wire 1 . _delR2_ $end
$var wire 1 $ a $end
$var wire 1 % b $end
$var wire 1 & r1 $end
$var wire 1 ' r2 $end
$var wire 1 ! y $end
$var wire 1 / _02_ $end
$var wire 1 0 _01_ $end
$scope module _nand_ $end
$var wire 1 + A $end
$var wire 1 , B $end
$var wire 1 " VGND $end
$var wire 1 " VNB $end
$var wire 1 # VPB $end
$var wire 1 # VPWR $end
$var wire 1 0 Y $end
$scope module base $end
$var wire 1 + A $end
$var wire 1 , B $end
$var wire 1 " VGND $end
$var wire 1 " VNB $end
$var wire 1 # VPB $end
$var wire 1 # VPWR $end
$var wire 1 0 Y $end
$var wire 1 1 nand0_out_Y $end
$var wire 1 2 pwrgood_pp0_out_Y $end
$upscope $end
$upscope $end
$scope module _xnor_ $end
$var wire 1 0 A $end
$var wire 1 " VGND $end
$var wire 1 " VNB $end
$var wire 1 # VPB $end
$var wire 1 # VPWR $end
$var wire 1 ! Y $end
$var wire 1 / B $end
$scope module base $end
$var wire 1 0 A $end
$var wire 1 " VGND $end
$var wire 1 " VNB $end
$var wire 1 # VPB $end
$var wire 1 # VPWR $end
$var wire 1 ! Y $end
$var wire 1 3 pwrgood_pp0_out_Y $end
$var wire 1 4 xnor0_out_Y $end
$var wire 1 / B $end
$upscope $end
$upscope $end
$scope module _xor_ $end
$var wire 1 - A $end
$var wire 1 . B $end
$var wire 1 " VGND $end
$var wire 1 " VNB $end
$var wire 1 # VPB $end
$var wire 1 # VPWR $end
$var wire 1 / X $end
$scope module base $end
$var wire 1 - A $end
$var wire 1 . B $end
$var wire 1 " VGND $end
$var wire 1 " VNB $end
$var wire 1 # VPB $end
$var wire 1 # VPWR $end
$var wire 1 / X $end
$var wire 1 5 pwrgood_pp0_out_X $end
$var wire 1 6 xor0_out_X $end
$upscope $end
$upscope $end
$upscope $end
$upscope $end
$enddefinitions $end
#0
$dumpvars
x6
x5
x4
x3
x2
x1
x0
x/
x.
x-
x,
x+
b0 *
b0 )
b0 (
0'
0&
0%
0$
1#
0"
x!
$end
#10000
0.
#40000
0+
#240000
10
12
11
#350000
0,
#520000
0-
#1020000
0/
05
06
#1120000
0!
03
04
#5000000
b1 *
#10000000
b1 )
#15000000
1'
b10 *
#15010000
1.
#15510000
1/
15
16
#15610000
1!
13
14
#20000000
0'
b10 )
#20010000
0.
#20510000
0/
05
06
#20610000
0!
03
04
#25000000
1&
b11 *
#25520000
1-
#26020000
1/
15
16
#26120000
1!
13
14
#30000000
0&
b11 )
#30520000
0-
#31020000
0/
05
06
#31120000
0!
03
04
#35000000
1&
1'
b100 *
#35010000
1.
#35510000
1/
15
16
#35520000
1-
#35610000
1!
13
14
#36020000
0/
05
06
#36120000
0!
03
04
#40000000
0&
0'
b100 )
#40010000
0.
#40510000
1/
15
16
#40520000
0-
#40610000
1!
13
14
#41020000
0/
05
06
#41120000
0!
03
04
#45000000
1%
b101 *
#45350000
1,
#50000000
0%
b101 )
#50350000
0,
#55000000
1%
1'
b110 *
#55010000
1.
#55350000
1,
#55510000
1/
15
16
#55610000
1!
13
14
#60000000
0%
0'
b110 )
#60010000
0.
#60350000
0,
#60510000
0/
05
06
#60610000
0!
03
04
#65000000
1%
1&
b111 *
#65350000
1,
#65520000
1-
#66020000
1/
15
16
#66120000
1!
13
14
#70000000
0%
0&
b111 )
#70350000
0,
#70520000
0-
#71020000
0/
05
06
#71120000
0!
03
04
#75000000
1%
1&
1'
b1000 *
#75010000
1.
#75350000
1,
#75510000
1/
15
16
#75520000
1-
#75610000
1!
13
14
#76020000
0/
05
06
#76120000
0!
03
04
#80000000
0%
0&
0'
b1000 )
#80010000
0.
#80350000
0,
#80510000
1/
15
16
#80520000
0-
#80610000
1!
13
14
#81020000
0/
05
06
#81120000
0!
03
04
#85000000
1$
b1001 *
#85040000
1+
#90000000
0$
b1001 )
#90040000
0+
#95000000
1$
1'
b1010 *
#95010000
1.
#95040000
1+
#95510000
1/
15
16
#95610000
1!
13
14
#100000000
0$
0'
b1010 )
#100010000
0.
#100040000
0+
#100510000
0/
05
06
#100610000
0!
03
04
#105000000
1$
1&
b1011 *
#105040000
1+
#105520000
1-
#106020000
1/
15
16
#106120000
1!
13
14
#110000000
0$
0&
b1011 )
#110040000
0+
#110520000
0-
#111020000
0/
05
06
#111120000
0!
03
04
#115000000
1$
1&
1'
b1100 *
#115010000
1.
#115040000
1+
#115510000
1/
15
16
#115520000
1-
#115610000
1!
13
14
#116020000
0/
05
06
#116120000
0!
03
04
#120000000
0$
0&
0'
b1100 )
#120010000
0.
#120040000
0+
#120510000
1/
15
16
#120520000
0-
#120610000
1!
13
14
#121020000
0/
05
06
#121120000
0!
03
04
#125000000
1$
1%
b1101 *
#125040000
1+
#125350000
1,
#125550000
00
02
01
#125650000
1!
13
14
#130000000
0$
0%
b1101 )
#130040000
0+
#130240000
10
12
11
#130340000
0!
03
04
#130350000
0,
#135000000
1$
1%
1'
b1110 *
#135010000
1.
#135040000
1+
#135350000
1,
#135510000
1/
15
16
#135550000
00
02
01
#140000000
0$
0%
0'
b1110 )
#140010000
0.
#140040000
0+
#140240000
10
12
11
#140340000
1!
13
14
#140350000
0,
#140510000
0/
05
06
#140610000
0!
03
04
#145000000
1$
1%
1&
b1111 *
#145040000
1+
#145350000
1,
#145520000
1-
#145550000
00
02
01
#145650000
1!
13
14
#146020000
1/
15
16
#146120000
0!
03
04
#150000000
0$
0%
0&
b1111 )
#150040000
0+
#150240000
10
12
11
#150340000
1!
13
14
#150350000
0,
#150520000
0-
#151020000
0/
05
06
#151120000
0!
03
04
#155000000
1$
1%
1&
1'
b10000 *
#155010000
1.
#155040000
1+
#155350000
1,
#155510000
1/
15
16
#155520000
1-
#155550000
00
02
01
#156020000
0/
05
06
#156120000
1!
13
14
#160000000
0$
0%
0&
b1 (
b0 )
#160040000
0+
#160240000
10
12
11
#160340000
0!
03
04
#160350000
0,
#160520000
0-
#161020000
1/
15
16
#161120000
1!
13
14
#165000000
0'
b10001 *
#165010000
0.
#165510000
0/
05
06
#165610000
0!
03
04
#170000000
1'
b1 )
#170010000
1.
#170510000
1/
15
16
#170610000
1!
13
14
#175000000
b10010 *
#180000000
b10 )
#185000000
1&
0'
b10011 *
#185010000
0.
#185510000
0/
05
06
#185520000
1-
#185610000
0!
03
04
#186020000
1/
15
16
#186120000
1!
13
14
#190000000
0&
1'
b11 )
#190010000
1.
#190510000
0/
05
06
#190520000
0-
#190610000
0!
03
04
#191020000
1/
15
16
#191120000
1!
13
14
#195000000
1&
b10100 *
#195520000
1-
#196020000
0/
05
06
#196120000
0!
03
04
#200000000
0&
b100 )
#200520000
0-
#201020000
1/
15
16
#201120000
1!
13
14
#205000000
1%
0'
b10101 *
#205010000
0.
#205350000
1,
#205510000
0/
05
06
#205610000
0!
03
04
#210000000
0%
1'
b101 )
#210010000
1.
#210350000
0,
#210510000
1/
15
16
#210610000
1!
13
14
#215000000
1%
b10110 *
#215350000
1,
#220000000
0%
b110 )
#220350000
0,
#225000000
1%
1&
0'
b10111 *
#225010000
0.
#225350000
1,
#225510000
0/
05
06
#225520000
1-
#225610000
0!
03
04
#226020000
1/
15
16
#226120000
1!
13
14
#230000000
0%
0&
1'
b111 )
#230010000
1.
#230350000
0,
#230510000
0/
05
06
#230520000
0-
#230610000
0!
03
04
#231020000
1/
15
16
#231120000
1!
13
14
#235000000
1%
1&
b11000 *
#235350000
1,
#235520000
1-
#236020000
0/
05
06
#236120000
0!
03
04
#240000000
0%
0&
b1000 )
#240350000
0,
#240520000
0-
#241020000
1/
15
16
#241120000
1!
13
14
#245000000
1$
0'
b11001 *
#245010000
0.
#245040000
1+
#245510000
0/
05
06
#245610000
0!
03
04
#250000000
0$
1'
b1001 )
#250010000
1.
#250040000
0+
#250510000
1/
15
16
#250610000
1!
13
14
#255000000
1$
b11010 *
#255040000
1+
#260000000
0$
b1010 )
#260040000
0+
#265000000
1$
1&
0'
b11011 *
#265010000
0.
#265040000
1+
#265510000
0/
05
06
#265520000
1-
#265610000
0!
03
04
#266020000
1/
15
16
#266120000
1!
13
14
#270000000
0$
0&
1'
b1011 )
#270010000
1.
#270040000
0+
#270510000
0/
05
06
#270520000
0-
#270610000
0!
03
04
#271020000
1/
15
16
#271120000
1!
13
14
#275000000
1$
1&
b11100 *
#275040000
1+
#275520000
1-
#276020000
0/
05
06
#276120000
0!
03
04
#280000000
0$
0&
b1100 )
#280040000
0+
#280520000
0-
#281020000
1/
15
16
#281120000
1!
13
14
#285000000
1$
1%
0'
b11101 *
#285010000
0.
#285040000
1+
#285350000
1,
#285510000
0/
05
06
#285550000
00
02
01
#290000000
0$
0%
1'
b1101 )
#290010000
1.
#290040000
0+
#290240000
10
12
11
#290340000
0!
03
04
#290350000
0,
#290510000
1/
15
16
#290610000
1!
13
14
#295000000
1$
1%
b11110 *
#295040000
1+
#295350000
1,
#295550000
00
02
01
#295650000
0!
03
04
#300000000
0$
0%
b1110 )
#300040000
0+
#300240000
10
12
11
#300340000
1!
13
14
#300350000
0,
#305000000
1$
1%
1&
0'
b11111 *
#305010000
0.
#305040000
1+
#305350000
1,
#305510000
0/
05
06
#305520000
1-
#305550000
00
02
01
#306020000
1/
15
16
#306120000
0!
03
04
#310000000
0$
0%
0&
1'
b1111 )
#310010000
1.
#310040000
0+
#310240000
10
12
11
#310340000
1!
13
14
#310350000
0,
#310510000
0/
05
06
#310520000
0-
#310610000
0!
03
04
#311020000
1/
15
16
#311120000
1!
13
14
#315000000
1$
1%
1&
b100000 *
#315040000
1+
#315350000
1,
#315520000
1-
#315550000
00
02
01
#315650000
0!
03
04
#316020000
0/
05
06
#316120000
1!
13
14
#320000000
0$
0%
0'
b10 (
b0 )
#320010000
0.
#320040000
0+
#320240000
10
12
11
#320340000
0!
03
04
#320350000
0,
#320510000
1/
15
16
#320610000
1!
13
14
#325000000
0&
b100001 *
#325520000
0-
#326020000
0/
05
06
#326120000
0!
03
04
#330000000
1&
b1 )
#330520000
1-
#331020000
1/
15
16
#331120000
1!
13
14
#335000000
0&
1'
b100010 *
#335010000
1.
#335510000
0/
05
06
#335520000
0-
#335610000
0!
03
04
#336020000
1/
15
16
#336120000
1!
13
14
#340000000
1&
0'
b10 )
#340010000
0.
#340510000
0/
05
06
#340520000
1-
#340610000
0!
03
04
#341020000
1/
15
16
#341120000
1!
13
14
#345000000
b100011 *
#350000000
b11 )
#355000000
1'
b100100 *
#355010000
1.
#355510000
0/
05
06
#355610000
0!
03
04
#360000000
0'
b100 )
#360010000
0.
#360510000
1/
15
16
#360610000
1!
13
14
#365000000
1%
0&
b100101 *
#365350000
1,
#365520000
0-
#366020000
0/
05
06
#366120000
0!
03
04
#370000000
0%
1&
b101 )
#370350000
0,
#370520000
1-
#371020000
1/
15
16
#371120000
1!
13
14
#375000000
1%
0&
1'
b100110 *
#375010000
1.
#375350000
1,
#375510000
0/
05
06
#375520000
0-
#375610000
0!
03
04
#376020000
1/
15
16
#376120000
1!
13
14
#380000000
0%
1&
0'
b110 )
#380010000
0.
#380350000
0,
#380510000
0/
05
06
#380520000
1-
#380610000
0!
03
04
#381020000
1/
15
16
#381120000
1!
13
14
#385000000
1%
b100111 *
#385350000
1,
#390000000
0%
b111 )
#390350000
0,
#395000000
1%
1'
b101000 *
#395010000
1.
#395350000
1,
#395510000
0/
05
06
#395610000
0!
03
04
#400000000
0%
0'
b1000 )
#400010000
0.
#400350000
0,
#400510000
1/
15
16
#400610000
1!
13
14
#405000000
1$
0&
b101001 *
#405040000
1+
#405520000
0-
#406020000
0/
05
06
#406120000
0!
03
04
#410000000
0$
1&
b1001 )
#410040000
0+
#410520000
1-
#411020000
1/
15
16
#411120000
1!
13
14
#415000000
1$
0&
1'
b101010 *
#415010000
1.
#415040000
1+
#415510000
0/
05
06
#415520000
0-
#415610000
0!
03
04
#416020000
1/
15
16
#416120000
1!
13
14
#420000000
0$
1&
0'
b1010 )
#420010000
0.
#420040000
0+
#420510000
0/
05
06
#420520000
1-
#420610000
0!
03
04
#421020000
1/
15
16
#421120000
1!
13
14
#425000000
1$
b101011 *
#425040000
1+
#430000000
0$
b1011 )
#430040000
0+
#435000000
1$
1'
b101100 *
#435010000
1.
#435040000
1+
#435510000
0/
05
06
#435610000
0!
03
04
#440000000
0$
0'
b1100 )
#440010000
0.
#440040000
0+
#440510000
1/
15
16
#440610000
1!
13
14
#445000000
1$
1%
0&
b101101 *
#445040000
1+
#445350000
1,
#445520000
0-
#445550000
00
02
01
#445650000
0!
03
04
#446020000
0/
05
06
#446120000
1!
13
14
#450000000
0$
0%
1&
b1101 )
#450040000
0+
#450240000
10
12
11
#450340000
0!
03
04
#450350000
0,
#450520000
1-
#451020000
1/
15
16
#451120000
1!
13
14
#455000000
1$
1%
0&
1'
b101110 *
#455010000
1.
#455040000
1+
#455350000
1,
#455510000
0/
05
06
#455520000
0-
#455550000
00
02
01
#456020000
1/
15
16
#456120000
0!
03
04
#460000000
0$
0%
1&
0'
b1110 )
#460010000
0.
#460040000
0+
#460240000
10
12
11
#460340000
1!
13
14
#460350000
0,
#460510000
0/
05
06
#460520000
1-
#460610000
0!
03
04
#461020000
1/
15
16
#461120000
1!
13
14
#465000000
1$
1%
b101111 *
#465040000
1+
#465350000
1,
#465550000
00
02
01
#465650000
0!
03
04
#470000000
0$
0%
b1111 )
#470040000
0+
#470240000
10
12
11
#470340000
1!
13
14
#470350000
0,
#475000000
1$
1%
1'
b110000 *
#475010000
1.
#475040000
1+
#475350000
1,
#475510000
0/
05
06
#475550000
00
02
01
#480000000
0$
0%
b11 (
b0 )
#480040000
0+
#480240000
10
12
11
#480340000
0!
03
04
#480350000
0,
#485000000
0&
0'
b110001 *
#485010000
0.
#485510000
1/
15
16
#485520000
0-
#485610000
1!
13
14
#486020000
0/
05
06
#486120000
0!
03
04
#490000000
1&
1'
b1 )
#490010000
1.
#490510000
1/
15
16
#490520000
1-
#490610000
1!
13
14
#491020000
0/
05
06
#491120000
0!
03
04
#495000000
0&
b110010 *
#495520000
0-
#496020000
1/
15
16
#496120000
1!
13
14
#500000000
1&
b10 )
#500520000
1-
#501020000
0/
05
06
#501120000
0!
03
04
#505000000
0'
b110011 *
#505010000
0.
#505510000
1/
15
16
#505610000
1!
13
14
#510000000
1'
b11 )
#510010000
1.
#510510000
0/
05
06
#510610000
0!
03
04
#515000000
b110100 *
#520000000
b100 )
#525000000
1%
0&
0'
b110101 *
#525010000
0.
#525350000
1,
#525510000
1/
15
16
#525520000
0-
#525610000
1!
13
14
#526020000
0/
05
06
#526120000
0!
03
04
#530000000
0%
1&
1'
b101 )
#530010000
1.
#530350000
0,
#530510000
1/
15
16
#530520000
1-
#530610000
1!
13
14
#531020000
0/
05
06
#531120000
0!
03
04
#535000000
1%
0&
b110110 *
#535350000
1,
#535520000
0-
#536020000
1/
15
16
#536120000
1!
13
14
#540000000
0%
1&
b110 )
#540350000
0,
#540520000
1-
#541020000
0/
05
06
#541120000
0!
03
04
#545000000
1%
0'
b110111 *
#545010000
0.
#545350000
1,
#545510000
1/
15
16
#545610000
1!
13
14
#550000000
0%
1'
b111 )
#550010000
1.
#550350000
0,
#550510000
0/
05
06
#550610000
0!
03
04
#555000000
1%
b111000 *
#555350000
1,
#560000000
0%
b1000 )
#560350000
0,
#565000000
1$
0&
0'
b111001 *
#565010000
0.
#565040000
1+
#565510000
1/
15
16
#565520000
0-
#565610000
1!
13
14
#566020000
0/
05
06
#566120000
0!
03
04
#570000000
0$
1&
1'
b1001 )
#570010000
1.
#570040000
0+
#570510000
1/
15
16
#570520000
1-
#570610000
1!
13
14
#571020000
0/
05
06
#571120000
0!
03
04
#575000000
1$
0&
b111010 *
#575040000
1+
#575520000
0-
#576020000
1/
15
16
#576120000
1!
13
14
#580000000
0$
1&
b1010 )
#580040000
0+
#580520000
1-
#581020000
0/
05
06
#581120000
0!
03
04
#585000000
1$
0'
b111011 *
#585010000
0.
#585040000
1+
#585510000
1/
15
16
#585610000
1!
13
14
#590000000
0$
1'
b1011 )
#590010000
1.
#590040000
0+
#590510000
0/
05
06
#590610000
0!
03
04
#595000000
1$
b111100 *
#595040000
1+
#600000000
0$
b1100 )
#600040000
0+
#605000000
1$
1%
0&
0'
b111101 *
#605010000
0.
#605040000
1+
#605350000
1,
#605510000
1/
15
16
#605520000
0-
#605550000
00
02
01
#606020000
0/
05
06
#606120000
1!
13
14
#610000000
0$
0%
1&
1'
b1101 )
#610010000
1.
#610040000
0+
#610240000
10
12
11
#610340000
0!
03
04
#610350000
0,
#610510000
1/
15
16
#610520000
1-
#610610000
1!
13
14
#611020000
0/
05
06
#611120000
0!
03
04
#615000000
1$
1%
0&
b111110 *
#615040000
1+
#615350000
1,
#615520000
0-
#615550000
00
02
01
#615650000
1!
13
14
#616020000
1/
15
16
#616120000
0!
03
04
#620000000
0$
0%
1&
b1110 )
#620040000
0+
#620240000
10
12
11
#620340000
1!
13
14
#620350000
0,
#620520000
1-
#621020000
0/
05
06
#621120000
0!
03
04
#625000000
1$
1%
0'
b111111 *
#625010000
0.
#625040000
1+
#625350000
1,
#625510000
1/
15
16
#625550000
00
02
01
#630000000
0$
0%
1'
b1111 )
#630010000
1.
#630040000
0+
#630240000
10
12
11
#630340000
1!
13
14
#630350000
0,
#630510000
0/
05
06
#630610000
0!
03
04
#635000000
1$
1%
b1000000 *
#635040000
1+
#635350000
1,
#635550000
00
02
01
#635650000
1!
13
14
#640000000
0$
0&
0'
b100 (
b0 )
#640010000
0.
#640040000
0+
#640240000
10
12
11
#640340000
0!
03
04
#640510000
1/
15
16
#640520000
0-
#640610000
1!
13
14
#641020000
0/
05
06
#641120000
0!
03
04
#645000000
0%
b1000001 *
#645350000
0,
#650000000
1%
b1 )
#650350000
1,
#655000000
0%
1'
b1000010 *
#655010000
1.
#655350000
0,
#655510000
1/
15
16
#655610000
1!
13
14
#660000000
1%
0'
b10 )
#660010000
0.
#660350000
1,
#660510000
0/
05
06
#660610000
0!
03
04
#665000000
0%
1&
b1000011 *
#665350000
0,
#665520000
1-
#666020000
1/
15
16
#666120000
1!
13
14
#670000000
1%
0&
b11 )
#670350000
1,
#670520000
0-
#671020000
0/
05
06
#671120000
0!
03
04
#675000000
0%
1&
1'
b1000100 *
#675010000
1.
#675350000
0,
#675510000
1/
15
16
#675520000
1-
#675610000
1!
13
14
#676020000
0/
05
06
#676120000
0!
03
04
#680000000
1%
0&
0'
b100 )
#680010000
0.
#680350000
1,
#680510000
1/
15
16
#680520000
0-
#680610000
1!
13
14
#681020000
0/
05
06
#681120000
0!
03
04
#685000000
b1000101 *
#690000000
b101 )
#695000000
1'
b1000110 *
#695010000
1.
#695510000
1/
15
16
#695610000
1!
13
14
#700000000
0'
b110 )
#700010000
0.
#700510000
0/
05
06
#700610000
0!
03
04
#705000000
1&
b1000111 *
#705520000
1-
#706020000
1/
15
16
#706120000
1!
13
14
#710000000
0&
b111 )
#710520000
0-
#711020000
0/
05
06
#711120000
0!
03
04
#715000000
1&
1'
b1001000 *
#715010000
1.
#715510000
1/
15
16
#715520000
1-
#715610000
1!
13
14
#716020000
0/
05
06
#716120000
0!
03
04
#720000000
0&
0'
b1000 )
#720010000
0.
#720510000
1/
15
16
#720520000
0-
#720610000
1!
13
14
#721020000
0/
05
06
#721120000
0!
03
04
#725000000
1$
0%
b1001001 *
#725040000
1+
#725240000
00
02
01
#725340000
1!
13
14
#725350000
0,
#725550000
10
12
11
#725650000
0!
03
04
#730000000
0$
1%
b1001 )
#730040000
0+
#730350000
1,
#735000000
1$
0%
1'
b1001010 *
#735010000
1.
#735040000
1+
#735240000
00
02
01
#735340000
1!
13
14
#735350000
0,
#735510000
1/
15
16
#735550000
10
12
11
#740000000
0$
1%
0'
b1010 )
#740010000
0.
#740040000
0+
#740350000
1,
#740510000
0/
05
06
#740610000
0!
03
04
#745000000
1$
0%
1&
b1001011 *
#745040000
1+
#745240000
00
02
01
#745340000
1!
13
14
#745350000
0,
#745520000
1-
#745550000
10
12
11
#745650000
0!
03
04
#746020000
1/
15
16
#746120000
1!
13
14
#750000000
0$
1%
0&
b1011 )
#750040000
0+
#750350000
1,
#750520000
0-
#751020000
0/
05
06
#751120000
0!
03
04
#755000000
1$
0%
1&
1'
b1001100 *
#755010000
1.
#755040000
1+
#755240000
00
02
01
#755340000
1!
13
14
#755350000
0,
#755510000
1/
15
16
#755520000
1-
#755550000
10
12
11
#756020000
0/
05
06
#756120000
0!
03
04
#760000000
0$
1%
0&
0'
b1100 )
#760010000
0.
#760040000
0+
#760350000
1,
#760510000
1/
15
16
#760520000
0-
#760610000
1!
13
14
#761020000
0/
05
06
#761120000
0!
03
04
#765000000
1$
b1001101 *
#765040000
1+
#765240000
00
02
01
#765340000
1!
13
14
#770000000
0$
b1101 )
#770040000
0+
#770240000
10
12
11
#770340000
0!
03
04
#775000000
1$
1'
b1001110 *
#775010000
1.
#775040000
1+
#775240000
00
02
01
#775340000
1!
13
14
#775510000
1/
15
16
#775610000
0!
03
04
#780000000
0$
0'
b1110 )
#780010000
0.
#780040000
0+
#780240000
10
12
11
#780340000
1!
13
14
#780510000
0/
05
06
#780610000
0!
03
04
#785000000
1$
1&
b1001111 *
#785040000
1+
#785240000
00
02
01
#785340000
1!
13
14
#785520000
1-
#786020000
1/
15
16
#786120000
0!
03
04
#790000000
0$
0&
b1111 )
#790040000
0+
#790240000
10
12
11
#790340000
1!
13
14
#790520000
0-
#791020000
0/
05
06
#791120000
0!
03
04
#795000000
1$
1&
1'
b1010000 *
#795010000
1.
#795040000
1+
#795240000
00
02
01
#795340000
1!
13
14
#795510000
1/
15
16
#795520000
1-
#795610000
0!
03
04
#796020000
0/
05
06
#796120000
1!
13
14
#800000000
0$
0&
b101 (
b0 )
#800040000
0+
#800240000
10
12
11
#800340000
0!
03
04
#800520000
0-
#801020000
1/
15
16
#801120000
1!
13
14
#805000000
0%
0'
b1010001 *
#805010000
0.
#805350000
0,
#805510000
0/
05
06
#805610000
0!
03
04
#810000000
1%
1'
b1 )
#810010000
1.
#810350000
1,
#810510000
1/
15
16
#810610000
1!
13
14
#815000000
0%
b1010010 *
#815350000
0,
#820000000
1%
b10 )
#820350000
1,
#825000000
0%
1&
0'
b1010011 *
#825010000
0.
#825350000
0,
#825510000
0/
05
06
#825520000
1-
#825610000
0!
03
04
#826020000
1/
15
16
#826120000
1!
13
14
#830000000
1%
0&
1'
b11 )
#830010000
1.
#830350000
1,
#830510000
0/
05
06
#830520000
0-
#830610000
0!
03
04
#831020000
1/
15
16
#831120000
1!
13
14
#835000000
0%
1&
b1010100 *
#835350000
0,
#835520000
1-
#836020000
0/
05
06
#836120000
0!
03
04
#840000000
1%
0&
b100 )
#840350000
1,
#840520000
0-
#841020000
1/
15
16
#841120000
1!
13
14
#845000000
0'
b1010101 *
#845010000
0.
#845510000
0/
05
06
#845610000
0!
03
04
#850000000
1'
b101 )
#850010000
1.
#850510000
1/
15
16
#850610000
1!
13
14
#855000000
b1010110 *
#860000000
b110 )
#865000000
1&
0'
b1010111 *
#865010000
0.
#865510000
0/
05
06
#865520000
1-
#865610000
0!
03
04
#866020000
1/
15
16
#866120000
1!
13
14
#870000000
0&
1'
b111 )
#870010000
1.
#870510000
0/
05
06
#870520000
0-
#870610000
0!
03
04
#871020000
1/
15
16
#871120000
1!
13
14
#875000000
1&
b1011000 *
#875520000
1-
#876020000
0/
05
06
#876120000
0!
03
04
#880000000
0&
b1000 )
#880520000
0-
#881020000
1/
15
16
#881120000
1!
13
14
#885000000
1$
0%
0'
b1011001 *
#885010000
0.
#885040000
1+
#885240000
00
02
01
#885340000
0!
03
04
#885350000
0,
#885510000
0/
05
06
#885550000
10
12
11
#890000000
0$
1%
1'
b1001 )
#890010000
1.
#890040000
0+
#890350000
1,
#890510000
1/
15
16
#890610000
1!
13
14
#895000000
1$
0%
b1011010 *
#895040000
1+
#895240000
00
02
01
#895340000
0!
03
04
#895350000
0,
#895550000
10
12
11
#895650000
1!
13
14
#900000000
0$
1%
b1010 )
#900040000
0+
#900350000
1,
#905000000
1$
0%
1&
0'
b1011011 *
#905010000
0.
#905040000
1+
#905240000
00
02
01
#905340000
0!
03
04
#905350000
0,
#905510000
0/
05
06
#905520000
1-
#905550000
10
12
11
#906020000
1/
15
16
#906120000
1!
13
14
#910000000
0$
1%
0&
1'
b1011 )
#910010000
1.
#910040000
0+
#910350000
1,
#910510000
0/
05
06
#910520000
0-
#910610000
0!
03
04
#911020000
1/
15
16
#911120000
1!
13
14
#915000000
1$
0%
1&
b1011100 *
#915040000
1+
#915240000
00
02
01
#915340000
0!
03
04
#915350000
0,
#915520000
1-
#915550000
10
12
11
#915650000
1!
13
14
#916020000
0/
05
06
#916120000
0!
03
04
#920000000
0$
1%
0&
b1100 )
#920040000
0+
#920350000
1,
#920520000
0-
#921020000
1/
15
16
#921120000
1!
13
14
#925000000
1$
0'
b1011101 *
#925010000
0.
#925040000
1+
#925240000
00
02
01
#925340000
0!
03
04
#925510000
0/
05
06
#925610000
1!
13
14
#930000000
0$
1'
b1101 )
#930010000
1.
#930040000
0+
#930240000
10
12
11
#930340000
0!
03
04
#930510000
1/
15
16
#930610000
1!
13
14
#935000000
1$
b1011110 *
#935040000
1+
#935240000
00
02
01
#935340000
0!
03
04
#940000000
0$
b1110 )
#940040000
0+
#940240000
10
12
11
#940340000
1!
13
14
#945000000
1$
1&
0'
b1011111 *
#945010000
0.
#945040000
1+
#945240000
00
02
01
#945340000
0!
03
04
#945510000
0/
05
06
#945520000
1-
#945610000
1!
13
14
#946020000
1/
15
16
#946120000
0!
03
04
#950000000
0$
0&
1'
b1111 )
#950010000
1.
#950040000
0+
#950240000
10
12
11
#950340000
1!
13
14
#950510000
0/
05
06
#950520000
0-
#950610000
0!
03
04
#951020000
1/
15
16
#951120000
1!
13
14
#955000000
1$
1&
b1100000 *
#955040000
1+
#955240000
00
02
01
#955340000
0!
03
04
#955520000
1-
#956020000
0/
05
06
#956120000
1!
13
14
#960000000
0$
0'
b110 (
b0 )
#960010000
0.
#960040000
0+
#960240000
10
12
11
#960340000
0!
03
04
#960510000
1/
15
16
#960610000
1!
13
14
#965000000
0%
0&
b1100001 *
#965350000
0,
#965520000
0-
#966020000
0/
05
06
#966120000
0!
03
04
#970000000
1%
1&
b1 )
#970350000
1,
#970520000
1-
#971020000
1/
15
16
#971120000
1!
13
14
#975000000
0%
0&
1'
b1100010 *
#975010000
1.
#975350000
0,
#975510000
0/
05
06
#975520000
0-
#975610000
0!
03
04
#976020000
1/
15
16
#976120000
1!
13
14
#980000000
1%
1&
0'
b10 )
#980010000
0.
#980350000
1,
#980510000
0/
05
06
#980520000
1-
#980610000
0!
03
04
#981020000
1/
15
16
#981120000
1!
13
14
#985000000
0%
b1100011 *
#985350000
0,
#990000000
1%
b11 )
#990350000
1,
#995000000
0%
1'
b1100100 *
#995010000
1.
#995350000
0,
#995510000
0/
05
06
#995610000
0!
03
04
#1000000000
1%
0'
b100 )
#1000010000
0.
#1000350000
1,
#1000510000
1/
15
16
#1000610000
1!
13
14
#1005000000
0&
b1100101 *
#1005520000
0-
#1006020000
0/
05
06
#1006120000
0!
03
04
#1010000000
1&
b101 )
#1010520000
1-
#1011020000
1/
15
16
#1011120000
1!
13
14
#1015000000
0&
1'
b1100110 *
#1015010000
1.
#1015510000
0/
05
06
#1015520000
0-
#1015610000
0!
03
04
#1016020000
1/
15
16
#1016120000
1!
13
14
#1020000000
1&
0'
b110 )
#1020010000
0.
#1020510000
0/
05
06
#1020520000
1-
#1020610000
0!
03
04
#1021020000
1/
15
16
#1021120000
1!
13
14
#1025000000
b1100111 *
#1030000000
b111 )
#1035000000
1'
b1101000 *
#1035010000
1.
#1035510000
0/
05
06
#1035610000
0!
03
04
#1040000000
0'
b1000 )
#1040010000
0.
#1040510000
1/
15
16
#1040610000
1!
13
14
#1045000000
1$
0%
0&
b1101001 *
#1045040000
1+
#1045240000
00
02
01
#1045340000
0!
03
04
#1045350000
0,
#1045520000
0-
#1045550000
10
12
11
#1045650000
1!
13
14
#1046020000
0/
05
06
#1046120000
0!
03
04
#1050000000
0$
1%
1&
b1001 )
#1050040000
0+
#1050350000
1,
#1050520000
1-
#1051020000
1/
15
16
#1051120000
1!
13
14
#1055000000
1$
0%
0&
1'
b1101010 *
#1055010000
1.
#1055040000
1+
#1055240000
00
02
01
#1055340000
0!
03
04
#1055350000
0,
#1055510000
0/
05
06
#1055520000
0-
#1055550000
10
12
11
#1056020000
1/
15
16
#1056120000
1!
13
14
#1060000000
0$
1%
1&
0'
b1010 )
#1060010000
0.
#1060040000
0+
#1060350000
1,
#1060510000
0/
05
06
#1060520000
1-
#1060610000
0!
03
04
#1061020000
1/
15
16
#1061120000
1!
13
14
#1065000000
1$
0%
b1101011 *
#1065040000
1+
#1065240000
00
02
01
#1065340000
0!
03
04
#1065350000
0,
#1065550000
10
12
11
#1065650000
1!
13
14
#1070000000
0$
1%
b1011 )
#1070040000
0+
#1070350000
1,
#1075000000
1$
0%
1'
b1101100 *
#1075010000
1.
#1075040000
1+
#1075240000
00
02
01
