correlations/verilog/tb/vcd/correlation.vcd
$date
	Mon Jun 27 13:15:20 2022
$end
$version
	Icarus Verilog
$end
$timescale
	1fs
$end
$scope module correlation_tb $end
$var wire 1 ! y1 $end
$var reg 1 " VGND $end
$var reg 1 # VPWR $end
$var reg 1 $ a $end
$var reg 1 % b $end
$var reg 1 & r1 $end
$var reg 1 ' r2 $end
$var integer 32 ( i [31:0] $end
$var integer 32 ) j [31:0] $end
$var integer 32 * sim [31:0] $end
$scope module uut_r $end
$var wire 1 " VGND $end
$var wire 1 # VPWR $end
$var wire 1 + _delA_ $end
$var wire 1 , _delB_ $end
$var wire 1 - _delR1_ $end
$var wire 1 . _delR2_ $end
$var wire 1 $ a $end
$var wire 1 % b $end
$var wire 1 & r1 $end
$var wire 1 ' r2 $end
$var wire 1 ! y $end
$var wire 1 / _02_ $end
$var wire 1 0 _01_ $end
$scope module _nand_ $end
$var wire 1 + A $end
$var wire 1 , B $end
$var wire 1 " VGND $end
$var wire 1 " VNB $end
$var wire 1 # VPB $end
$var wire 1 # VPWR $end
$var wire 1 0 Y $end
$scope module base $end
$var wire 1 + A $end
$var wire 1 , B $end
$var wire 1 " VGND $end
$var wire 1 " VNB $end
$var wire 1 # VPB $end
$var wire 1 # VPWR $end
$var wire 1 0 Y $end
$var wire 1 1 nand0_out_Y $end
$var wire 1 2 pwrgood_pp0_out_Y $end
$upscope $end
$upscope $end
$scope module _xnor_ $end
$var wire 1 0 A $end
$var wire 1 " VGND $end
$var wire 1 " VNB $end
$var wire 1 # VPB $end
$var wire 1 # VPWR $end
$var wire 1 ! Y $end
$var wire 1 / B $end
$scope module base $end
$var wire 1 0 A $end
$var wire 1 " VGND $end
$var wire 1 " VNB $end
$var wire 1 # VPB $end
$var wire 1 # VPWR $end
$var wire 1 ! Y $end
$var wire 1 3 pwrgood_pp0_out_Y $end
$var wire 1 4 xnor0_out_Y $end
$var wire 1 / B $end
$upscope $end
$upscope $end
$scope module _xor_ $end
$var wire 1 - A $end
$var wire 1 . B $end
$var wire 1 " VGND $end
$var wire 1 " VNB $end
$var wire 1 # VPB $end
$var wire 1 # VPWR $end
$var wire 1 / X $end
$scope module base $end
$var wire 1 - A $end
$var wire 1 . B $end
$var wire 1 " VGND $end
$var wire 1 " VNB $end
$var wire 1 # VPB $end
$var wire 1 # VPWR $end
$var wire 1 / X $end
$var wire 1 5 pwrgood_pp0_out_X $end
$var wire 1 6 xor0_out_X $end
$upscope $end
$upscope $end
$upscope $end
$upscope $end
$enddefinitions $end
#0
$dumpvars
x6
x5
x4
x3
x2
x1
x0
x/
0.
0-
x,
x+
b0 *
b0 )
b0 (
0'
0&
0%
0$
1#
0"
x!
$end
#400000
0+
#500000
0/
05
06
0,
#600000
10
12
11
#700000
0!
03
04
#5000000
b1 *
#10000000
b1 )
#15000000
1.
1'
b10 *
#15500000
1/
15
16
#15600000
1!
13
14
#20000000
0.
0'
b10 )
#20500000
0/
05
06
#20600000
0!
03
04
#25000000
1-
1&
b11 *
#25500000
1/
15
16
#25600000
1!
13
14
#30000000
0-
0&
b11 )
#30500000
0/
05
06
#30600000
0!
03
04
#35000000
1-
1&
1.
1'
b100 *
#40000000
0-
0&
0.
0'
b100 )
#45000000
1%
b101 *
#45500000
1,
#50000000
0%
b101 )
#50500000
0,
#55000000
1%
1.
1'
b110 *
#55500000
1/
15
16
1,
#55600000
1!
13
14
#60000000
0%
0.
0'
b110 )
#60500000
0/
05
06
0,
#60600000
0!
03
04
#65000000
1%
1-
1&
b111 *
#65500000
1/
15
16
1,
#65600000
1!
13
14
#70000000
0%
0-
0&
b111 )
#70500000
0/
05
06
0,
#70600000
0!
03
04
#75000000
1%
1-
1&
1.
1'
b1000 *
#75500000
1,
#80000000
0%
0-
0&
0.
0'
b1000 )
#80500000
0,
#85000000
1$
b1001 *
#85400000
1+
#90000000
0$
b1001 )
#90400000
0+
#95000000
1$
1.
1'
b1010 *
#95400000
1+
#95500000
1/
15
16
#95600000
1!
13
14
#100000000
0$
0.
0'
b1010 )
#100400000
0+
#100500000
0/
05
06
#100600000
0!
03
04
#105000000
1$
1-
1&
b1011 *
#105400000
1+
#105500000
1/
15
16
#105600000
1!
13
14
#110000000
0$
0-
0&
b1011 )
#110400000
0+
#110500000
0/
05
06
#110600000
0!
03
04
#115000000
1$
1-
1&
1.
1'
b1100 *
#115400000
1+
#120000000
0$
0-
0&
0.
0'
b1100 )
#120400000
0+
#125000000
1$
1%
b1101 *
#125400000
1+
#125500000
1,
#125700000
00
02
01
#125800000
1!
13
14
#130000000
0$
0%
b1101 )
#130400000
0+
#130500000
0,
#130600000
10
12
11
#130700000
0!
03
04
#135000000
1$
1%
1.
1'
b1110 *
#135400000
1+
#135500000
1/
15
16
1,
#135600000
1!
13
14
#135700000
00
02
01
#135800000
0!
03
04
#140000000
0$
0%
0.
0'
b1110 )
#140400000
0+
#140500000
0/
05
06
0,
#140600000
1!
10
13
12
14
11
#140700000
0!
03
04
#145000000
1$
1%
1-
1&
b1111 *
#145400000
1+
#145500000
1/
15
16
1,
#145600000
1!
13
14
#145700000
00
02
01
#145800000
0!
03
04
#150000000
0$
0%
0-
0&
b1111 )
#150400000
0+
#150500000
0/
05
06
0,
#150600000
1!
10
13
12
14
11
#150700000
0!
03
04
#155000000
1$
1%
1-
1&
1.
1'
b10000 *
#155400000
1+
#155500000
1,
#155700000
00
02
01
#155800000
1!
13
14
#160000000
0$
0%
0-
0&
b1 (
b0 )
#160400000
0+
#160500000
1/
15
16
0,
#160600000
0!
10
03
12
04
11
#160700000
1!
13
14
#165000000
0.
0'
b10001 *
#165500000
0/
05
06
#165600000
0!
03
04
#170000000
1.
1'
b1 )
#170500000
1/
15
16
#170600000
1!
13
14
#175000000
b10010 *
#180000000
b10 )
#185000000
1-
1&
0.
0'
b10011 *
#190000000
0-
0&
1.
1'
b11 )
#195000000
1-
1&
b10100 *
#195500000
0/
05
06
#195600000
0!
03
04
#200000000
0-
0&
b100 )
#200500000
1/
15
16
#200600000
1!
13
14
#205000000
1%
0.
0'
b10101 *
#205500000
0/
05
06
1,
#205600000
0!
03
04
#210000000
0%
1.
1'
b101 )
#210500000
1/
15
16
0,
#210600000
1!
13
14
#215000000
1%
b10110 *
#215500000
1,
#220000000
0%
b110 )
#220500000
0,
#225000000
1%
1-
1&
0.
0'
b10111 *
#225500000
1,
#230000000
0%
0-
0&
1.
1'
b111 )
#230500000
0,
#235000000
1%
1-
1&
b11000 *
#235500000
0/
05
06
1,
#235600000
0!
03
04
#240000000
0%
0-
0&
b1000 )
#240500000
1/
15
16
0,
#240600000
1!
13
14
#245000000
1$
0.
0'
b11001 *
#245400000
1+
#245500000
0/
05
06
#245600000
0!
03
04
#250000000
0$
1.
1'
b1001 )
#250400000
0+
#250500000
1/
15
16
#250600000
1!
13
14
#255000000
1$
b11010 *
#255400000
1+
#260000000
0$
b1010 )
#260400000
0+
#265000000
1$
1-
1&
0.
0'
b11011 *
#265400000
1+
#270000000
0$
0-
0&
1.
1'
b1011 )
#270400000
0+
#275000000
1$
1-
1&
b11100 *
#275400000
1+
#275500000
0/
05
06
#275600000
0!
03
04
#280000000
0$
0-
0&
b1100 )
#280400000
0+
#280500000
1/
15
16
#280600000
1!
13
14
#285000000
1$
1%
0.
0'
b11101 *
#285400000
1+
#285500000
0/
05
06
1,
#285600000
0!
03
04
#285700000
00
02
01
#285800000
1!
13
14
#290000000
0$
0%
1.
1'
b1101 )
#290400000
0+
#290500000
1/
15
16
0,
#290600000
0!
10
03
12
04
11
#290700000
1!
13
14
#295000000
1$
1%
b11110 *
#295400000
1+
#295500000
1,
#295700000
00
02
01
#295800000
0!
03
04
#300000000
0$
0%
b1110 )
#300400000
0+
#300500000
0,
#300600000
10
12
11
#300700000
1!
13
14
#305000000
1$
1%
1-
1&
0.
0'
b11111 *
#305400000
1+
#305500000
1,
#305700000
00
02
01
#305800000
0!
03
04
#310000000
0$
0%
0-
0&
1.
1'
b1111 )
#310400000
0+
#310500000
0,
#310600000
10
12
11
#310700000
1!
13
14
#315000000
1$
1%
1-
1&
b100000 *
#315400000
1+
#315500000
0/
05
06
1,
#315600000
0!
03
04
#315700000
00
02
01
#315800000
1!
13
14
#320000000
0$
0%
0.
0'
b10 (
b0 )
#320400000
0+
#320500000
1/
15
16
0,
#320600000
0!
10
03
12
04
11
#320700000
1!
13
14
#325000000
0-
0&
b100001 *
#325500000
0/
05
06
#325600000
0!
03
04
#330000000
1-
1&
b1 )
#330500000
1/
15
16
#330600000
1!
13
14
#335000000
0-
0&
1.
1'
b100010 *
#340000000
1-
1&
0.
0'
b10 )
#345000000
b100011 *
#350000000
b11 )
#355000000
1.
1'
b100100 *
#355500000
0/
05
06
#355600000
0!
03
04
#360000000
0.
0'
b100 )
#360500000
1/
15
16
#360600000
1!
13
14
#365000000
1%
0-
0&
b100101 *
#365500000
0/
05
06
1,
#365600000
0!
03
04
#370000000
0%
1-
1&
b101 )
#370500000
1/
15
16
0,
#370600000
1!
13
14
#375000000
1%
0-
0&
1.
1'
b100110 *
#375500000
1,
#380000000
0%
1-
1&
0.
0'
b110 )
#380500000
0,
#385000000
1%
b100111 *
#385500000
1,
#390000000
0%
b111 )
#390500000
0,
#395000000
1%
1.
1'
b101000 *
#395500000
0/
05
06
1,
#395600000
0!
03
04
#400000000
0%
0.
0'
b1000 )
#400500000
1/
15
16
0,
#400600000
1!
13
14
#405000000
1$
0-
0&
b101001 *
#405400000
1+
#405500000
0/
05
06
#405600000
0!
03
04
#410000000
0$
1-
1&
b1001 )
#410400000
0+
#410500000
1/
15
16
#410600000
1!
13
14
#415000000
1$
0-
0&
1.
1'
b101010 *
#415400000
1+
#420000000
0$
1-
1&
0.
0'
b1010 )
#420400000
0+
#425000000
1$
b101011 *
#425400000
1+
#430000000
0$
b1011 )
#430400000
0+
#435000000
1$
1.
1'
b101100 *
#435400000
1+
#435500000
0/
05
06
#435600000
0!
03
04
#440000000
0$
0.
0'
b1100 )
#440400000
0+
#440500000
1/
15
16
#440600000
1!
13
14
#445000000
1$
1%
0-
0&
b101101 *
#445400000
1+
#445500000
0/
05
06
1,
#445600000
0!
03
04
#445700000
00
02
01
#445800000
1!
13
14
#450000000
0$
0%
1-
1&
b1101 )
#450400000
0+
#450500000
1/
15
16
0,
#450600000
0!
10
03
12
04
11
#450700000
1!
13
14
#455000000
1$
1%
0-
0&
1.
1'
b101110 *
#455400000
1+
#455500000
1,
#455700000
00
02
01
#455800000
0!
03
04
#460000000
0$
0%
1-
1&
0.
0'
b1110 )
#460400000
0+
#460500000
0,
#460600000
10
12
11
#460700000
1!
13
14
#465000000
1$
1%
b101111 *
#465400000
1+
#465500000
1,
#465700000
00
02
01
#465800000
0!
03
04
#470000000
0$
0%
b1111 )
#470400000
0+
#470500000
0,
#470600000
10
12
11
#470700000
1!
13
14
#475000000
1$
1%
1.
1'
b110000 *
#475400000
1+
#475500000
0/
05
06
1,
#475600000
0!
03
04
#475700000
00
02
01
#475800000
1!
13
14
#480000000
0$
0%
b11 (
b0 )
#480400000
0+
#480500000
0,
#480600000
10
12
11
#480700000
0!
03
04
#485000000
0-
0&
0.
0'
b110001 *
#490000000
1-
1&
1.
1'
b1 )
#495000000
0-
0&
b110010 *
#495500000
1/
15
16
#495600000
1!
13
14
#500000000
1-
1&
b10 )
#500500000
0/
05
06
#500600000
0!
03
04
#505000000
0.
0'
b110011 *
#505500000
1/
15
16
#505600000
1!
13
14
#510000000
1.
1'
b11 )
#510500000
0/
05
06
#510600000
0!
03
04
#515000000
b110100 *
#520000000
b100 )
#525000000
1%
0-
0&
0.
0'
b110101 *
#525500000
1,
#530000000
0%
1-
1&
1.
1'
b101 )
#530500000
0,
#535000000
1%
0-
0&
b110110 *
#535500000
1/
15
16
1,
#535600000
1!
13
14
#540000000
0%
1-
1&
b110 )
#540500000
0/
05
06
0,
#540600000
0!
03
04
#545000000
1%
0.
0'
b110111 *
#545500000
1/
15
16
1,
#545600000
1!
13
14
#550000000
0%
1.
1'
b111 )
#550500000
0/
05
06
0,
#550600000
0!
03
04
#555000000
1%
b111000 *
#555500000
1,
#560000000
0%
b1000 )
#560500000
0,
#565000000
1$
0-
0&
0.
0'
b111001 *
#565400000
1+
#570000000
0$
1-
1&
1.
1'
b1001 )
#570400000
0+
#575000000
1$
0-
0&
b111010 *
#575400000
1+
#575500000
1/
15
16
#575600000
1!
13
14
#580000000
0$
1-
1&
b1010 )
#580400000
0+
#580500000
0/
05
06
#580600000
0!
03
04
#585000000
1$
0.
0'
b111011 *
#585400000
1+
#585500000
1/
15
16
#585600000
1!
13
14
#590000000
0$
1.
1'
b1011 )
#590400000
0+
#590500000
0/
05
06
#590600000
0!
03
04
#595000000
1$
b111100 *
#595400000
1+
#600000000
0$
b1100 )
#600400000
0+
#605000000
1$
1%
0-
0&
0.
0'
b111101 *
#605400000
1+
#605500000
1,
#605700000
00
02
01
#605800000
1!
13
14
#610000000
0$
0%
1-
1&
1.
1'
b1101 )
#610400000
0+
#610500000
0,
#610600000
10
12
11
#610700000
0!
03
04
#615000000
1$
1%
0-
0&
b111110 *
#615400000
1+
#615500000
1/
15
16
1,
#615600000
1!
13
14
#615700000
00
02
01
#615800000
0!
03
04
#620000000
0$
0%
1-
1&
b1110 )
#620400000
0+
#620500000
0/
05
06
0,
#620600000
1!
10
13
12
14
11
#620700000
0!
03
04
#625000000
1$
1%
0.
0'
b111111 *
#625400000
1+
#625500000
1/
15
16
1,
#625600000
1!
13
14
#625700000
00
02
01
#625800000
0!
03
04
#630000000
0$
0%
1.
1'
b1111 )
#630400000
0+
#630500000
0/
05
06
0,
#630600000
1!
10
13
12
14
11
#630700000
0!
03
04
#635000000
1$
1%
b1000000 *
#635400000
1+
#635500000
1,
#635700000
00
02
01
#635800000
1!
13
14
#640000000
0$
0-
0&
0.
0'
b100 (
b0 )
#640400000
0+
#640600000
10
12
11
#640700000
0!
03
04
#645000000
0%
b1000001 *
#645500000
0,
#650000000
1%
b1 )
#650500000
1,
#655000000
0%
1.
1'
b1000010 *
#655500000
1/
15
16
0,
#655600000
1!
13
14
#660000000
1%
0.
0'
b10 )
#660500000
0/
05
06
1,
#660600000
0!
03
04
#665000000
0%
1-
1&
b1000011 *
#665500000
1/
15
16
0,
#665600000
1!
13
14
#670000000
1%
0-
0&
b11 )
#670500000
0/
05
06
1,
#670600000
0!
03
04
#675000000
0%
1-
1&
1.
1'
b1000100 *
#675500000
0,
#680000000
1%
0-
0&
0.
0'
b100 )
#680500000
1,
#685000000
b1000101 *
#690000000
b101 )
#695000000
1.
1'
b1000110 *
#695500000
1/
15
16
#695600000
1!
13
14
#700000000
0.
0'
b110 )
#700500000
0/
05
06
#700600000
0!
03
04
#705000000
1-
1&
b1000111 *
#705500000
1/
15
16
#705600000
1!
13
14
#710000000
0-
0&
b111 )
#710500000
0/
05
06
#710600000
0!
03
04
#715000000
1-
1&
1.
1'
b1001000 *
#720000000
0-
0&
0.
0'
b1000 )
#725000000
1$
0%
b1001001 *
#725400000
1+
#725500000
0,
#730000000
0$
1%
b1001 )
#730400000
0+
#730500000
1,
#735000000
1$
0%
1.
1'
b1001010 *
#735400000
1+
#735500000
1/
15
16
0,
#735600000
1!
13
14
#740000000
0$
1%
0.
0'
b1010 )
#740400000
0+
#740500000
0/
05
06
1,
#740600000
0!
03
04
#745000000
1$
0%
1-
1&
b1001011 *
#745400000
1+
#745500000
1/
15
16
0,
#745600000
1!
13
14
#750000000
0$
1%
0-
0&
b1011 )
#750400000
0+
#750500000
0/
05
06
1,
#750600000
0!
03
04
#755000000
1$
0%
1-
1&
1.
1'
b1001100 *
#755400000
1+
#755500000
0,
#760000000
0$
1%
0-
0&
0.
0'
b1100 )
#760400000
0+
#760500000
1,
#765000000
1$
b1001101 *
#765400000
1+
#765600000
00
02
01
#765700000
1!
13
14
#770000000
0$
b1101 )
#770400000
0+
#770600000
10
12
11
#770700000
0!
03
04
#775000000
1$
1.
1'
b1001110 *
#775400000
1+
#775500000
1/
15
16
#775600000
1!
00
13
02
14
01
#775700000
0!
03
04
#780000000
0$
0.
0'
b1110 )
#780400000
0+
#780500000
0/
05
06
#780600000
1!
10
13
12
14
11
#780700000
0!
03
04
#785000000
1$
1-
1&
b1001111 *
#785400000
1+
#785500000
1/
15
16
#785600000
1!
00
13
02
14
01
#785700000
0!
03
04
#790000000
0$
0-
0&
b1111 )
#790400000
0+
#790500000
0/
05
06
#790600000
1!
10
13
12
14
11
#790700000
0!
03
04
#795000000
1$
1-
1&
1.
1'
b1010000 *
#795400000
1+
#795600000
00
02
01
#795700000
1!
13
14
#800000000
0$
0-
0&
b101 (
b0 )
#800400000
0+
#800500000
1/
15
16
#800600000
0!
10
03
12
04
11
#800700000
1!
13
14
#805000000
0%
0.
0'
b1010001 *
#805500000
0/
05
06
0,
#805600000
0!
03
04
#810000000
1%
1.
1'
b1 )
#810500000
1/
15
16
1,
#810600000
1!
13
14
#815000000
0%
b1010010 *
#815500000
0,
#820000000
1%
b10 )
#820500000
1,
#825000000
0%
1-
1&
0.
0'
b1010011 *
#825500000
0,
#830000000
1%
0-
0&
1.
1'
b11 )
#830500000
1,
#835000000
0%
1-
1&
b1010100 *
#835500000
0/
05
06
0,
#835600000
0!
03
04
#840000000
1%
0-
0&
b100 )
#840500000
1/
15
16
1,
#840600000
1!
13
14
#845000000
0.
0'
b1010101 *
#845500000
0/
05
06
#845600000
0!
03
04
#850000000
1.
1'
b101 )
#850500000
1/
15
16
#850600000
1!
13
14
#855000000
b1010110 *
#860000000
b110 )
#865000000
1-
1&
0.
0'
b1010111 *
#870000000
0-
0&
1.
1'
b111 )
#875000000
1-
1&
b1011000 *
#875500000
0/
05
06
#875600000
0!
03
04
#880000000
0-
0&
b1000 )
#880500000
1/
15
16
#880600000
1!
13
14
#885000000
1$
0%
0.
0'
b1011001 *
#885400000
1+
#885500000
0/
05
06
0,
#885600000
0!
03
04
#890000000
0$
1%
1.
1'
b1001 )
#890400000
0+
#890500000
1/
15
16
1,
#890600000
1!
13
14
#895000000
1$
0%
b1011010 *
#895400000
1+
#895500000
0,
#900000000
0$
1%
b1010 )
#900400000
0+
#900500000
1,
#905000000
1$
0%
1-
1&
0.
0'
b1011011 *
#905400000
1+
#905500000
0,
#910000000
0$
1%
0-
0&
1.
1'
b1011 )
#910400000
0+
#910500000
1,
#915000000
1$
0%
1-
1&
b1011100 *
#915400000
1+
#915500000
0/
05
06
0,
#915600000
0!
03
04
#920000000
0$
1%
0-
0&
b1100 )
#920400000
0+
#920500000
1/
15
16
1,
#920600000
1!
13
14
#925000000
1$
0.
0'
b1011101 *
#925400000
1+
#925500000
0/
05
06
#925600000
0!
00
03
02
04
01
#925700000
1!
13
14
#930000000
0$
1.
1'
b1101 )
#930400000
0+
#930500000
1/
15
16
#930600000
0!
10
03
12
04
11
#930700000
1!
13
14
#935000000
1$
b1011110 *
#935400000
1+
#935600000
00
02
01
#935700000
0!
03
04
#940000000
0$
b1110 )
#940400000
0+
#940600000
10
12
11
#940700000
1!
13
14
#945000000
1$
1-
1&
0.
0'
b1011111 *
#945400000
1+
#945600000
00
02
01
#945700000
0!
03
04
#950000000
0$
0-
0&
1.
1'
b1111 )
#950400000
0+
#950600000
10
12
11
#950700000
1!
13
14
#955000000
1$
1-
1&
b1100000 *
#955400000
1+
#955500000
0/
05
06
#955600000
0!
00
03
02
04
01
#955700000
1!
13
14
#960000000
0$
0.
0'
b110 (
b0 )
#960400000
0+
#960500000
1/
15
16
#960600000
0!
10
03
12
04
11
#960700000
1!
13
14
#965000000
0%
0-
0&
b1100001 *
#965500000
0/
05
06
0,
#965600000
0!
03
04
#970000000
1%
1-
1&
b1 )
#970500000
1/
15
16
1,
#970600000
1!
13
14
#975000000
0%
0-
0&
1.
1'
b1100010 *
#975500000
0,
#980000000
1%
1-
1&
0.
0'
b10 )
#980500000
1,
#985000000
0%
b1100011 *
#985500000
0,
#990000000
1%
b11 )
#990500000
1,
#995000000
0%
1.
1'
b1100100 *
#995500000
0/
05
06
0,
#995600000
0!
03
04
#1000000000
1%
0.
0'
b100 )
#1000500000
1/
15
16
1,
#1000600000
1!
13
14
#1005000000
0-
0&
b1100101 *
#1005500000
0/
05
06
#1005600000
0!
03
04
#1010000000
1-
1&
b101 )
#1010500000
1/
15
16
#1010600000
1!
13
14
#1015000000
0-
0&
1.
1'
b1100110 *
#1020000000
1-
1&
0.
0'
b110 )
#1025000000
b1100111 *
#1030000000
b111 )
#1035000000
1.
1'
b1101000 *
#1035500000
0/
05
06
#1035600000
0!
03
04
#1040000000
0.
0'
b1000 )
#1040500000
1/
15
16
#1040600000
1!
13
14
#1045000000
1$
0%
0-
0&
b1101001 *
#1045400000
1+
#1045500000
0/
05
06
0,
#1045600000
0!
03
04
#1050000000
0$
1%
1-
1&
b1001 )
#1050400000
0+
#1050500000
1/
15
16
1,
#1050600000
1!
13
14
#1055000000
1$
0%
0-
0&
1.
1'
b1101010 *
#1055400000
1+
#1055500000
0,
#1060000000
0$
1%
1-
1&
0.
0'
b1010 )
#1060400000
0+
#1060500000
1,
#1065000000
1$
0%
b1101011 *
#1065400000
1+
#1065500000
0,
#1070000000
0$
1%
b1011 )
#1070400000
0+
#1070500000
1,
#1075000000
1$
0%
1.
1'
b1101100 *
#1075400000
1+
#1075500000
0/
05
06
0,
#1075600000
0!
03
04
#1080000000
0$
1%
0.
0'
b1100 )
#1080400000
0+
#1080500000
1/
15
16
1,
#1080600000
1!
13
14
#1085000000
1$
0-
0&
b1101101 *
#1085400000
1+
#1085500000
0/
05
06
#1085600000
0!
00
03
02
04
01
#1085700000
1!
13
14
#1090000000
0$
1-
1&
b1101 )
#1090400000
0+
#1090500000
1/
15
16
#1090600000
0!
10
03
12
04
11
#1090700000
1!
13
14
#1095000000
1$
0-
0&
1.
1'
b1101110 *
#1095400000
1+
#1095600000
00
02
01
#1095700000
0!
03
04
#1100000000
0$
1-
1&
0.
0'
b1110 )
#1100400000
0+
#1100600000
10
12
11
#1100700000
1!
13
14
#1105000000
1$
b1101111 *
#1105400000
1+
#1105600000
00
02
01
#1105700000
0!
03
04
#1110000000
0$
b1111 )
#1110400000
0+
#1110600000
10
12
11
#1110700000
1!
13
14
#1115000000
1$
1.
1'
b1110000 *
#1115400000
1+
#1115500000
0/
05
06
#1115600000
0!
00
03
02
04
01
#1115700000
1!
13
14
#1120000000
0$
b111 (
b0 )
#1120400000
0+
#1120600000
10
12
11
#1120700000
0!
03
04
#1125000000
0%
0-
0&
0.
0'
b1110001 *
#1125500000
0,
#1130000000
1%
1-
1&
1.
1'
b1 )
#1130500000
1,
#1135000000
0%
0-
0&
b1110010 *
#1135500000
1/
15
16
0,
#1135600000
1!
13
14
#1140000000
1%
1-
1&
b10 )
#1140500000
0/
05
06
1,
#1140600000
0!
03
04
#1145000000
0%
0.
0'
b1110011 *
#1145500000
1/
15
16
0,
#1145600000
1!
13
14
#1150000000
1%
1.
1'
b11 )
#1150500000
0/
05
06
1,
#1150600000
0!
03
04
#1155000000
0%
b1110100 *
#1155500000
0,
#1160000000
1%
b100 )
#1160500000
1,
#1165000000
0-
0&
0.
0'
b1110101 *
#1170000000
1-
1&
1.
1'
b101 )
#1175000000
0-
0&
b1110110 *
#1175500000
1/
15
16
#1175600000
1!
13
14
#1180000000
1-
1&
b110 )
#1180500000
0/
05
06
#1180600000
0!
03
04
#1185000000
0.
0'
b1110111 *
#1185500000
1/
15
16
#1185600000
1!
13
14
#1190000000
1.
1'
b111 )
#1190500000
0/
05
06
#1190600000
0!
03
04
#1195000000
b1111000 *
#1200000000
b1000 )
#1205000000
1$
0%
0-
0&
0.
0'
b1111001 *
#1205400000
1+
#1205500000
0,
#1210000000
0$
1%
1-
1&
1.
1'
b1001 )
#1210400000
0+
#1210500000
1,
#1215000000
1$
0%
0-
0&
b1111010 *
#1215400000
1+
#1215500000
1/
15
16
0,
#1215600000
1!
13
14
#1220000000
0$
1%
1-
1&
b1010 )
#1220400000
0+
#1220500000
0/
05
06
1,
#1220600000
0!
03
04
#1225000000
1$
0%
0.
0'
b1111011 *
#1225400000
1+
#1225500000
1/
15
16
0,
#1225600000
1!
13
14
#1230000000
0$
1%
1.
1'
b1011 )
#1230400000
0+
#1230500000
0/
05
06
1,
#1230600000
0!
03
04
#1235000000
1$
0%
b1111100 *
#1235400000
1+
#1235500000
0,
#1240000000
0$
1%
b1100 )
#1240400000
0+
#1240500000
1,
#1245000000
1$
0-
0&
0.
0'
b1111101 *
#1245400000
1+
#1245600000
00
02
01
#1245700000
1!
13
14
#1250000000
0$
1-
1&
1.
1'
b1101 )
#1250400000
0+
#1250600000
10
12
11
#1250700000
0!
03
04
#1255000000
1$
0-
0&
b1111110 *
#1255400000
1+
#1255500000
1/
15
16
#1255600000
1!
00
13
02
14
01
#1255700000
0!
03
04
#1260000000
0$
1-
1&
b1110 )
#1260400000
0+
#1260500000
0/
05
06
#1260600000
1!
10
13
12
14
11
#1260700000
0!
03
04
#1265000000
1$
0.
0'
b1111111 *
#1265400000
1+
#1265500000
1/
15
16
#1265600000
1!
00
13
02
14
01
#1265700000
0!
03
04
#1270000000
0$
1.
1'
b1111 )
#1270400000
0+
#1270500000
0/
05
06
#1270600000
1!
10
13
12
14
11
#1270700000
0!
03
04
#1275000000
1$
b10000000 *
#1275400000
1+
#1275600000
00
02
01
#1275700000
1!
13
14
#1280000000
0%
0-
0&
0.
0'
b1000 (
b0 )
#1280500000
0,
#1280700000
10
12
11
#1280800000
0!
03
04
#1285000000
0$
b10000001 *
#1285400000
0+
#1290000000
1$
b1 )
#1290400000
1+
#1295000000
0$
1.
1'
b10000010 *
#1295400000
0+
#1295500000
1/
15
16
#1295600000
1!
13
14
#1300000000
1$
0.
0'
b10 )
#1300400000
1+
#1300500000
0/
05
06
#1300600000
0!
03
04
#1305000000
0$
1-
1&
b10000011 *
#1305400000
0+
#1305500000
1/
15
16
#1305600000
1!
13
14
#1310000000
1$
0-
0&
b11 )
#1310400000
1+
#1310500000
0/
05
06
#1310600000
0!
03
04
#1315000000
0$
1-
1&
1.
1'
b10000100 *
#1315400000
0+
#1320000000
1$
0-
0&
0.
0'
b100 )
#1320400000
1+
#1325000000
0$
1%
b10000101 *
#1325400000
0+
#1325500000
1,
#1330000000
1$
0%
b101 )
#1330400000
1+
#1330500000
0,
#1335000000
0$
1%
1.
1'
b10000110 *
#1335400000
0+
#1335500000
1/
15
16
1,
#1335600000
1!
13
14
#1340000000
1$
0%
0.
0'
b110 )
#1340400000
1+
#1340500000
0/
05
06
0,
#1340600000
0!
03
04
#1345000000
0$
1%
1-
1&
b10000111 *
#1345400000
0+
#1345500000
1/
15
16
1,
#1345600000
1!
13
14
#1350000000
1$
0%
0-
0&
b111 )
#1350400000
1+
#1350500000
0/
05
06
0,
#1350600000
0!
03
04
#1355000000
0$
1%
1-
1&
1.
1'
b10001000 *
#1355400000
0+
#1355500000
1,
#1360000000
1$
0%
0-
0&
0.
0'
b1000 )
#1360400000
1+
#1360500000
0,
#1365000000
b10001001 *
#1370000000
b1001 )
#1375000000
1.
1'
b10001010 *
#1375500000
1/
15
16
#1375600000
1!
13
14
#1380000000
0.
0'
b1010 )
#1380500000
0/
05
06
#1380600000
0!
03
04
#1385000000
1-
1&
b10001011 *
#1385500000
1/
15
16
#1385600000
1!
13
14
#1390000000
0-
0&
b1011 )
#1390500000
0/
05
06
#1390600000
0!
03
04
#1395000000
1-
1&
1.
1'
b10001100 *
#1400000000
0-
0&
0.
0'
b1100 )
#1405000000
1%
b10001101 *
#1405500000
1,
#1405700000
00
02
01
#1405800000
1!
13
14
#1410000000
0%
b1101 )
#1410500000
0,
#1410700000
10
12
11
#1410800000
0!
03
04
#1415000000
1%
1.
1'
b10001110 *
#1415500000
1/
15
16
1,
#1415600000
1!
13
14
#1415700000
00
02
01
#1415800000
0!
03
04
#1420000000
0%
0.
0'
b1110 )
#1420500000
0/
05
06
0,
#1420600000
1!
13
14
#1420700000
10
12
11
#1420800000
0!
03
04
#1425000000
1%
1-
1&
b10001111 *
#1425500000
1/
15
16
1,
#1425600000
1!
13
14
#1425700000
00
02
01
#1425800000
0!
03
04
#1430000000
0%
0-
0&
b1111 )
#1430500000
0/
05
06
0,
#1430600000
1!
13
14
#1430700000
10
12
11
#1430800000
0!
03
04
#1435000000
1%
1-
1&
1.
1'
b10010000 *
#1435500000
1,
#1435700000
00
02
01
#1435800000
1!
13
14
#1440000000
0%
0-
0&
b1001 (
b0 )
#1440500000
1/
15
16
0,
#1440600000
0!
03
04
#1440700000
10
12
11
#1440800000
1!
13
14
#1445000000
0$
0.
0'
b10010001 *
#1445400000
0+
#1445500000
0/
05
06
#1445600000
0!
03
04
#1450000000
1$
1.
1'
b1 )
#1450400000
1+
#1450500000
1/
15
16
#1450600000
1!
13
14
#1455000000
0$
b10010010 *
#1455400000
0+
#1460000000
1$
b10 )
#1460400000
1+
#1465000000
0$
1-
1&
0.
0'
b10010011 *
#1465400000
0+
#1470000000
1$
0-
0&
1.
1'
b11 )
#1470400000
1+
#1475000000
0$
1-
1&
b10010100 *
#1475400000
0+
#1475500000
0/
05
06
#1475600000
0!
03
04
#1480000000
1$
0-
0&
b100 )
#1480400000
1+
#1480500000
1/
15
16
#1480600000
1!
13
14
#1485000000
0$
1%
0.
0'
b10010101 *
#1485400000
0+
#1485500000
0/
05
06
1,
#1485600000
0!
03
04
#1490000000
1$
0%
1.
1'
b101 )
#1490400000
1+
#1490500000
1/
15
16
0,
#1490600000
1!
13
14
#1495000000
0$
1%
b10010110 *
#1495400000
0+
#1495500000
1,
#1500000000
1$
0%
b110 )
#1500400000
1+
#1500500000
0,
