correlations/verilog/tb/vcd/correlation.vcd
$date
	Tue Jun 28 11:26:43 2022
$end
$version
	Icarus Verilog
$end
$timescale
	1fs
$end
$scope module correlation_2_tb $end
$var wire 1 ! y1 $end
$var reg 1 " VGND $end
$var reg 1 # VPWR $end
$var reg 1 $ a $end
$var reg 1 % b $end
$var reg 1 & r1 $end
$var reg 1 ' r2 $end
$var integer 32 ( i [31:0] $end
$var integer 32 ) j [31:0] $end
$var integer 32 * sim [31:0] $end
$scope module uut_r $end
$var wire 1 " VGND $end
$var wire 1 # VPWR $end
$var wire 1 + _delA_ $end
$var wire 1 , _delB_ $end
$var wire 1 - _delR1_ $end
$var wire 1 . _delR2_ $end
$var wire 1 $ a $end
$var wire 1 % b $end
$var wire 1 & r1 $end
$var wire 1 ' r2 $end
$var wire 1 ! y $end
$var wire 1 / _02_ $end
$var wire 1 0 _01_ $end
$scope module _nand_ $end
$var wire 1 + A $end
$var wire 1 , B $end
$var wire 1 " VGND $end
$var wire 1 " VNB $end
$var wire 1 # VPB $end
$var wire 1 # VPWR $end
$var wire 1 0 Y $end
$scope module base $end
$var wire 1 + A $end
$var wire 1 , B $end
$var wire 1 " VGND $end
$var wire 1 " VNB $end
$var wire 1 # VPB $end
$var wire 1 # VPWR $end
$var wire 1 0 Y $end
$var wire 1 1 nand0_out_Y $end
$var wire 1 2 pwrgood_pp0_out_Y $end
$upscope $end
$upscope $end
$scope module _xnor_ $end
$var wire 1 0 A $end
$var wire 1 " VGND $end
$var wire 1 " VNB $end
$var wire 1 # VPB $end
$var wire 1 # VPWR $end
$var wire 1 ! Y $end
$var wire 1 / B $end
$scope module base $end
$var wire 1 0 A $end
$var wire 1 " VGND $end
$var wire 1 " VNB $end
$var wire 1 # VPB $end
$var wire 1 # VPWR $end
$var wire 1 ! Y $end
$var wire 1 3 pwrgood_pp0_out_Y $end
$var wire 1 4 xnor0_out_Y $end
$var wire 1 / B $end
$upscope $end
$upscope $end
$scope module _xor_ $end
$var wire 1 - A $end
$var wire 1 . B $end
$var wire 1 " VGND $end
$var wire 1 " VNB $end
$var wire 1 # VPB $end
$var wire 1 # VPWR $end
$var wire 1 / X $end
$scope module base $end
$var wire 1 - A $end
$var wire 1 . B $end
$var wire 1 " VGND $end
$var wire 1 " VNB $end
$var wire 1 # VPB $end
$var wire 1 # VPWR $end
$var wire 1 / X $end
$var wire 1 5 pwrgood_pp0_out_X $end
$var wire 1 6 xor0_out_X $end
$upscope $end
$upscope $end
$upscope $end
$upscope $end
$enddefinitions $end
#0
$dumpvars
x6
x5
x4
x3
x2
x1
x0
x/
0.
0-
x,
x+
b0 *
b0 )
b0 (
0'
0&
0%
0$
1#
0"
x!
$end
#440000
0+
#500000
0/
05
06
#540000
0,
#640000
10
12
11
#740000
0!
03
04
#5000000
b1 *
#10000000
b1 )
#15000000
1.
1'
b10 *
#15500000
1/
15
16
#15600000
1!
13
14
#20000000
0.
0'
b10 )
#20500000
0/
05
06
#20600000
0!
03
04
#25000000
1-
1&
b11 *
#25500000
1/
15
16
#25600000
1!
13
14
#30000000
0-
0&
b11 )
#30500000
0/
05
06
#30600000
0!
03
04
#35000000
1-
1&
1.
1'
b100 *
#40000000
0-
0&
0.
0'
b100 )
#45000000
1%
b101 *
#45540000
1,
#50000000
0%
b101 )
#50540000
0,
#55000000
1%
1.
1'
b110 *
#55500000
1/
15
16
#55540000
1,
#55600000
1!
13
14
#60000000
0%
0.
0'
b110 )
#60500000
0/
05
06
#60540000
0,
#60600000
0!
03
04
#65000000
1%
1-
1&
b111 *
#65500000
1/
15
16
#65540000
1,
#65600000
1!
13
14
#70000000
0%
0-
0&
b111 )
#70500000
0/
05
06
#70540000
0,
#70600000
0!
03
04
#75000000
1%
1-
1&
1.
1'
b1000 *
#75540000
1,
#80000000
0%
0-
0&
0.
0'
b1000 )
#80540000
0,
#85000000
1$
b1001 *
#85440000
1+
#90000000
0$
b1001 )
#90440000
0+
#95000000
1$
1.
1'
b1010 *
#95440000
1+
#95500000
1/
15
16
#95600000
1!
13
14
#100000000
0$
0.
0'
b1010 )
#100440000
0+
#100500000
0/
05
06
#100600000
0!
03
04
#105000000
1$
1-
1&
b1011 *
#105440000
1+
#105500000
1/
15
16
#105600000
1!
13
14
#110000000
0$
0-
0&
b1011 )
#110440000
0+
#110500000
0/
05
06
#110600000
0!
03
04
#115000000
1$
1-
1&
1.
1'
b1100 *
#115440000
1+
#120000000
0$
0-
0&
0.
0'
b1100 )
#120440000
0+
#125000000
1$
1%
b1101 *
#125440000
1+
#125540000
1,
#125740000
00
02
01
#125840000
1!
13
14
#130000000
0$
0%
b1101 )
#130440000
0+
#130540000
0,
#130640000
10
12
11
#130740000
0!
03
04
#135000000
1$
1%
1.
1'
b1110 *
#135440000
1+
#135500000
1/
15
16
#135540000
1,
#135600000
1!
13
14
#135740000
00
02
01
#135840000
0!
03
04
#140000000
0$
0%
0.
0'
b1110 )
#140440000
0+
#140500000
0/
05
06
#140540000
0,
#140600000
1!
13
14
#140640000
10
12
11
#140740000
0!
03
04
#145000000
1$
1%
1-
1&
b1111 *
#145440000
1+
#145500000
1/
15
16
#145540000
1,
#145600000
1!
13
14
#145740000
00
02
01
#145840000
0!
03
04
#150000000
0$
0%
0-
0&
b1111 )
#150440000
0+
#150500000
0/
05
06
#150540000
0,
#150600000
1!
13
14
#150640000
10
12
11
#150740000
0!
03
04
#155000000
1$
1%
1-
1&
1.
1'
b10000 *
#155440000
1+
#155540000
1,
#155740000
00
02
01
#155840000
1!
13
14
#160000000
0$
0%
0-
0&
b1 (
b0 )
#160440000
0+
#160500000
1/
15
16
#160540000
0,
#160600000
0!
03
04
#160640000
10
12
11
#160740000
1!
13
14
#165000000
0.
0'
b10001 *
#165500000
0/
05
06
#165600000
0!
03
04
#170000000
1.
1'
b1 )
#170500000
1/
15
16
#170600000
1!
13
14
#175000000
b10010 *
#180000000
b10 )
#185000000
1-
1&
0.
0'
b10011 *
#190000000
0-
0&
1.
1'
b11 )
#195000000
1-
1&
b10100 *
#195500000
0/
05
06
#195600000
0!
03
04
#200000000
0-
0&
b100 )
#200500000
1/
15
16
#200600000
1!
13
14
#205000000
1%
0.
0'
b10101 *
#205500000
0/
05
06
#205540000
1,
#205600000
0!
03
04
#210000000
0%
1.
1'
b101 )
#210500000
1/
15
16
#210540000
0,
#210600000
1!
13
14
#215000000
1%
b10110 *
#215540000
1,
#220000000
0%
b110 )
#220540000
0,
#225000000
1%
1-
1&
0.
0'
b10111 *
#225540000
1,
#230000000
0%
0-
0&
1.
1'
b111 )
#230540000
0,
#235000000
1%
1-
1&
b11000 *
#235500000
0/
05
06
#235540000
1,
#235600000
0!
03
04
#240000000
0%
0-
0&
b1000 )
#240500000
1/
15
16
#240540000
0,
#240600000
1!
13
14
#245000000
1$
0.
0'
b11001 *
#245440000
1+
#245500000
0/
05
06
#245600000
0!
03
04
#250000000
0$
1.
1'
b1001 )
#250440000
0+
#250500000
1/
15
16
#250600000
1!
13
14
#255000000
1$
b11010 *
#255440000
1+
#260000000
0$
b1010 )
#260440000
0+
#265000000
1$
1-
1&
0.
0'
b11011 *
#265440000
1+
#270000000
0$
0-
0&
1.
1'
b1011 )
#270440000
0+
#275000000
1$
1-
1&
b11100 *
#275440000
1+
#275500000
0/
05
06
#275600000
0!
03
04
#280000000
0$
0-
0&
b1100 )
#280440000
0+
#280500000
1/
15
16
#280600000
1!
13
14
#285000000
1$
1%
0.
0'
b11101 *
#285440000
1+
#285500000
0/
05
06
#285540000
1,
#285600000
0!
03
04
#285740000
00
02
01
#285840000
1!
13
14
#290000000
0$
0%
1.
1'
b1101 )
#290440000
0+
#290500000
1/
15
16
#290540000
0,
#290600000
0!
03
04
#290640000
10
12
11
#290740000
1!
13
14
#295000000
1$
1%
b11110 *
#295440000
1+
#295540000
1,
#295740000
00
02
01
#295840000
0!
03
04
#300000000
0$
0%
b1110 )
#300440000
0+
#300540000
0,
#300640000
10
12
11
#300740000
1!
13
14
#305000000
1$
1%
1-
1&
0.
0'
b11111 *
#305440000
1+
#305540000
1,
#305740000
00
02
01
#305840000
0!
03
04
#310000000
0$
0%
0-
0&
1.
1'
b1111 )
#310440000
0+
#310540000
0,
#310640000
10
12
11
#310740000
1!
13
14
#315000000
1$
1%
1-
1&
b100000 *
#315440000
1+
#315500000
0/
05
06
#315540000
1,
#315600000
0!
03
04
#315740000
00
02
01
#315840000
1!
13
14
#320000000
0$
0%
0.
0'
b10 (
b0 )
#320440000
0+
#320500000
1/
15
16
#320540000
0,
#320600000
0!
03
04
#320640000
10
12
11
#320740000
1!
13
14
#325000000
0-
0&
b100001 *
#325500000
0/
05
06
#325600000
0!
03
04
#330000000
1-
1&
b1 )
#330500000
1/
15
16
#330600000
1!
13
14
#335000000
0-
0&
1.
1'
b100010 *
#340000000
1-
1&
0.
0'
b10 )
#345000000
b100011 *
#350000000
b11 )
#355000000
1.
1'
b100100 *
#355500000
0/
05
06
#355600000
0!
03
04
#360000000
0.
0'
b100 )
#360500000
1/
15
16
#360600000
1!
13
14
#365000000
1%
0-
0&
b100101 *
#365500000
0/
05
06
#365540000
1,
#365600000
0!
03
04
#370000000
0%
1-
1&
b101 )
#370500000
1/
15
16
#370540000
0,
#370600000
1!
13
14
#375000000
1%
0-
0&
1.
1'
b100110 *
#375540000
1,
#380000000
0%
1-
1&
0.
0'
b110 )
#380540000
0,
#385000000
1%
b100111 *
#385540000
1,
#390000000
0%
b111 )
#390540000
0,
#395000000
1%
1.
1'
b101000 *
#395500000
0/
05
06
#395540000
1,
#395600000
0!
03
04
#400000000
0%
0.
0'
b1000 )
#400500000
1/
15
16
#400540000
0,
#400600000
1!
13
14
#405000000
1$
0-
0&
b101001 *
#405440000
1+
#405500000
0/
05
06
#405600000
0!
03
04
#410000000
0$
1-
1&
b1001 )
#410440000
0+
#410500000
1/
15
16
#410600000
1!
13
14
#415000000
1$
0-
0&
1.
1'
b101010 *
#415440000
1+
#420000000
0$
1-
1&
0.
0'
b1010 )
#420440000
0+
#425000000
1$
b101011 *
#425440000
1+
#430000000
0$
b1011 )
#430440000
0+
#435000000
1$
1.
1'
b101100 *
#435440000
1+
#435500000
0/
05
06
#435600000
0!
03
04
#440000000
0$
0.
0'
b1100 )
#440440000
0+
#440500000
1/
15
16
#440600000
1!
13
14
#445000000
1$
1%
0-
0&
b101101 *
#445440000
1+
#445500000
0/
05
06
#445540000
1,
#445600000
0!
03
04
#445740000
00
02
01
#445840000
1!
13
14
#450000000
0$
0%
1-
1&
b1101 )
#450440000
0+
#450500000
1/
15
16
#450540000
0,
#450600000
0!
03
04
#450640000
10
12
11
#450740000
1!
13
14
#455000000
1$
1%
0-
0&
1.
1'
b101110 *
#455440000
1+
#455540000
1,
#455740000
00
02
01
#455840000
0!
03
04
#460000000
0$
0%
1-
1&
0.
0'
b1110 )
#460440000
0+
#460540000
0,
#460640000
10
12
11
#460740000
1!
13
14
#465000000
1$
1%
b101111 *
#465440000
1+
#465540000
1,
#465740000
00
02
01
#465840000
0!
03
04
#470000000
0$
0%
b1111 )
#470440000
0+
#470540000
0,
#470640000
10
12
11
#470740000
1!
13
14
#475000000
1$
1%
1.
1'
b110000 *
#475440000
1+
#475500000
0/
05
06
#475540000
1,
#475600000
0!
03
04
#475740000
00
02
01
#475840000
1!
13
14
#480000000
0$
0%
b11 (
b0 )
#480440000
0+
#480540000
0,
#480640000
10
12
11
#480740000
0!
03
04
#485000000
0-
0&
0.
0'
b110001 *
#490000000
1-
1&
1.
1'
b1 )
#495000000
0-
0&
b110010 *
#495500000
1/
15
16
#495600000
1!
13
14
#500000000
1-
1&
b10 )
#500500000
0/
05
06
#500600000
0!
03
04
#505000000
0.
0'
b110011 *
#505500000
1/
15
16
#505600000
1!
13
14
#510000000
1.
1'
b11 )
#510500000
0/
05
06
#510600000
0!
03
04
#515000000
b110100 *
#520000000
b100 )
#525000000
1%
0-
0&
0.
0'
b110101 *
#525540000
1,
#530000000
0%
1-
1&
1.
1'
b101 )
#530540000
0,
#535000000
1%
0-
0&
b110110 *
#535500000
1/
15
16
#535540000
1,
#535600000
1!
13
14
#540000000
0%
1-
1&
b110 )
#540500000
0/
05
06
#540540000
0,
#540600000
0!
03
04
#545000000
1%
0.
0'
b110111 *
#545500000
1/
15
16
#545540000
1,
#545600000
1!
13
14
#550000000
0%
1.
1'
b111 )
#550500000
0/
05
06
#550540000
0,
#550600000
0!
03
04
#555000000
1%
b111000 *
#555540000
1,
#560000000
0%
b1000 )
#560540000
0,
#565000000
1$
0-
0&
0.
0'
b111001 *
#565440000
1+
#570000000
0$
1-
1&
1.
1'
b1001 )
#570440000
0+
#575000000
1$
0-
0&
b111010 *
#575440000
1+
#575500000
1/
15
16
#575600000
1!
13
14
#580000000
0$
1-
1&
b1010 )
#580440000
0+
#580500000
0/
05
06
#580600000
0!
03
04
#585000000
1$
0.
0'
b111011 *
#585440000
1+
#585500000
1/
15
16
#585600000
1!
13
14
#590000000
0$
1.
1'
b1011 )
#590440000
0+
#590500000
0/
05
06
#590600000
0!
03
04
#595000000
1$
b111100 *
#595440000
1+
#600000000
0$
b1100 )
#600440000
0+
#605000000
1$
1%
0-
0&
0.
0'
b111101 *
#605440000
1+
#605540000
1,
#605740000
00
02
01
#605840000
1!
13
14
#610000000
0$
0%
1-
1&
1.
1'
b1101 )
#610440000
0+
#610540000
0,
#610640000
10
12
11
#610740000
0!
03
04
#615000000
1$
1%
0-
0&
b111110 *
#615440000
1+
#615500000
1/
15
16
#615540000
1,
#615600000
1!
13
14
#615740000
00
02
01
#615840000
0!
03
04
#620000000
0$
0%
1-
1&
b1110 )
#620440000
0+
#620500000
0/
05
06
#620540000
0,
#620600000
1!
13
14
#620640000
10
12
11
#620740000
0!
03
04
#625000000
1$
1%
0.
0'
b111111 *
#625440000
1+
#625500000
1/
15
16
#625540000
1,
#625600000
1!
13
14
#625740000
00
02
01
#625840000
0!
03
04
#630000000
0$
0%
1.
1'
b1111 )
#630440000
0+
#630500000
0/
05
06
#630540000
0,
#630600000
1!
13
14
#630640000
10
12
11
#630740000
0!
03
04
#635000000
1$
1%
b1000000 *
#635440000
1+
#635540000
1,
#635740000
00
02
01
#635840000
1!
13
14
#640000000
0$
0-
0&
0.
0'
b100 (
b0 )
#640440000
0+
#640640000
10
12
11
#640740000
0!
03
04
#645000000
0%
b1000001 *
#645540000
0,
#650000000
1%
b1 )
#650540000
1,
#655000000
0%
1.
1'
b1000010 *
#655500000
1/
15
16
#655540000
0,
#655600000
1!
13
14
#660000000
1%
0.
0'
b10 )
#660500000
0/
05
06
#660540000
1,
#660600000
0!
03
04
#665000000
0%
1-
1&
b1000011 *
#665500000
1/
15
16
#665540000
0,
#665600000
1!
13
14
#670000000
1%
0-
0&
b11 )
#670500000
0/
05
06
#670540000
1,
#670600000
0!
03
04
#675000000
0%
1-
1&
1.
1'
b1000100 *
#675540000
0,
#680000000
1%
0-
0&
0.
0'
b100 )
#680540000
1,
#685000000
b1000101 *
#690000000
b101 )
#695000000
1.
1'
b1000110 *
#695500000
1/
15
16
#695600000
1!
13
14
#700000000
0.
0'
b110 )
#700500000
0/
05
06
#700600000
0!
03
04
#705000000
1-
1&
b1000111 *
#705500000
1/
15
16
#705600000
1!
13
14
#710000000
0-
0&
b111 )
#710500000
0/
05
06
#710600000
0!
03
04
#715000000
1-
1&
1.
1'
b1001000 *
#720000000
0-
0&
0.
0'
b1000 )
#725000000
1$
0%
b1001001 *
#725440000
1+
#725540000
0,
#730000000
0$
1%
b1001 )
#730440000
0+
#730540000
1,
#735000000
1$
0%
1.
1'
b1001010 *
#735440000
1+
#735500000
1/
15
16
#735540000
0,
#735600000
1!
13
14
#740000000
0$
1%
0.
0'
b1010 )
#740440000
0+
#740500000
0/
05
06
#740540000
1,
#740600000
0!
03
04
#745000000
1$
0%
1-
1&
b1001011 *
#745440000
1+
#745500000
1/
15
16
#745540000
0,
#745600000
1!
13
14
#750000000
0$
1%
0-
0&
b1011 )
#750440000
0+
#750500000
0/
05
06
#750540000
1,
#750600000
0!
03
04
#755000000
1$
0%
1-
1&
1.
1'
b1001100 *
#755440000
1+
#755540000
0,
#760000000
0$
1%
0-
0&
0.
0'
b1100 )
#760440000
0+
#760540000
1,
#765000000
1$
b1001101 *
#765440000
1+
#765640000
00
02
01
#765740000
1!
13
14
#770000000
0$
b1101 )
#770440000
0+
#770640000
10
12
11
#770740000
0!
03
04
#775000000
1$
1.
1'
b1001110 *
#775440000
1+
#775500000
1/
15
16
#775600000
1!
13
14
#775640000
00
02
01
#775740000
0!
03
04
#780000000
0$
0.
0'
b1110 )
#780440000
0+
#780500000
0/
05
06
#780600000
1!
13
14
#780640000
10
12
11
#780740000
0!
03
04
#785000000
1$
1-
1&
b1001111 *
#785440000
1+
#785500000
1/
15
16
#785600000
1!
13
14
#785640000
00
02
01
#785740000
0!
03
04
#790000000
0$
0-
0&
b1111 )
#790440000
0+
#790500000
0/
05
06
#790600000
1!
13
14
#790640000
10
12
11
#790740000
0!
03
04
#795000000
1$
1-
1&
1.
1'
b1010000 *
#795440000
1+
#795640000
00
02
01
#795740000
1!
13
14
#800000000
0$
0-
0&
b101 (
b0 )
#800440000
0+
#800500000
1/
15
16
#800600000
0!
03
04
#800640000
10
12
11
#800740000
1!
13
14
#805000000
0%
0.
0'
b1010001 *
#805500000
0/
05
06
#805540000
0,
#805600000
0!
03
04
#810000000
1%
1.
1'
b1 )
#810500000
1/
15
16
#810540000
1,
#810600000
1!
13
14
#815000000
0%
b1010010 *
#815540000
0,
#820000000
1%
b10 )
#820540000
1,
#825000000
0%
1-
1&
0.
0'
b1010011 *
#825540000
0,
#830000000
1%
0-
0&
1.
1'
b11 )
#830540000
1,
#835000000
0%
1-
1&
b1010100 *
#835500000
0/
05
06
#835540000
0,
#835600000
0!
03
04
#840000000
1%
0-
0&
b100 )
#840500000
1/
15
16
#840540000
1,
#840600000
1!
13
14
#845000000
0.
0'
b1010101 *
#845500000
0/
05
06
#845600000
0!
03
04
#850000000
1.
1'
b101 )
#850500000
1/
15
16
#850600000
1!
13
14
#855000000
b1010110 *
#860000000
b110 )
#865000000
1-
1&
0.
0'
b1010111 *
#870000000
0-
0&
1.
1'
b111 )
#875000000
1-
1&
b1011000 *
#875500000
0/
05
06
#875600000
0!
03
04
#880000000
0-
0&
b1000 )
#880500000
1/
15
16
#880600000
1!
13
14
#885000000
1$
0%
0.
0'
b1011001 *
#885440000
1+
#885500000
0/
05
06
#885540000
0,
#885600000
0!
03
04
#890000000
0$
1%
1.
1'
b1001 )
#890440000
0+
#890500000
1/
15
16
#890540000
1,
#890600000
1!
13
14
#895000000
1$
0%
b1011010 *
#895440000
1+
#895540000
0,
#900000000
0$
1%
b1010 )
#900440000
0+
#900540000
1,
#905000000
1$
0%
1-
1&
0.
0'
b1011011 *
#905440000
1+
#905540000
0,
#910000000
0$
1%
0-
0&
1.
1'
b1011 )
#910440000
0+
#910540000
1,
#915000000
1$
0%
1-
1&
b1011100 *
#915440000
1+
#915500000
0/
05
06
#915540000
0,
#915600000
0!
03
04
#920000000
0$
1%
0-
0&
b1100 )
#920440000
0+
#920500000
1/
15
16
#920540000
1,
#920600000
1!
13
14
#925000000
1$
0.
0'
b1011101 *
#925440000
1+
#925500000
0/
05
06
#925600000
0!
03
04
#925640000
00
02
01
#925740000
1!
13
14
#930000000
0$
1.
1'
b1101 )
#930440000
0+
#930500000
1/
15
16
#930600000
0!
03
04
#930640000
10
12
11
#930740000
1!
13
14
#935000000
1$
b1011110 *
#935440000
1+
#935640000
00
02
01
#935740000
0!
03
04
#940000000
0$
b1110 )
#940440000
0+
#940640000
10
12
11
#940740000
1!
13
14
#945000000
1$
1-
1&
0.
0'
b1011111 *
#945440000
1+
#945640000
00
02
01
#945740000
0!
03
04
#950000000
0$
0-
0&
1.
1'
b1111 )
#950440000
0+
#950640000
10
12
11
#950740000
1!
13
14
#955000000
1$
1-
1&
b1100000 *
#955440000
1+
#955500000
0/
05
06
#955600000
0!
03
04
#955640000
00
02
01
#955740000
1!
13
14
#960000000
0$
0.
0'
b110 (
b0 )
#960440000
0+
#960500000
1/
15
16
#960600000
0!
03
04
#960640000
10
12
11
#960740000
1!
13
14
#965000000
0%
0-
0&
b1100001 *
#965500000
0/
05
06
#965540000
0,
#965600000
0!
03
04
#970000000
1%
1-
1&
b1 )
#970500000
1/
15
16
#970540000
1,
#970600000
1!
13
14
#975000000
0%
0-
0&
1.
1'
b1100010 *
#975540000
0,
#980000000
1%
1-
1&
0.
0'
b10 )
#980540000
1,
#985000000
0%
b1100011 *
#985540000
0,
#990000000
1%
b11 )
#990540000
1,
#995000000
0%
1.
1'
b1100100 *
#995500000
0/
05
06
#995540000
0,
#995600000
0!
03
04
#1000000000
1%
0.
0'
b100 )
#1000500000
1/
15
16
#1000540000
1,
#1000600000
1!
13
14
#1005000000
0-
0&
b1100101 *
#1005500000
0/
05
06
#1005600000
0!
03
04
#1010000000
1-
1&
b101 )
#1010500000
1/
15
16
#1010600000
1!
13
14
#1015000000
0-
0&
1.
1'
b1100110 *
#1020000000
1-
1&
0.
0'
b110 )
#1025000000
b1100111 *
#1030000000
b111 )
#1035000000
1.
1'
b1101000 *
#1035500000
0/
05
06
#1035600000
0!
03
04
#1040000000
0.
0'
b1000 )
#1040500000
1/
15
16
#1040600000
1!
13
14
#1045000000
1$
0%
0-
0&
b1101001 *
#1045440000
1+
#1045500000
0/
05
06
#1045540000
0,
#1045600000
0!
03
04
#1050000000
0$
1%
1-
1&
b1001 )
#1050440000
0+
#1050500000
1/
15
16
#1050540000
1,
#1050600000
1!
13
14
#1055000000
1$
0%
0-
0&
1.
1'
b1101010 *
#1055440000
1+
#1055540000
0,
#1060000000
0$
1%
1-
1&
0.
0'
b1010 )
#1060440000
0+
#1060540000
1,
#1065000000
1$
0%
b1101011 *
#1065440000
1+
#1065540000
0,
#1070000000
0$
1%
b1011 )
#1070440000
0+
#1070540000
1,
#1075000000
1$
0%
1.
1'
b1101100 *
#1075440000
1+
#1075500000
0/
05
06
#1075540000
0,
#1075600000
0!
03
04
#1080000000
0$
1%
0.
0'
b1100 )
#1080440000
0+
#1080500000
1/
15
16
#1080540000
1,
#1080600000
1!
13
14
#1085000000
1$
0-
0&
b1101101 *
#1085440000
1+
#1085500000
0/
05
06
#1085600000
0!
03
04
#1085640000
00
02
01
#1085740000
1!
13
14
#1090000000
0$
1-
1&
b1101 )
#1090440000
0+
#1090500000
1/
15
16
#1090600000
0!
03
04
#1090640000
10
12
11
#1090740000
1!
13
14
#1095000000
1$
0-
0&
1.
1'
b1101110 *
#1095440000
1+
#1095640000
00
02
01
#1095740000
0!
03
04
#1100000000
0$
1-
1&
0.
0'
b1110 )
#1100440000
0+
#1100640000
10
12
11
#1100740000
1!
13
14
#1105000000
1$
b1101111 *
#1105440000
1+
#1105640000
00
02
01
#1105740000
0!
03
04
#1110000000
0$
b1111 )
#1110440000
0+
#1110640000
10
12
11
#1110740000
1!
13
14
#1115000000
1$
1.
1'
b1110000 *
#1115440000
1+
#1115500000
0/
05
06
#1115600000
0!
03
04
#1115640000
00
02
01
#1115740000
1!
13
14
#1120000000
0$
b111 (
b0 )
#1120440000
0+
#1120640000
10
12
11
#1120740000
0!
03
04
#1125000000
0%
0-
0&
0.
0'
b1110001 *
#1125540000
0,
#1130000000
1%
1-
1&
1.
1'
b1 )
#1130540000
1,
#1135000000
0%
0-
0&
b1110010 *
#1135500000
1/
15
16
#1135540000
0,
#1135600000
1!
13
14
#1140000000
1%
1-
1&
b10 )
#1140500000
0/
05
06
#1140540000
1,
#1140600000
0!
03
04
#1145000000
0%
0.
0'
b1110011 *
#1145500000
1/
15
16
#1145540000
0,
#1145600000
1!
13
14
#1150000000
1%
1.
1'
b11 )
#1150500000
0/
05
06
#1150540000
1,
#1150600000
0!
03
04
#1155000000
0%
b1110100 *
#1155540000
0,
#1160000000
1%
b100 )
#1160540000
1,
#1165000000
0-
0&
0.
0'
b1110101 *
#1170000000
1-
1&
1.
1'
b101 )
#1175000000
0-
0&
b1110110 *
#1175500000
1/
15
16
#1175600000
1!
13
14
#1180000000
1-
1&
b110 )
#1180500000
0/
05
06
#1180600000
0!
03
04
#1185000000
0.
0'
b1110111 *
#1185500000
1/
15
16
#1185600000
1!
13
14
#1190000000
1.
1'
b111 )
#1190500000
0/
05
06
#1190600000
0!
03
04
#1195000000
b1111000 *
#1200000000
b1000 )
#1205000000
1$
0%
0-
0&
0.
0'
b1111001 *
#1205440000
1+
#1205540000
0,
#1210000000
0$
1%
1-
1&
1.
1'
b1001 )
#1210440000
0+
#1210540000
1,
#1215000000
1$
0%
0-
0&
b1111010 *
#1215440000
1+
#1215500000
1/
15
16
#1215540000
0,
#1215600000
1!
13
14
#1220000000
0$
1%
1-
1&
b1010 )
#1220440000
0+
#1220500000
0/
05
06
#1220540000
1,
#1220600000
0!
03
04
#1225000000
1$
0%
0.
0'
b1111011 *
#1225440000
1+
#1225500000
1/
15
16
#1225540000
0,
#1225600000
1!
13
14
#1230000000
0$
1%
1.
1'
b1011 )
#1230440000
0+
#1230500000
0/
05
06
#1230540000
1,
#1230600000
0!
03
04
#1235000000
1$
0%
b1111100 *
#1235440000
1+
#1235540000
0,
#1240000000
0$
1%
b1100 )
#1240440000
0+
#1240540000
1,
#1245000000
1$
0-
0&
0.
0'
b1111101 *
#1245440000
1+
#1245640000
00
02
01
#1245740000
1!
13
14
#1250000000
0$
1-
1&
1.
1'
b1101 )
#1250440000
0+
#1250640000
10
12
11
#1250740000
0!
03
04
#1255000000
1$
0-
0&
b1111110 *
#1255440000
1+
#1255500000
1/
15
16
#1255600000
1!
13
14
#1255640000
00
02
01
#1255740000
0!
03
04
#1260000000
0$
1-
1&
b1110 )
#1260440000
0+
#1260500000
0/
05
06
#1260600000
1!
13
14
#1260640000
10
12
11
#1260740000
0!
03
04
#1265000000
1$
0.
0'
b1111111 *
#1265440000
1+
#1265500000
1/
15
16
#1265600000
1!
13
14
#1265640000
00
02
01
#1265740000
0!
03
04
#1270000000
0$
1.
1'
b1111 )
#1270440000
0+
#1270500000
0/
05
06
#1270600000
1!
13
14
#1270640000
10
12
11
#1270740000
0!
03
04
#1275000000
1$
b10000000 *
#1275440000
1+
#1275640000
00
02
01
#1275740000
1!
13
14
#1280000000
0%
0-
0&
0.
0'
b1000 (
b0 )
#1280540000
0,
#1280740000
10
12
11
#1280840000
0!
03
04
#1285000000
0$
b10000001 *
#1285440000
0+
#1290000000
1$
b1 )
#1290440000
1+
#1295000000
0$
1.
1'
b10000010 *
#1295440000
0+
#1295500000
1/
15
16
#1295600000
1!
13
14
#1300000000
1$
0.
0'
b10 )
#1300440000
1+
#1300500000
0/
05
06
#1300600000
0!
03
04
#1305000000
0$
1-
1&
b10000011 *
#1305440000
0+
#1305500000
1/
15
16
#1305600000
1!
13
14
#1310000000
1$
0-
0&
b11 )
#1310440000
1+
#1310500000
0/
05
06
#1310600000
0!
03
04
#1315000000
0$
1-
1&
1.
1'
b10000100 *
#1315440000
0+
#1320000000
1$
0-
0&
0.
0'
b100 )
#1320440000
1+
#1325000000
0$
1%
b10000101 *
#1325440000
0+
#1325540000
1,
#1330000000
1$
0%
b101 )
#1330440000
1+
#1330540000
0,
#1335000000
0$
1%
1.
1'
b10000110 *
#1335440000
0+
#1335500000
1/
15
16
#1335540000
1,
#1335600000
1!
13
14
#1340000000
1$
0%
0.
0'
b110 )
#1340440000
1+
#1340500000
0/
05
06
#1340540000
0,
#1340600000
0!
03
04
#1345000000
0$
1%
1-
1&
b10000111 *
#1345440000
0+
#1345500000
1/
15
16
#1345540000
1,
#1345600000
1!
13
14
#1350000000
1$
0%
0-
0&
b111 )
#1350440000
1+
#1350500000
0/
05
06
#1350540000
0,
#1350600000
0!
03
04
#1355000000
0$
1%
1-
1&
1.
1'
b10001000 *
#1355440000
0+
#1355540000
1,
#1360000000
1$
0%
0-
0&
0.
0'
b1000 )
#1360440000
1+
#1360540000
0,
#1365000000
b10001001 *
#1370000000
b1001 )
#1375000000
1.
1'
b10001010 *
#1375500000
1/
15
16
#1375600000
1!
13
14
#1380000000
0.
0'
b1010 )
#1380500000
0/
05
06
#1380600000
0!
03
04
#1385000000
1-
1&
b10001011 *
#1385500000
1/
15
16
#1385600000
1!
13
14
#1390000000
0-
0&
b1011 )
#1390500000
0/
05
06
#1390600000
0!
03
04
#1395000000
1-
1&
1.
1'
b10001100 *
#1400000000
0-
0&
0.
0'
b1100 )
#1405000000
1%
b10001101 *
#1405540000
1,
#1405740000
00
02
01
#1405840000
1!
13
14
#1410000000
0%
b1101 )
#1410540000
0,
#1410740000
10
12
11
#1410840000
0!
03
04
#1415000000
1%
1.
1'
b10001110 *
#1415500000
1/
15
16
#1415540000
1,
#1415600000
1!
13
14
#1415740000
00
02
01
#1415840000
0!
03
04
#1420000000
0%
0.
0'
b1110 )
#1420500000
0/
05
06
#1420540000
0,
#1420600000
1!
13
14
#1420740000
10
12
11
#1420840000
0!
03
04
#1425000000
1%
1-
1&
b10001111 *
#1425500000
1/
15
16
#1425540000
1,
#1425600000
1!
13
14
#1425740000
00
02
01
#1425840000
0!
03
04
#1430000000
0%
0-
0&
b1111 )
#1430500000
0/
05
06
#1430540000
0,
#1430600000
1!
13
14
#1430740000
10
12
11
#1430840000
0!
03
04
#1435000000
1%
1-
1&
1.
1'
b10010000 *
#1435540000
1,
#1435740000
00
02
01
#1435840000
1!
13
14
#1440000000
0%
0-
0&
b1001 (
b0 )
#1440500000
1/
15
16
#1440540000
0,
#1440600000
0!
03
04
#1440740000
10
12
11
#1440840000
1!
13
14
#1445000000
0$
0.
0'
b10010001 *
#1445440000
0+
