correlations/scripts/verilog/vcd/correlation.vcd
$date
	Wed Jul 20 17:41:14 2022
$end
$version
	Icarus Verilog
$end
$timescale
	1fs
$end
$scope module tb $end
$var wire 1 ! clock $end
$var wire 1 " out $end
$var reg 1 # VGND $end
$var reg 1 $ VPWR $end
$var reg 1 % clk $end
$var reg 4 & in [3:0] $end
$var integer 32 ' i [31:0] $end
$var integer 32 ( j [31:0] $end
$var integer 32 ) sim [31:0] $end
$scope module uut $end
$var wire 1 # VGND $end
$var wire 1 $ VPWR $end
$var wire 1 ! clk $end
$var wire 4 * in [3:0] $end
$var wire 1 " out $end
$var wire 4 + in_del [3:0] $end
$scope module test $end
$var wire 1 # VGND $end
$var wire 1 $ VPWR $end
$var wire 4 , in [3:0] $end
$var wire 1 " y $end
$var wire 1 - _02_ $end
$var wire 1 . _01_ $end
$scope module _nand_ $end
$var wire 1 / A $end
$var wire 1 0 B $end
$var wire 1 # VGND $end
$var wire 1 # VNB $end
$var wire 1 $ VPB $end
$var wire 1 $ VPWR $end
$var wire 1 . Y $end
$scope module base $end
$var wire 1 / A $end
$var wire 1 0 B $end
$var wire 1 # VGND $end
$var wire 1 # VNB $end
$var wire 1 $ VPB $end
$var wire 1 $ VPWR $end
$var wire 1 . Y $end
$var wire 1 1 nand0_out_Y $end
$var wire 1 2 pwrgood_pp0_out_Y $end
$upscope $end
$upscope $end
$scope module _xnor_ $end
$var wire 1 . A $end
$var wire 1 # VGND $end
$var wire 1 # VNB $end
$var wire 1 $ VPB $end
$var wire 1 $ VPWR $end
$var wire 1 " Y $end
$var wire 1 - B $end
$scope module base $end
$var wire 1 . A $end
$var wire 1 # VGND $end
$var wire 1 # VNB $end
$var wire 1 $ VPB $end
$var wire 1 $ VPWR $end
$var wire 1 " Y $end
$var wire 1 3 pwrgood_pp0_out_Y $end
$var wire 1 4 xnor0_out_Y $end
$var wire 1 - B $end
$upscope $end
$upscope $end
$scope module _xor_ $end
$var wire 1 5 A $end
$var wire 1 6 B $end
$var wire 1 # VGND $end
$var wire 1 # VNB $end
$var wire 1 $ VPB $end
$var wire 1 $ VPWR $end
$var wire 1 - X $end
$scope module base $end
$var wire 1 5 A $end
$var wire 1 6 B $end
$var wire 1 # VGND $end
$var wire 1 # VNB $end
$var wire 1 $ VPB $end
$var wire 1 $ VPWR $end
$var wire 1 - X $end
$var wire 1 7 pwrgood_pp0_out_X $end
$var wire 1 8 xor0_out_X $end
$upscope $end
$upscope $end
$upscope $end
$upscope $end
$upscope $end
$enddefinitions $end
#0
$dumpvars
x8
x7
06
05
x4
x3
x2
x1
10
0/
x.
x-
b100 ,
bx00 +
b100 *
b0 )
b0 (
b0 '
b100 &
0%
1$
0#
x"
z!
$end
#20000
b0x00 +
#200000
1.
12
11
#450000
b100 +
#500000
0-
07
08
#600000
0"
03
04
#5000000
b101 +
00
16
b1 &
b1 *
b1 ,
b1 )
1%
#5450000
b1 +
#5500000
1-
17
18
#5600000
1"
13
14
#10000000
1/
b1001 &
b1001 *
b1001 ,
b1 (
0%
#10020000
b1001 +
#15000000
b1011 +
0/
15
b11 &
b11 *
b11 ,
b10 )
1%
#15020000
b11 +
#15500000
0-
07
08
#15600000
0"
03
04
#20000000
b1 +
1/
10
05
b1101 &
b1101 *
b1101 ,
b10 (
0%
#20020000
b1001 +
#20200000
0.
02
01
#20300000
1"
13
14
#20450000
b1101 +
#20500000
1-
17
18
#20600000
0"
03
04
#25000000
b11 )
1%
#30000000
0/
b101 &
b101 *
b101 ,
b11 (
0%
#30020000
b101 +
#30200000
1.
12
11
#30300000
1"
13
14
#35000000
b110 +
00
15
06
b10 &
b10 *
b10 ,
b100 )
1%
#35450000
b10 +
#40000000
b1 +
05
16
b1 &
b1 *
b1 ,
b100 (
0%
#45000000
1/
10
b1101 &
b1101 *
b1101 ,
b101 )
1%
#45020000
b1001 +
#45200000
0.
02
01
#45300000
0"
03
04
#45450000
b1101 +
#50000000
b1110 +
0/
15
06
b110 &
b110 *
b110 ,
b101 (
0%
#50020000
b110 +
#50200000
1.
12
11
#50300000
1"
13
14
#55000000
b101 +
1/
05
16
b1101 &
b1101 *
b1101 ,
b110 )
1%
#55020000
b1101 +
#55200000
0.
02
01
#55300000
0"
03
04
#60000000
b110 (
0%
#65000000
b1100 +
06
b1100 &
b1100 *
b1100 ,
b111 )
1%
#65500000
0-
07
08
#65600000
1"
13
14
#70000000
b1101 +
00
16
b1001 &
b1001 *
b1001 ,
b111 (
0%
#70200000
1.
12
11
#70300000
0"
03
04
#70450000
b1001 +
#70500000
1-
17
18
#70600000
1"
13
14
#75000000
b1010 +
0/
10
15
06
b110 &
b110 *
b110 ,
b1000 )
1%
#75020000
b10 +
#75450000
b110 +
#80000000
b101 +
05
16
b101 &
b101 *
b101 ,
b1000 (
0%
#85000000
b110 +
1/
00
15
06
b1010 &
b1010 *
b1010 ,
b1001 )
1%
#85020000
b1110 +
#85450000
b1010 +
#90000000
b1001 +
0/
10
05
16
b101 &
b101 *
b101 ,
b1001 (
0%
#90020000
b1 +
#90450000
b101 +
#95000000
b111 +
15
b111 &
b111 *
b111 ,
b1010 )
1%
#95500000
0-
07
08
#95600000
0"
03
04
#100000000
b110 +
00
06
b10 &
b10 *
b10 ,
b1010 (
0%
#100450000
b10 +
#100500000
1-
17
18
#100600000
1"
13
14
#105000000
b11 +
1/
10
16
b1111 &
b1111 *
b1111 ,
b1011 )
1%
#105020000
b1011 +
#105200000
0.
02
01
#105300000
0"
03
04
#105450000
b1111 +
#105500000
0-
07
08
#105600000
1"
13
14
#110000000
b1110 +
0/
00
06
b10 &
b10 *
b10 ,
b1 '
b0 (
0%
#110020000
b110 +
#110200000
1.
12
11
#110300000
0"
03
04
#110450000
b10 +
#110500000
1-
17
18
#110600000
1"
13
14
#115000000
1/
10
b1110 &
b1110 *
b1110 ,
b1100 )
1%
#115020000
b1010 +
#115200000
0.
02
01
#115300000
0"
03
04
#115450000
b1110 +
#120000000
b1100 +
00
05
b1000 &
b1000 *
b1000 ,
b1 (
0%
#120200000
1.
12
11
#120300000
1"
13
14
#120450000
b1000 +
#120500000
0-
07
08
#120600000
0"
03
04
#125000000
b1001 +
0/
10
16
b101 &
b101 *
b101 ,
b1101 )
1%
#125020000
b1 +
#125450000
b101 +
#125500000
1-
17
18
#125600000
1"
13
14
#130000000
b100 +
1/
06
b1100 &
b1100 *
b1100 ,
b10 (
0%
#130020000
b1100 +
#130200000
0.
02
01
#130300000
0"
03
04
#130500000
0-
07
08
#130600000
1"
13
14
#135000000
b1101 +
16
b1101 &
b1101 *
b1101 ,
b1110 )
1%
#135500000
1-
17
18
#135600000
0"
03
04
#140000000
b11 (
0%
#145000000
0/
b101 &
b101 *
b101 ,
b1111 )
1%
#145020000
b101 +
#145200000
1.
12
11
#145300000
1"
13
14
#150000000
b111 +
00
15
b11 &
b11 *
b11 ,
b100 (
0%
#150450000
b11 +
#150500000
0-
07
08
#150600000
0"
03
04
#155000000
b10 +
1/
06
b1010 &
b1010 *
b1010 ,
b10000 )
1%
#155020000
b1010 +
#155500000
1-
17
18
#155600000
1"
13
14
#160000000
b1000 +
0/
05
b0 &
b0 *
b0 ,
b101 (
0%
#160020000
b0 +
#160500000
0-
07
08
#160600000
0"
03
04
#165000000
b10001 )
1%
#170000000
b10 +
1/
15
b1010 &
b1010 *
b1010 ,
b110 (
0%
#170020000
b1010 +
#170500000
1-
17
18
#170600000
1"
13
14
#175000000
b1001 +
10
05
16
b1101 &
b1101 *
b1101 ,
b10010 )
1%
#175200000
0.
02
01
#175300000
0"
03
04
#175450000
b1101 +
#180000000
b1110 +
0/
15
06
b110 &
b110 *
b110 ,
b111 (
0%
#180020000
b110 +
#180200000
1.
12
11
#180300000
1"
13
14
#185000000
b111 +
00
16
b11 &
b11 *
b11 ,
b10011 )
1%
#185450000
b11 +
#185500000
0-
07
08
#185600000
0"
03
04
#190000000
b1 +
1/
10
05
b1101 &
b1101 *
b1101 ,
b1000 (
0%
#190020000
b1001 +
#190200000
0.
02
01
#190300000
1"
13
14
#190450000
b1101 +
#190500000
1-
17
18
#190600000
0"
03
04
#195000000
b1111 +
0/
00
15
b11 &
b11 *
b11 ,
b10100 )
1%
#195020000
b111 +
#195200000
1.
12
11
#195300000
1"
13
14
#195450000
b11 +
#195500000
0-
07
08
#195600000
0"
03
04
#200000000
1/
b1011 &
b1011 *
b1011 ,
b1001 (
0%
#200020000
b1011 +
#205000000
b1001 +
0/
10
05
b101 &
b101 *
b101 ,
b10101 )
1%
#205020000
b1 +
#205450000
b101 +
#205500000
1-
17
18
#205600000
1"
13
14
#210000000
b110 +
00
15
06
b10 &
b10 *
b10 ,
b1010 (
0%
#210450000
b10 +
#215000000
1/
10
b1110 &
b1110 *
b1110 ,
b10110 )
1%
#215020000
b1010 +
#215200000
0.
02
01
#215300000
0"
03
04
#215450000
b1110 +
#220000000
b1101 +
05
16
b1101 &
b1101 *
b1101 ,
b10 '
b0 (
0%
#225000000
b1111 +
15
b1111 &
b1111 *
b1111 ,
b10111 )
1%
#225500000
0-
07
08
#225600000
1"
13
14
#230000000
0/
00
b11 &
b11 *
b11 ,
b1 (
0%
#230020000
b111 +
#230200000
1.
12
11
#230300000
0"
03
04
#230450000
b11 +
#235000000
b10 +
1/
06
b1010 &
b1010 *
b1010 ,
b11000 )
1%
#235020000
b1010 +
#235500000
1-
17
18
#235600000
1"
13
14
#240000000
b10 (
0%
#245000000
b1000 +
10
05
b1100 &
b1100 *
b1100 ,
b11001 )
1%
#245200000
0.
02
01
#245300000
0"
03
04
#245450000
b1100 +
#245500000
0-
07
08
#245600000
1"
13
14
#250000000
b1110 +
0/
00
15
b10 &
b10 *
b10 ,
b11 (
0%
#250020000
b110 +
#250200000
1.
12
11
#250300000
0"
03
04
#250450000
b10 +
#250500000
1-
17
18
#250600000
1"
13
14
#255000000
1/
b1010 &
b1010 *
b1010 ,
b11010 )
1%
#255020000
b1010 +
#260000000
b1001 +
0/
05
16
b1 &
b1 *
b1 ,
b100 (
0%
#260020000
b1 +
#265000000
b0 +
1/
06
b1000 &
b1000 *
b1000 ,
b11011 )
1%
#265020000
b1000 +
#265500000
0-
07
08
#265600000
0"
03
04
#270000000
b101 (
0%
#275000000
b1001 +
16
b1001 &
b1001 *
b1001 ,
b11100 )
1%
#275500000
1-
17
18
#275600000
1"
13
14
#280000000
b1011 +
15
b1011 &
b1011 *
b1011 ,
b110 (
0%
#280500000
0-
07
08
#280600000
0"
03
04
#285000000
b1010 +
0/
10
06
b110 &
b110 *
b110 ,
b11101 )
1%
#285020000
b10 +
#285450000
b110 +
#285500000
1-
17
18
#285600000
1"
13
14
#290000000
b111 (
0%
#295000000
1/
b1110 &
b1110 *
b1110 ,
b11110 )
1%
#295020000
b1110 +
#295200000
0.
02
01
#295300000
0"
03
04
#300000000
b1100 +
05
b1100 &
b1100 *
b1100 ,
b1000 (
0%
#300500000
0-
07
08
#300600000
1"
13
14
#305000000
b1110 +
00
15
b1010 &
b1010 *
b1010 ,
b11111 )
1%
#305200000
1.
12
11
#305300000
0"
03
04
#305450000
b1010 +
#305500000
1-
17
18
#305600000
1"
13
14
#310000000
b1011 +
16
b1011 &
b1011 *
b1011 ,
b1001 (
0%
#310500000
0-
07
08
#310600000
0"
03
04
#315000000
b1001 +
0/
05
b1 &
b1 *
b1 ,
b100000 )
1%
#315020000
b1 +
#315500000
1-
17
18
#315600000
1"
13
14
#320000000
10
b101 &
b101 *
b101 ,
b1010 (
0%
#320450000
b101 +
#325000000
b111 +
1/
15
b1111 &
b1111 *
b1111 ,
b100001 )
1%
#325020000
b1111 +
#325200000
0.
02
01
#325300000
0"
03
04
#325500000
0-
07
08
#325600000
1"
13
14
#330000000
00
b1011 &
b1011 *
b1011 ,
b11 '
b0 (
0%
#330200000
1.
12
11
#330300000
0"
03
04
#330450000
b1011 +
#335000000
b1010 +
06
b1010 &
b1010 *
b1010 ,
b100010 )
1%
#335500000
1-
17
18
#335600000
1"
13
14
#340000000
10
b1110 &
b1110 *
b1110 ,
b1 (
0%
#340200000
0.
02
01
#340300000
0"
03
04
#340450000
b1110 +
#345000000
b1101 +
0/
05
16
b101 &
b101 *
b101 ,
b100011 )
1%
#345020000
b101 +
#345200000
1.
12
11
#345300000
1"
13
14
#350000000
00
b1 &
b1 *
b1 ,
b10 (
0%
#350450000
b1 +
#355000000
1/
b1001 &
b1001 *
b1001 ,
b100100 )
1%
#355020000
b1001 +
#360000000
b1010 +
0/
15
06
b10 &
b10 *
b10 ,
b11 (
0%
#360020000
b10 +
#365000000
b0 +
1/
10
05
b1100 &
b1100 *
b1100 ,
b100101 )
1%
#365020000
b1000 +
#365200000
0.
02
01
#365300000
0"
03
04
#365450000
b1100 +
#365500000
0-
07
08
#365600000
1"
13
14
#370000000
b1111 +
15
16
b1111 &
b1111 *
b1111 ,
b100 (
0%
#375000000
b100110 )
1%
#380000000
b1100 +
00
05
06
b1000 &
b1000 *
b1000 ,
b101 (
0%
#380200000
1.
12
11
#380300000
0"
03
04
#380450000
b1000 +
#385000000
b1011 +
0/
10
15
16
b111 &
b111 *
b111 ,
b100111 )
1%
#385020000
b11 +
#385450000
b111 +
#390000000
1/
b1111 &
b1111 *
b1111 ,
b110 (
0%
#390020000
b1111 +
#390200000
0.
02
01
#390300000
1"
13
14
#395000000
b1100 +
05
06
b1100 &
b1100 *
b1100 ,
b101000 )
1%
#400000000
b1111 +
00
15
16
b1011 &
b1011 *
b1011 ,
b111 (
0%
#400200000
1.
12
11
#400300000
0"
03
04
#400450000
b1011 +
#405000000
b1001 +
05
b1001 &
b1001 *
b1001 ,
b101001 )
1%
#405500000
1-
17
18
#405600000
1"
13
14
#410000000
b1000 (
0%
#415000000
b1000 +
0/
06
b0 &
b0 *
b0 ,
b101010 )
1%
#415020000
b0 +
#415500000
0-
07
08
#415600000
0"
03
04
#420000000
b11 +
10
15
16
b111 &
b111 *
b111 ,
b1001 (
0%
#420450000
b111 +
#425000000
b101 +
00
05
b1 &
b1 *
b1 ,
b101011 )
1%
#425450000
b1 +
#425500000
1-
17
18
#425600000
1"
13
14
#430000000
b10 +
10
15
06
b110 &
b110 *
b110 ,
b1010 (
0%
#430450000
b110 +
#435000000
b100 +
1/
05
b1100 &
b1100 *
b1100 ,
b101100 )
1%
#435020000
b1100 +
#435200000
0.
02
01
#435300000
0"
03
04
#435500000
0-
07
08
#435600000
1"
13
14
#440000000
b1110 +
0/
00
15
b10 &
b10 *
b10 ,
b100 '
b0 (
0%
#440020000
b110 +
#440200000
1.
12
11
#440300000
0"
03
04
#440450000
b10 +
#440500000
1-
17
18
#440600000
1"
13
14
#445000000
b0 +
1/
05
b1000 &
b1000 *
b1000 ,
b101101 )
1%
#445020000
b1000 +
#445500000
0-
07
08
#445600000
0"
03
04
#450000000
b1011 +
0/
10
15
16
b111 &
b111 *
b111 ,
b1 (
0%
#450020000
b11 +
#450450000
b111 +
#455000000
b101 +
1/
05
b1101 &
b1101 *
b1101 ,
b101110 )
1%
#455020000
b1101 +
#455200000
0.
02
01
#455300000
1"
13
14
#455500000
1-
17
18
#455600000
0"
03
04
#460000000
b1110 +
0/
00
15
06
b10 &
b10 *
b10 ,
b10 (
0%
#460020000
b110 +
#460200000
1.
12
11
#460300000
1"
13
14
#460450000
b10 +
#465000000
1/
10
b1110 &
b1110 *
b1110 ,
b101111 )
1%
#465020000
b1010 +
#465200000
0.
02
01
#465300000
0"
03
04
#465450000
b1110 +
#470000000
b1101 +
05
16
b1101 &
b1101 *
b1101 ,
b11 (
0%
#475000000
00
b1001 &
b1001 *
b1001 ,
b110000 )
1%
#475200000
1.
12
11
#475300000
1"
13
14
#475450000
b1001 +
#480000000
b1011 +
10
15
b1111 &
b1111 *
b1111 ,
b100 (
0%
#480200000
0.
02
01
#480300000
0"
03
04
#480450000
b1111 +
#480500000
0-
07
08
#480600000
1"
13
14
#485000000
0/
00
b11 &
b11 *
b11 ,
b110001 )
1%
#485020000
b111 +
#485200000
1.
12
11
#485300000
0"
03
04
#485450000
b11 +
#490000000
b1 +
10
05
b101 &
b101 *
b101 ,
b101 (
0%
#490450000
b101 +
#490500000
1-
17
18
#490600000
1"
13
14
#495000000
b100 +
1/
00
06
b1000 &
b1000 *
b1000 ,
b110010 )
1%
#495020000
b1100 +
#495450000
b1000 +
#495500000
0-
07
08
#495600000
0"
03
04
#500000000
b1011 +
15
16
b1011 &
b1011 *
b1011 ,
b110 (
0%
#505000000
b1001 +
05
b1001 &
b1001 *
b1001 ,
b110011 )
1%
#505500000
1-
17
18
#505600000
1"
13
14
#510000000
b1011 +
10
15
b1111 &
b1111 *
b1111 ,
b111 (
0%
#510200000
0.
02
01
#510300000
0"
03
04
#510450000
b1111 +
#510500000
0-
07
08
#510600000
1"
13
14
#515000000
b1110 +
00
06
b1010 &
b1010 *
b1010 ,
b110100 )
1%
#515200000
1.
12
11
#515300000
0"
03
04
#515450000
b1010 +
#515500000
1-
17
18
#515600000
1"
13
14
#520000000
b1000 +
05
b1000 &
b1000 *
b1000 ,
b1000 (
0%
#520500000
0-
07
08
#520600000
0"
03
04
#525000000
b1010 +
0/
10
15
b110 &
b110 *
b110 ,
b110101 )
1%
#525020000
b10 +
#525450000
b110 +
#525500000
1-
17
18
#525600000
1"
13
14
#530000000
1/
b1110 &
b1110 *
b1110 ,
b1001 (
0%
#530020000
b1110 +
#530200000
0.
02
01
#530300000
0"
03
04
#535000000
b1100 +
05
b1100 &
b1100 *
b1100 ,
b110110 )
1%
#535500000
0-
07
08
#535600000
1"
13
14
#540000000
b1110 +
00
15
b1010 &
b1010 *
b1010 ,
b1010 (
0%
#540200000
1.
12
11
#540300000
0"
03
04
#540450000
b1010 +
#540500000
1-
17
18
#540600000
1"
13
14
#545000000
0/
10
b110 &
b110 *
b110 ,
b110111 )
1%
#545020000
b10 +
#545450000
b110 +
#550000000
b111 +
00
16
b11 &
b11 *
b11 ,
b101 '
b0 (
0%
#550450000
b11 +
#550500000
0-
07
08
#550600000
0"
03
04
#555000000
b111000 )
1%
#560000000
1/
10
b1111 &
b1111 *
b1111 ,
b1 (
0%
#560020000
b1011 +
#560200000
0.
02
01
#560300000
1"
13
14
#560450000
b1111 +
#565000000
0/
00
b11 &
b11 *
b11 ,
b111001 )
1%
#565020000
b111 +
#565200000
1.
12
11
#565300000
0"
03
04
#565450000
b11 +
#570000000
1/
10
b1111 &
b1111 *
b1111 ,
b10 (
0%
#570020000
b1011 +
#570200000
0.
02
01
#570300000
1"
13
14
#570450000
b1111 +
#575000000
b1100 +
0/
05
06
b100 &
b100 *
b100 ,
b111010 )
1%
#575020000
b100 +
#575200000
1.
12
11
#575300000
0"
03
04
#580000000
b111 +
15
16
b111 &
b111 *
b111 ,
b11 (
0%
#585000000
1/
00
b1011 &
b1011 *
b1011 ,
b111011 )
1%
#585020000
b1111 +
#585450000
b1011 +
#590000000
b1010 +
0/
10
06
b110 &
b110 *
b110 ,
b100 (
0%
#590020000
b10 +
#590450000
b110 +
#590500000
1-
17
18
#590600000
1"
13
14
#595000000
1/
00
b1010 &
b1010 *
b1010 ,
b111100 )
1%
#595020000
b1110 +
#595450000
b1010 +
#600000000
b1001 +
05
16
b1001 &
b1001 *
b1001 ,
b101 (
0%
#605000000
10
b1101 &
b1101 *
b1101 ,
b111101 )
1%
#605200000
0.
02
01
#605300000
0"
03
04
#605450000
b1101 +
#610000000
b1110 +
00
15
06
b1010 &
b1010 *
b1010 ,
b110 (
0%
#610200000
1.
12
11
#610300000
1"
13
14
#610450000
b1010 +
#615000000
b1001 +
0/
10
05
16
b101 &
b101 *
b101 ,
b111110 )
1%
#615020000
b1 +
#615450000
b101 +
#620000000
b111 (
0%
#625000000
b111 +
1/
15
b1111 &
b1111 *
b1111 ,
b111111 )
1%
#625020000
b1111 +
#625200000
0.
02
01
#625300000
0"
03
04
#625500000
0-
07
08
#625600000
1"
13
14
#630000000
b1101 +
00
05
b1001 &
b1001 *
b1001 ,
b1000 (
0%
#630200000
1.
12
11
#630300000
0"
03
04
#630450000
b1001 +
#630500000
1-
17
18
#630600000
1"
13
14
#635000000
b1000 +
0/
10
06
b100 &
b100 *
b100 ,
b1000000 )
1%
#635020000
b0 +
#635450000
b100 +
#635500000
0-
07
08
#635600000
0"
03
04
#640000000
00
b0 &
b0 *
b0 ,
b1001 (
0%
#640450000
b0 +
#645000000
b10 +
1/
15
b1010 &
b1010 *
b1010 ,
b1000001 )
1%
#645020000
b1010 +
#645500000
1-
17
18
#645600000
1"
13
14
#650000000
b1011 +
16
b1011 &
b1011 *
b1011 ,
b1010 (
0%
#650500000
0-
07
08
#650600000
0"
03
04
#655000000
b1010 +
10
06
b1110 &
b1110 *
b1110 ,
b1000010 )
1%
#655200000
0.
02
01
#655300000
1"
13
14
#655450000
b1110 +
#655500000
1-
17
18
#655600000
0"
03
04
#660000000
b1100 +
05
b1100 &
b1100 *
b1100 ,
b110 '
b0 (
0%
#660500000
0-
07
08
#660600000
1"
13
14
#665000000
b1110 +
00
15
b1010 &
b1010 *
b1010 ,
b1000011 )
1%
#665200000
1.
12
11
#665300000
0"
03
04
#665450000
b1010 +
#665500000
1-
17
18
#665600000
1"
13
14
#670000000
b1001 +
10
05
16
b1101 &
b1101 *
b1101 ,
b1 (
0%
#670200000
0.
02
01
#670300000
0"
03
04
#670450000
b1101 +
#675000000
b1111 +
0/
00
15
b11 &
b11 *
b11 ,
b1000100 )
1%
#675020000
b111 +
#675200000
1.
12
11
#675300000
1"
13
14
#675450000
b11 +
#675500000
0-
07
08
#675600000
0"
03
04
#680000000
b10 +
10
06
b110 &
b110 *
b110 ,
b10 (
0%
#680450000
b110 +
#680500000
1-
17
18
#680600000
1"
13
14
#685000000
1/
b1110 &
b1110 *
b1110 ,
b1000101 )
1%
#685020000
b1110 +
#685200000
0.
02
01
#685300000
0"
03
04
#690000000
b1111 +
0/
16
b111 &
b111 *
b111 ,
b11 (
0%
#690020000
b111 +
#690200000
1.
12
11
#690300000
1"
13
14
#690500000
0-
07
08
#690600000
0"
03
04
#695000000
b110 +
1/
00
06
b1010 &
b1010 *
b1010 ,
b1000110 )
1%
#695020000
b1110 +
#695450000
b1010 +
#695500000
1-
17
18
#695600000
1"
13
14
#700000000
0/
10
b110 &
b110 *
b110 ,
b100 (
0%
#700020000
b10 +
#700450000
b110 +
#705000000
b100 +
1/
00
05
b1000 &
b1000 *
b1000 ,
b1000111 )
1%
#705020000
b1100 +
#705450000
b1000 +
#705500000
0-
07
08
#705600000
0"
03
04
#710000000
b1001 +
16
b1001 &
b1001 *
b1001 ,
b101 (
0%
#710500000
1-
17
18
#710600000
1"
13
14
#715000000
b1000 +
06
b1000 &
b1000 *
b1000 ,
b1001000 )
1%
#715500000
0-
07
08
#715600000
0"
03
04
#720000000
0/
10
b100 &
b100 *
b100 ,
b110 (
0%
#720020000
b0 +
#720450000
b100 +
#725000000
b111 +
00
15
16
b11 &
b11 *
b11 ,
b1001001 )
1%
#725450000
b11 +
#730000000
b0 +
10
05
06
b100 &
b100 *
b100 ,
b111 (
0%
#730450000
b100 +
#735000000
b101 +
1/
00
16
b1001 &
b1001 *
b1001 ,
b1001010 )
1%
#735020000
b1101 +
#735450000
b1001 +
#735500000
1-
17
18
#735600000
1"
13
14
#740000000
b1011 +
15
b1011 &
b1011 *
b1011 ,
b1000 (
0%
#740500000
0-
07
08
#740600000
0"
03
04
#745000000
b1001 +
10
05
b1101 &
b1101 *
b1101 ,
b1001011 )
1%
#745200000
0.
02
01
#745300000
1"
13
14
#745450000
b1101 +
#745500000
1-
17
18
#745600000
0"
03
04
#750000000
00
b1001 &
b1001 *
b1001 ,
b1001 (
0%
#750200000
1.
12
11
#750300000
1"
13
14
#750450000
b1001 +
#755000000
10
b1101 &
b1101 *
b1101 ,
b1001100 )
1%
#755200000
0.
02
01
#755300000
0"
03
04
#755450000
b1101 +
#760000000
b1110 +
0/
15
06
b110 &
b110 *
b110 ,
b1010 (
0%
#760020000
b110 +
#760200000
1.
12
11
#760300000
1"
13
14
#765000000
1/
00
b1010 &
b1010 *
b1010 ,
b1001101 )
1%
#765020000
b1110 +
#765450000
b1010 +
#770000000
0/
10
b110 &
b110 *
b110 ,
b111 '
b0 (
0%
#770020000
b10 +
#770450000
b110 +
#775000000
b101 +
05
16
b101 &
b101 *
b101 ,
b1001110 )
1%
#780000000
b110 +
15
06
b110 &
b110 *
b110 ,
b1 (
0%
#785000000
b100 +
05
b100 &
b100 *
b100 ,
b1001111 )
1%
#785500000
0-
07
08
#785600000
0"
03
04
#790000000
b111 +
15
16
b111 &
b111 *
b111 ,
b10 (
0%
#795000000
b101 +
1/
00
05
b1001 &
b1001 *
b1001 ,
b1010000 )
1%
#795020000
b1101 +
#795450000
b1001 +
#795500000
1-
17
18
#795600000
1"
13
14
#800000000
b1000 +
0/
10
06
b100 &
b100 *
b100 ,
b11 (
0%
#800020000
b0 +
#800450000
b100 +
#800500000
0-
07
08
#800600000
0"
03
04
#805000000
1/
00
b1000 &
b1000 *
b1000 ,
b1010001 )
1%
#805020000
b1100 +
#805450000
b1000 +
#810000000
b100 (
0%
#815000000
b1001 +
10
16
b1101 &
b1101 *
b1101 ,
b1010010 )
1%
#815200000
0.
02
01
#815300000
1"
13
14
#815450000
b1101 +
#815500000
1-
17
18
#815600000
0"
03
04
#820000000
b1111 +
0/
15
b111 &
b111 *
b111 ,
b101 (
0%
#820020000
b111 +
#820200000
1.
12
11
#820300000
1"
13
14
#820500000
0-
07
08
#820600000
0"
03
04
#825000000
b110 +
1/
06
b1110 &
b1110 *
b1110 ,
b1010011 )
1%
#825020000
b1110 +
#825200000
0.
02
01
#825300000
1"
13
14
#825500000
1-
17
18
#825600000
0"
03
04
#830000000
b1100 +
00
05
b1000 &
b1000 *
b1000 ,
b110 (
0%
#830200000
1.
12
11
#830300000
1"
13
14
#830450000
b1000 +
#830500000
0-
07
08
#830600000
0"
03
04
#835000000
10
b1100 &
b1100 *
b1100 ,
b1010100 )
1%
#835200000
0.
02
01
#835300000
1"
13
14
#835450000
b1100 +
#840000000
b1101 +
16
b1101 &
b1101 *
b1101 ,
b111 (
0%
#840500000
1-
17
18
#840600000
0"
03
04
#845000000
00
b1001 &
b1001 *
b1001 ,
b1010101 )
1%
#845200000
1.
12
11
#845300000
1"
13
14
#845450000
b1001 +
#850000000
b1000 +
10
06
b1100 &
b1100 *
b1100 ,
b1000 (
0%
#850200000
0.
02
01
#850300000
0"
03
04
#850450000
b1100 +
#850500000
0-
07
08
#850600000
1"
13
14
#855000000
b1110 +
0/
15
b110 &
b110 *
b110 ,
b1010110 )
1%
#855020000
b110 +
#855200000
1.
12
11
#855300000
0"
03
04
#855500000
1-
17
18
#855600000
1"
13
14
#860000000
1/
00
b1010 &
b1010 *
b1010 ,
b1001 (
0%
#860020000
b1110 +
#860450000
b1010 +
#865000000
b1001 +
10
05
16
b1101 &
b1101 *
b1101 ,
b1010111 )
1%
#865200000
0.
02
01
#865300000
0"
03
04
#865450000
b1101 +
#870000000
b1110 +
0/
15
06
b110 &
b110 *
b110 ,
b1010 (
0%
#870020000
b110 +
#870200000
1.
12
11
#870300000
1"
13
14
#875000000
b100 +
00
05
b0 &
b0 *
b0 ,
b1011000 )
1%
#875450000
b0 +
#875500000
0-
07
08
#875600000
0"
03
04
#880000000
b11 +
15
16
b11 &
b11 *
b11 ,
b1000 '
b0 (
0%
#885000000
b10 +
1/
06
b1010 &
b1010 *
b1010 ,
b1011001 )
1%
#885020000
b1010 +
#885500000
1-
17
18
#885600000
1"
13
14
#890000000
10
b1110 &
b1110 *
b1110 ,
b1 (
0%
#890200000
0.
02
01
#890300000
0"
03
04
#890450000
b1110 +
#895000000
00
b1010 &
b1010 *
b1010 ,
b1011010 )
1%
#895200000
1.
12
11
#895300000
1"
13
14
#895450000
b1010 +
#900000000
b1001 +
0/
10
05
16
b101 &
b101 *
b101 ,
b10 (
0%
#900020000
b1 +
#900450000
b101 +
#905000000
b110 +
1/
00
15
06
b1010 &
b1010 *
b1010 ,
b1011011 )
1%
#905020000
b1110 +
#905450000
b1010 +
#910000000
b1001 +
05
16
b1001 &
b1001 *
b1001 ,
b11 (
0%
#915000000
b1011 +
0/
10
15
b111 &
b111 *
b111 ,
b1011100 )
1%
#915020000
b11 +
#915450000
b111 +
#915500000
0-
07
08
#915600000
0"
03
04
#920000000
b110 +
06
b110 &
b110 *
b110 ,
b100 (
0%
#920500000
1-
17
18
#920600000
1"
13
14
#925000000
b100 +
00
05
b0 &
b0 *
b0 ,
b1011101 )
1%
#925450000
b0 +
#925500000
0-
07
08
#925600000
0"
03
04
#930000000
b10 +
10
15
b110 &
b110 *
b110 ,
b101 (
0%
#930450000
b110 +
#930500000
1-
17
18
#930600000
1"
13
14
#935000000
b1011110 )
1%
#940000000
b101 +
1/
05
16
b1101 &
b1101 *
b1101 ,
b110 (
0%
#940020000
b1101 +
#940200000
0.
02
01
#940300000
0"
03
04
#945000000
b1100 +
06
b1100 &
b1100 *
b1100 ,
b1011111 )
1%
#945500000
0-
07
08
#945600000
1"
13
14
#950000000
b1110 +
0/
15
b110 &
b110 *
b110 ,
b111 (
0%
#950020000
b110 +
#950200000
1.
12
11
#950300000
0"
03
04
#950500000
1-
17
18
#950600000
1"
13
14
#955000000
b100 +
1/
00
05
b1000 &
b1000 *
b1000 ,
b1100000 )
1%
#955020000
b1100 +
#955450000
b1000 +
#955500000
0-
07
08
#955600000
0"
03
04
#960000000
b1010 +
10
15
b1110 &
b1110 *
b1110 ,
b1000 (
0%
#960200000
0.
02
01
#960300000
1"
13
14
#960450000
b1110 +
#960500000
1-
17
18
#960600000
0"
03
04
