correlations/scripts/verilog/vcd/correlation_old.vcd
$date
	Wed Jul 20 15:00:03 2022
$end
$version
	Icarus Verilog
$end
$timescale
	1fs
$end
$scope module correlation_2_tb $end
$var wire 1 ! y1 $end
$var reg 1 " VGND $end
$var reg 1 # VPWR $end
$var reg 1 $ a $end
$var reg 1 % b $end
$var reg 1 & r1 $end
$var reg 1 ' r2 $end
$var integer 32 ( i [31:0] $end
$var integer 32 ) j [31:0] $end
$var integer 32 * sim [31:0] $end
$scope module uut_r $end
$var wire 1 " VGND $end
$var wire 1 # VPWR $end
$var wire 1 + _delA_ $end
$var wire 1 , _delB_ $end
$var wire 1 - _delR1_ $end
$var wire 1 . _delR2_ $end
$var wire 1 $ a $end
$var wire 1 % b $end
$var wire 1 & r1 $end
$var wire 1 ' r2 $end
$var wire 1 ! y $end
$var wire 1 / _02_ $end
$var wire 1 0 _01_ $end
$scope module _nand_ $end
$var wire 1 + A $end
$var wire 1 , B $end
$var wire 1 " VGND $end
$var wire 1 " VNB $end
$var wire 1 # VPB $end
$var wire 1 # VPWR $end
$var wire 1 0 Y $end
$scope module base $end
$var wire 1 + A $end
$var wire 1 , B $end
$var wire 1 " VGND $end
$var wire 1 " VNB $end
$var wire 1 # VPB $end
$var wire 1 # VPWR $end
$var wire 1 0 Y $end
$var wire 1 1 nand0_out_Y $end
$var wire 1 2 pwrgood_pp0_out_Y $end
$upscope $end
$upscope $end
$scope module _xnor_ $end
$var wire 1 0 A $end
$var wire 1 " VGND $end
$var wire 1 " VNB $end
$var wire 1 # VPB $end
$var wire 1 # VPWR $end
$var wire 1 ! Y $end
$var wire 1 / B $end
$scope module base $end
$var wire 1 0 A $end
$var wire 1 " VGND $end
$var wire 1 " VNB $end
$var wire 1 # VPB $end
$var wire 1 # VPWR $end
$var wire 1 ! Y $end
$var wire 1 3 pwrgood_pp0_out_Y $end
$var wire 1 4 xnor0_out_Y $end
$var wire 1 / B $end
$upscope $end
$upscope $end
$scope module _xor_ $end
$var wire 1 - A $end
$var wire 1 . B $end
$var wire 1 " VGND $end
$var wire 1 " VNB $end
$var wire 1 # VPB $end
$var wire 1 # VPWR $end
$var wire 1 / X $end
$scope module base $end
$var wire 1 - A $end
$var wire 1 . B $end
$var wire 1 " VGND $end
$var wire 1 " VNB $end
$var wire 1 # VPB $end
$var wire 1 # VPWR $end
$var wire 1 / X $end
$var wire 1 5 pwrgood_pp0_out_X $end
$var wire 1 6 xor0_out_X $end
$upscope $end
$upscope $end
$upscope $end
$upscope $end
$enddefinitions $end
#0
$dumpvars
x6
x5
x4
x3
x2
x1
x0
x/
0.
0-
0,
0+
b0 *
b0 )
b0 (
0'
0&
0%
0$
1#
0"
x!
$end
#200000
10
12
11
#500000
0/
05
06
#600000
0!
03
04
#5000000
b1 *
#10000000
b1 )
#15000000
1.
1'
b10 *
#15500000
1/
15
16
#15600000
1!
13
14
#20000000
0.
0'
b10 )
#20500000
0/
05
06
#20600000
0!
03
04
#25000000
1-
1&
b11 *
#25500000
1/
15
16
#25600000
1!
13
14
#30000000
0-
0&
b11 )
#30500000
0/
05
06
#30600000
0!
03
04
#35000000
1-
1&
1.
1'
b100 *
#40000000
0-
0&
0.
0'
b100 )
#45000000
1,
1%
b101 *
#50000000
0,
0%
b101 )
#55000000
1,
1%
1.
1'
b110 *
#55500000
1/
15
16
#55600000
1!
13
14
#60000000
0,
0%
0.
0'
b110 )
#60500000
0/
05
06
#60600000
0!
03
04
#65000000
1,
1%
1-
1&
b111 *
#65500000
1/
15
16
#65600000
1!
13
14
#70000000
0,
0%
0-
0&
b111 )
#70500000
0/
05
06
#70600000
0!
03
04
#75000000
1,
1%
1-
1&
1.
1'
b1000 *
#80000000
0,
0%
0-
0&
0.
0'
b1000 )
#85000000
1+
1$
b1001 *
#90000000
0+
0$
b1001 )
#95000000
1+
1$
1.
1'
b1010 *
#95500000
1/
15
16
#95600000
1!
13
14
#100000000
0+
0$
0.
0'
b1010 )
#100500000
0/
05
06
#100600000
0!
03
04
#105000000
1+
1$
1-
1&
b1011 *
#105500000
1/
15
16
#105600000
1!
13
14
#110000000
0+
0$
0-
0&
b1011 )
#110500000
0/
05
06
#110600000
0!
03
04
#115000000
1+
1$
1-
1&
1.
1'
b1100 *
#120000000
0+
0$
0-
0&
0.
0'
b1100 )
#125000000
1+
1$
1,
1%
b1101 *
#125200000
00
02
01
#125300000
1!
13
14
#130000000
0+
0$
0,
0%
b1101 )
#130200000
10
12
11
#130300000
0!
03
04
#135000000
1+
1$
1,
1%
1.
1'
b1110 *
#135200000
00
02
01
#135300000
1!
13
14
#135500000
1/
15
16
#135600000
0!
03
04
#140000000
0+
0$
0,
0%
0.
0'
b1110 )
#140200000
10
12
11
#140300000
1!
13
14
#140500000
0/
05
06
#140600000
0!
03
04
#145000000
1+
1$
1,
1%
1-
1&
b1111 *
#145200000
00
02
01
#145300000
1!
13
14
#145500000
1/
15
16
#145600000
0!
03
04
#150000000
0+
0$
0,
0%
0-
0&
b1111 )
#150200000
10
12
11
#150300000
1!
13
14
#150500000
0/
05
06
#150600000
0!
03
04
#155000000
1+
1$
1,
1%
1-
1&
1.
1'
b10000 *
#155200000
00
02
01
#155300000
1!
13
14
#160000000
0+
0$
0,
0%
0-
0&
b1 (
b0 )
#160200000
10
12
11
#160300000
0!
03
04
#160500000
1/
15
16
#160600000
1!
13
14
#165000000
0.
0'
b10001 *
#165500000
0/
05
06
#165600000
0!
03
04
#170000000
1.
1'
b1 )
#170500000
1/
15
16
#170600000
1!
13
14
#175000000
b10010 *
#180000000
b10 )
#185000000
1-
1&
0.
0'
b10011 *
#190000000
0-
0&
1.
1'
b11 )
#195000000
1-
1&
b10100 *
#195500000
0/
05
06
#195600000
0!
03
04
#200000000
0-
0&
b100 )
#200500000
1/
15
16
#200600000
1!
13
14
#205000000
1,
1%
0.
0'
b10101 *
#205500000
0/
05
06
#205600000
0!
03
04
#210000000
0,
0%
1.
1'
b101 )
#210500000
1/
15
16
#210600000
1!
13
14
#215000000
1,
1%
b10110 *
#220000000
0,
0%
b110 )
#225000000
1,
1%
1-
1&
0.
0'
b10111 *
#230000000
0,
0%
0-
0&
1.
1'
b111 )
#235000000
1,
1%
1-
1&
b11000 *
#235500000
0/
05
06
#235600000
0!
03
04
#240000000
0,
0%
0-
0&
b1000 )
#240500000
1/
15
16
#240600000
1!
13
14
#245000000
1+
1$
0.
0'
b11001 *
#245500000
0/
05
06
#245600000
0!
03
04
#250000000
0+
0$
1.
1'
b1001 )
#250500000
1/
15
16
#250600000
1!
13
14
#255000000
1+
1$
b11010 *
#260000000
0+
0$
b1010 )
#265000000
1+
1$
1-
1&
0.
0'
b11011 *
#270000000
0+
0$
0-
0&
1.
1'
b1011 )
#275000000
1+
1$
1-
1&
b11100 *
#275500000
0/
05
06
#275600000
0!
03
04
#280000000
0+
0$
0-
0&
b1100 )
#280500000
1/
15
16
#280600000
1!
13
14
#285000000
1+
1$
1,
1%
0.
0'
b11101 *
#285200000
00
02
01
#285300000
0!
03
04
#285500000
0/
05
06
#285600000
1!
13
14
#290000000
0+
0$
0,
0%
1.
1'
b1101 )
#290200000
10
12
11
#290300000
0!
03
04
#290500000
1/
15
16
#290600000
1!
13
14
#295000000
1+
1$
1,
1%
b11110 *
#295200000
00
02
01
#295300000
0!
03
04
#300000000
0+
0$
0,
0%
b1110 )
#300200000
10
12
11
#300300000
1!
13
14
#305000000
1+
1$
1,
1%
1-
1&
0.
0'
b11111 *
#305200000
00
02
01
#305300000
0!
03
04
#310000000
0+
0$
0,
0%
0-
0&
1.
1'
b1111 )
#310200000
10
12
11
#310300000
1!
13
14
#315000000
1+
1$
1,
1%
1-
1&
b100000 *
#315200000
00
02
01
#315300000
0!
03
04
#315500000
0/
05
06
#315600000
1!
13
14
#320000000
0+
0$
0,
0%
0.
0'
b10 (
b0 )
#320200000
10
12
11
#320300000
0!
03
04
#320500000
1/
15
16
#320600000
1!
13
14
#325000000
0-
0&
b100001 *
#325500000
0/
05
06
#325600000
0!
03
04
#330000000
1-
1&
b1 )
#330500000
1/
15
16
#330600000
1!
13
14
#335000000
0-
0&
1.
1'
b100010 *
#340000000
1-
1&
0.
0'
b10 )
#345000000
b100011 *
#350000000
b11 )
#355000000
1.
1'
b100100 *
#355500000
0/
05
06
#355600000
0!
03
04
#360000000
0.
0'
b100 )
#360500000
1/
15
16
#360600000
1!
13
14
#365000000
1,
1%
0-
0&
b100101 *
#365500000
0/
05
06
#365600000
0!
03
04
#370000000
0,
0%
1-
1&
b101 )
#370500000
1/
15
16
#370600000
1!
13
14
#375000000
1,
1%
0-
0&
1.
1'
b100110 *
#380000000
0,
0%
1-
1&
0.
0'
b110 )
#385000000
1,
1%
b100111 *
#390000000
0,
0%
b111 )
#395000000
1,
1%
1.
1'
b101000 *
#395500000
0/
05
06
#395600000
0!
03
04
#400000000
0,
0%
0.
0'
b1000 )
#400500000
1/
15
16
#400600000
1!
13
14
#405000000
1+
1$
0-
0&
b101001 *
#405500000
0/
05
06
#405600000
0!
03
04
#410000000
0+
0$
1-
1&
b1001 )
#410500000
1/
15
16
#410600000
1!
13
14
#415000000
1+
1$
0-
0&
1.
1'
b101010 *
#420000000
0+
0$
1-
1&
0.
0'
b1010 )
#425000000
1+
1$
b101011 *
#430000000
0+
0$
b1011 )
#435000000
1+
1$
1.
1'
b101100 *
#435500000
0/
05
06
#435600000
0!
03
04
#440000000
0+
0$
0.
0'
b1100 )
#440500000
1/
15
16
#440600000
1!
13
14
#445000000
1+
1$
1,
1%
0-
0&
b101101 *
#445200000
00
02
01
#445300000
0!
03
04
#445500000
0/
05
06
#445600000
1!
13
14
#450000000
0+
0$
0,
0%
1-
1&
b1101 )
#450200000
10
12
11
#450300000
0!
03
04
#450500000
1/
15
16
#450600000
1!
13
14
#455000000
1+
1$
1,
1%
0-
0&
1.
1'
b101110 *
#455200000
00
02
01
#455300000
0!
03
04
#460000000
0+
0$
0,
0%
1-
1&
0.
0'
b1110 )
#460200000
10
12
11
#460300000
1!
13
14
#465000000
1+
1$
1,
1%
b101111 *
#465200000
00
02
01
#465300000
0!
03
04
#470000000
0+
0$
0,
0%
b1111 )
#470200000
10
12
11
#470300000
1!
13
14
#475000000
1+
1$
1,
1%
1.
1'
b110000 *
#475200000
00
02
01
#475300000
0!
03
04
#475500000
0/
05
06
#475600000
1!
13
14
#480000000
0+
0$
0,
0%
b11 (
b0 )
#480200000
10
12
11
#480300000
0!
03
04
#485000000
0-
0&
0.
0'
b110001 *
#490000000
1-
1&
1.
1'
b1 )
#495000000
0-
0&
b110010 *
#495500000
1/
15
16
#495600000
1!
13
14
#500000000
1-
1&
b10 )
#500500000
0/
05
06
#500600000
0!
03
04
#505000000
0.
0'
b110011 *
#505500000
1/
15
16
#505600000
1!
13
14
#510000000
1.
1'
b11 )
#510500000
0/
05
06
#510600000
0!
03
04
#515000000
b110100 *
#520000000
b100 )
#525000000
1,
1%
0-
0&
0.
0'
b110101 *
#530000000
0,
0%
1-
1&
1.
1'
b101 )
#535000000
1,
1%
0-
0&
b110110 *
#535500000
1/
15
16
#535600000
1!
13
14
#540000000
0,
0%
1-
1&
b110 )
#540500000
0/
05
06
#540600000
0!
03
04
#545000000
1,
1%
0.
0'
b110111 *
#545500000
1/
15
16
#545600000
1!
13
14
#550000000
0,
0%
1.
1'
b111 )
#550500000
0/
05
06
#550600000
0!
03
04
#555000000
1,
1%
b111000 *
#560000000
0,
0%
b1000 )
#565000000
1+
1$
0-
0&
0.
0'
b111001 *
#570000000
0+
0$
1-
1&
1.
1'
b1001 )
#575000000
1+
1$
0-
0&
b111010 *
#575500000
1/
15
16
#575600000
1!
13
14
#580000000
0+
0$
1-
1&
b1010 )
#580500000
0/
05
06
#580600000
0!
03
04
#585000000
1+
1$
0.
0'
b111011 *
#585500000
1/
15
16
#585600000
1!
13
14
#590000000
0+
0$
1.
1'
b1011 )
#590500000
0/
05
06
#590600000
0!
03
04
#595000000
1+
1$
b111100 *
#600000000
0+
0$
b1100 )
#605000000
1+
1$
1,
1%
0-
0&
0.
0'
b111101 *
#605200000
00
02
01
#605300000
1!
13
14
#610000000
0+
0$
0,
0%
1-
1&
1.
1'
b1101 )
#610200000
10
12
11
#610300000
0!
03
04
#615000000
1+
1$
1,
1%
0-
0&
b111110 *
#615200000
00
02
01
#615300000
1!
13
14
#615500000
1/
15
16
#615600000
0!
03
04
#620000000
0+
0$
0,
0%
1-
1&
b1110 )
#620200000
10
12
11
#620300000
1!
13
14
#620500000
0/
05
06
#620600000
0!
03
04
#625000000
1+
1$
1,
1%
0.
0'
b111111 *
#625200000
00
02
01
#625300000
1!
13
14
#625500000
1/
15
16
#625600000
0!
03
04
#630000000
0+
0$
0,
0%
1.
1'
b1111 )
#630200000
10
12
11
#630300000
1!
13
14
#630500000
0/
05
06
#630600000
0!
03
04
#635000000
1+
1$
1,
1%
b1000000 *
#635200000
00
02
01
#635300000
1!
13
14
#640000000
0+
0$
0-
0&
0.
0'
b100 (
b0 )
#640200000
10
12
11
#640300000
0!
03
04
#645000000
0,
0%
b1000001 *
#650000000
1,
1%
b1 )
#655000000
0,
0%
1.
1'
b1000010 *
#655500000
1/
15
16
#655600000
1!
13
14
#660000000
1,
1%
0.
0'
b10 )
#660500000
0/
05
06
#660600000
0!
03
04
#665000000
0,
0%
1-
1&
b1000011 *
#665500000
1/
15
16
#665600000
1!
13
14
#670000000
1,
1%
0-
0&
b11 )
#670500000
0/
05
06
#670600000
0!
03
04
#675000000
0,
0%
1-
1&
1.
1'
b1000100 *
#680000000
1,
1%
0-
0&
0.
0'
b100 )
#685000000
b1000101 *
#690000000
b101 )
#695000000
1.
1'
b1000110 *
#695500000
1/
15
16
#695600000
1!
13
14
#700000000
0.
0'
b110 )
#700500000
0/
05
06
#700600000
0!
03
04
#705000000
1-
1&
b1000111 *
#705500000
1/
15
16
#705600000
1!
13
14
#710000000
0-
0&
b111 )
#710500000
0/
05
06
#710600000
0!
03
04
#715000000
1-
1&
1.
1'
b1001000 *
#720000000
0-
0&
0.
0'
b1000 )
#725000000
1+
1$
0,
0%
b1001001 *
#730000000
0+
0$
1,
1%
b1001 )
#735000000
1+
1$
0,
0%
1.
1'
b1001010 *
#735500000
1/
15
16
#735600000
1!
13
14
#740000000
0+
0$
1,
1%
0.
0'
b1010 )
#740500000
0/
05
06
#740600000
0!
03
04
#745000000
1+
1$
0,
0%
1-
1&
b1001011 *
#745500000
1/
15
16
#745600000
1!
13
14
#750000000
0+
0$
1,
1%
0-
0&
b1011 )
#750500000
0/
05
06
#750600000
0!
03
04
#755000000
1+
1$
0,
0%
1-
1&
1.
1'
b1001100 *
#760000000
0+
0$
1,
1%
0-
0&
0.
0'
b1100 )
#765000000
1+
1$
b1001101 *
#765200000
00
02
01
#765300000
1!
13
14
#770000000
0+
0$
b1101 )
#770200000
10
12
11
#770300000
0!
03
04
#775000000
1+
1$
1.
1'
b1001110 *
#775200000
00
02
01
#775300000
1!
13
14
#775500000
1/
15
16
#775600000
0!
03
04
#780000000
0+
0$
0.
0'
b1110 )
#780200000
10
12
11
#780300000
1!
13
14
#780500000
0/
05
06
#780600000
0!
03
04
#785000000
1+
1$
1-
1&
b1001111 *
#785200000
00
02
01
#785300000
1!
13
14
#785500000
1/
15
16
#785600000
0!
03
04
#790000000
0+
0$
0-
0&
b1111 )
#790200000
10
12
11
#790300000
1!
13
14
#790500000
0/
05
06
#790600000
0!
03
04
#795000000
1+
1$
1-
1&
1.
1'
b1010000 *
#795200000
00
02
01
#795300000
1!
13
14
#800000000
0+
0$
0-
0&
b101 (
b0 )
#800200000
10
12
11
#800300000
0!
03
04
#800500000
1/
15
16
#800600000
1!
13
14
#805000000
0,
0%
0.
0'
b1010001 *
#805500000
0/
05
06
#805600000
0!
03
04
#810000000
1,
1%
1.
1'
b1 )
#810500000
1/
15
16
#810600000
1!
13
14
#815000000
0,
0%
b1010010 *
#820000000
1,
1%
b10 )
#825000000
0,
0%
1-
1&
0.
0'
b1010011 *
#830000000
1,
1%
0-
0&
1.
1'
b11 )
#835000000
0,
0%
1-
1&
b1010100 *
#835500000
0/
05
06
#835600000
0!
03
04
#840000000
1,
1%
0-
0&
b100 )
#840500000
1/
15
16
#840600000
1!
13
14
#845000000
0.
0'
b1010101 *
#845500000
0/
05
06
#845600000
0!
03
04
#850000000
1.
1'
b101 )
#850500000
1/
15
16
#850600000
1!
13
14
#855000000
b1010110 *
#860000000
b110 )
#865000000
1-
1&
0.
0'
b1010111 *
#870000000
0-
0&
1.
1'
b111 )
#875000000
1-
1&
b1011000 *
#875500000
0/
05
06
#875600000
0!
03
04
#880000000
0-
0&
b1000 )
#880500000
1/
15
16
#880600000
1!
13
14
#885000000
1+
1$
0,
0%
0.
0'
b1011001 *
#885500000
0/
05
06
#885600000
0!
03
04
#890000000
0+
0$
1,
1%
1.
1'
b1001 )
#890500000
1/
15
16
#890600000
1!
13
14
#895000000
1+
1$
0,
0%
b1011010 *
#900000000
0+
0$
1,
1%
b1010 )
#905000000
1+
1$
0,
0%
1-
1&
0.
0'
b1011011 *
#910000000
0+
0$
1,
1%
0-
0&
1.
1'
b1011 )
#915000000
1+
1$
0,
0%
1-
1&
b1011100 *
#915500000
0/
05
06
#915600000
0!
03
04
#920000000
0+
0$
1,
1%
0-
0&
b1100 )
#920500000
1/
15
16
#920600000
1!
13
14
#925000000
1+
1$
0.
0'
b1011101 *
#925200000
00
02
01
#925300000
0!
03
04
#925500000
0/
05
06
#925600000
1!
13
14
#930000000
0+
0$
1.
1'
b1101 )
#930200000
10
12
11
#930300000
0!
03
04
#930500000
1/
15
16
#930600000
1!
13
14
#935000000
1+
1$
b1011110 *
#935200000
00
02
01
#935300000
0!
03
04
#940000000
0+
0$
b1110 )
#940200000
10
12
11
#940300000
1!
13
14
#945000000
1+
1$
1-
1&
0.
0'
b1011111 *
#945200000
00
02
01
#945300000
0!
03
04
#950000000
0+
0$
0-
0&
1.
1'
b1111 )
#950200000
10
12
11
#950300000
1!
13
14
#955000000
1+
1$
1-
1&
b1100000 *
#955200000
00
02
01
#955300000
0!
03
04
#955500000
0/
05
06
#955600000
1!
13
14
#960000000
0+
0$
0.
0'
b110 (
b0 )
#960200000
10
12
11
#960300000
0!
03
04
#960500000
1/
15
16
#960600000
1!
13
14
#965000000
0,
0%
0-
0&
b1100001 *
#965500000
0/
05
06
#965600000
0!
03
04
#970000000
1,
1%
1-
1&
b1 )
#970500000
1/
15
16
#970600000
1!
13
14
#975000000
0,
0%
0-
0&
1.
1'
b1100010 *
#980000000
1,
1%
1-
1&
0.
0'
b10 )
#985000000
0,
0%
b1100011 *
#990000000
1,
1%
b11 )
#995000000
0,
0%
1.
1'
b1100100 *
#995500000
0/
05
06
#995600000
0!
03
04
#1000000000
1,
1%
0.
0'
b100 )
#1000500000
1/
15
16
#1000600000
1!
13
14
#1005000000
0-
0&
b1100101 *
#1005500000
0/
05
06
#1005600000
0!
03
04
#1010000000
1-
1&
b101 )
#1010500000
1/
15
16
#1010600000
1!
13
14
#1015000000
0-
0&
1.
1'
b1100110 *
#1020000000
1-
1&
0.
0'
b110 )
#1025000000
b1100111 *
#1030000000
b111 )
#1035000000
1.
1'
b1101000 *
#1035500000
0/
05
06
#1035600000
0!
03
04
#1040000000
0.
0'
b1000 )
#1040500000
1/
15
16
#1040600000
1!
13
14
#1045000000
1+
1$
0,
0%
0-
0&
b1101001 *
#1045500000
0/
05
06
#1045600000
0!
03
04
#1050000000
0+
0$
1,
1%
1-
1&
b1001 )
#1050500000
1/
15
16
#1050600000
1!
13
14
#1055000000
1+
1$
0,
0%
0-
0&
1.
1'
b1101010 *
#1060000000
0+
0$
1,
1%
1-
1&
0.
0'
b1010 )
#1065000000
1+
1$
0,
0%
b1101011 *
#1070000000
0+
0$
1,
1%
b1011 )
#1075000000
1+
1$
0,
0%
1.
1'
b1101100 *
#1075500000
0/
05
06
#1075600000
0!
03
04
#1080000000
0+
0$
1,
1%
0.
0'
b1100 )
#1080500000
1/
15
16
#1080600000
1!
13
14
#1085000000
1+
1$
0-
0&
b1101101 *
#1085200000
00
02
01
#1085300000
0!
03
04
#1085500000
0/
05
06
#1085600000
1!
13
14
#1090000000
0+
0$
1-
1&
b1101 )
#1090200000
10
12
11
#1090300000
0!
03
04
#1090500000
1/
15
16
#1090600000
1!
13
14
#1095000000
1+
1$
0-
0&
1.
1'
b1101110 *
#1095200000
00
02
01
#1095300000
0!
03
04
#1100000000
0+
0$
1-
1&
0.
0'
b1110 )
#1100200000
10
12
11
#1100300000
1!
13
14
#1105000000
1+
1$
b1101111 *
#1105200000
00
02
01
#1105300000
0!
03
04
#1110000000
0+
0$
b1111 )
#1110200000
10
12
11
#1110300000
1!
13
14
#1115000000
1+
1$
1.
1'
b1110000 *
#1115200000
00
02
01
#1115300000
0!
03
04
#1115500000
0/
05
06
#1115600000
1!
13
14
#1120000000
0+
0$
b111 (
b0 )
#1120200000
10
12
11
#1120300000
0!
03
04
#1125000000
0,
0%
0-
0&
0.
0'
b1110001 *
#1130000000
1,
1%
1-
1&
1.
1'
b1 )
#1135000000
0,
0%
0-
0&
b1110010 *
#1135500000
1/
15
16
#1135600000
1!
13
14
#1140000000
1,
1%
1-
1&
b10 )
#1140500000
0/
05
06
#1140600000
0!
03
04
#1145000000
0,
0%
0.
0'
b1110011 *
#1145500000
1/
15
16
#1145600000
1!
13
14
#1150000000
1,
1%
1.
1'
b11 )
#1150500000
0/
05
06
#1150600000
0!
03
04
#1155000000
0,
0%
b1110100 *
#1160000000
1,
1%
b100 )
#1165000000
0-
0&
0.
0'
b1110101 *
#1170000000
1-
1&
1.
1'
b101 )
#1175000000
0-
0&
b1110110 *
#1175500000
1/
15
16
#1175600000
1!
13
14
#1180000000
1-
1&
b110 )
#1180500000
0/
05
06
#1180600000
0!
03
04
#1185000000
0.
0'
b1110111 *
#1185500000
1/
15
16
#1185600000
1!
13
14
#1190000000
1.
1'
b111 )
#1190500000
0/
05
06
#1190600000
0!
03
04
#1195000000
b1111000 *
#1200000000
b1000 )
#1205000000
1+
1$
0,
0%
0-
0&
0.
0'
b1111001 *
#1210000000
0+
0$
1,
1%
1-
1&
1.
1'
b1001 )
#1215000000
1+
1$
0,
0%
0-
0&
b1111010 *
#1215500000
1/
15
16
#1215600000
1!
13
14
#1220000000
0+
0$
1,
1%
1-
1&
b1010 )
#1220500000
0/
05
06
#1220600000
0!
03
04
#1225000000
1+
1$
0,
0%
0.
0'
b1111011 *
#1225500000
1/
15
16
#1225600000
1!
13
14
#1230000000
0+
0$
1,
1%
1.
1'
b1011 )
#1230500000
0/
05
06
#1230600000
0!
03
04
#1235000000
1+
1$
0,
0%
b1111100 *
#1240000000
0+
0$
1,
1%
b1100 )
#1245000000
1+
1$
0-
0&
0.
0'
b1111101 *
#1245200000
00
02
01
#1245300000
1!
13
14
#1250000000
0+
0$
1-
1&
1.
1'
b1101 )
#1250200000
10
12
11
#1250300000
0!
03
04
#1255000000
1+
1$
0-
0&
b1111110 *
#1255200000
00
02
01
#1255300000
1!
13
14
#1255500000
1/
15
16
#1255600000
0!
03
04
#1260000000
0+
0$
1-
1&
b1110 )
#1260200000
10
12
11
#1260300000
1!
13
14
#1260500000
0/
05
06
#1260600000
0!
03
04
#1265000000
1+
1$
0.
0'
b1111111 *
#1265200000
00
02
01
#1265300000
1!
13
14
#1265500000
1/
15
16
#1265600000
0!
03
04
#1270000000
0+
0$
1.
1'
b1111 )
#1270200000
10
12
11
#1270300000
1!
13
14
#1270500000
0/
05
06
#1270600000
0!
03
04
#1275000000
1+
1$
b10000000 *
#1275200000
00
02
01
#1275300000
1!
13
14
#1280000000
0,
0%
0-
0&
0.
0'
b1000 (
b0 )
#1280200000
10
12
11
#1280300000
0!
03
04
#1285000000
0+
0$
b10000001 *
#1290000000
1+
1$
b1 )
#1295000000
0+
0$
1.
1'
b10000010 *
#1295500000
1/
15
16
#1295600000
1!
13
14
#1300000000
1+
1$
0.
0'
b10 )
#1300500000
0/
05
06
#1300600000
0!
03
04
#1305000000
0+
0$
1-
1&
b10000011 *
#1305500000
1/
15
16
#1305600000
1!
13
14
#1310000000
1+
1$
0-
0&
b11 )
#1310500000
0/
05
06
#1310600000
0!
03
04
#1315000000
0+
0$
1-
1&
1.
1'
b10000100 *
#1320000000
1+
1$
0-
0&
0.
0'
b100 )
#1325000000
0+
0$
1,
1%
b10000101 *
#1330000000
1+
1$
0,
0%
b101 )
#1335000000
0+
0$
1,
1%
1.
1'
b10000110 *
#1335500000
1/
15
16
#1335600000
1!
13
14
#1340000000
1+
1$
0,
0%
0.
0'
b110 )
#1340500000
0/
05
06
#1340600000
0!
03
04
#1345000000
0+
0$
1,
1%
1-
1&
b10000111 *
#1345500000
1/
15
16
#1345600000
1!
13
14
#1350000000
1+
1$
0,
0%
0-
0&
b111 )
#1350500000
0/
05
06
#1350600000
0!
03
04
#1355000000
0+
0$
1,
1%
1-
1&
1.
1'
b10001000 *
#1360000000
1+
1$
0,
0%
0-
0&
0.
0'
b1000 )
#1365000000
b10001001 *
#1370000000
b1001 )
#1375000000
1.
1'
b10001010 *
#1375500000
1/
15
16
#1375600000
1!
13
14
#1380000000
0.
0'
b1010 )
#1380500000
0/
05
06
#1380600000
0!
03
04
#1385000000
1-
1&
b10001011 *
#1385500000
1/
15
16
#1385600000
1!
13
14
#1390000000
0-
0&
b1011 )
#1390500000
0/
05
06
#1390600000
0!
03
04
#1395000000
1-
1&
1.
1'
b10001100 *
#1400000000
0-
0&
0.
0'
b1100 )
#1405000000
1,
1%
b10001101 *
#1405200000
00
02
01
#1405300000
1!
13
14
#1410000000
0,
0%
b1101 )
#1410200000
10
12
11
#1410300000
0!
03
04
#1415000000
1,
1%
1.
1'
b10001110 *
#1415200000
00
02
01
#1415300000
1!
13
14
#1415500000
1/
15
16
#1415600000
0!
03
04
#1420000000
0,
0%
0.
0'
b1110 )
#1420200000
10
12
11
#1420300000
1!
13
14
#1420500000
0/
05
06
#1420600000
0!
03
04
#1425000000
1,
1%
1-
1&
b10001111 *
#1425200000
00
02
01
#1425300000
1!
13
14
#1425500000
1/
15
16
#1425600000
0!
03
04
#1430000000
0,
0%
0-
0&
b1111 )
#1430200000
10
12
11
#1430300000
1!
13
14
#1430500000
0/
05
06
#1430600000
0!
03
04
#1435000000
1,
1%
1-
1&
1.
1'
b10010000 *
#1435200000
00
02
01
#1435300000
1!
13
14
#1440000000
0,
0%
0-
0&
b1001 (
b0 )
#1440200000
10
12
11
#1440300000
0!
03
04
#1440500000
1/
15
16
#1440600000
1!
13
14
#1445000000
0+
0$
0.
0'
b10010001 *
#1445500000
0/
05
06
#1445600000
0!
03
04
#1450000000
1+
1$
1.
1'
b1 )
#1450500000
1/
15
16
#1450600000
1!
13
14
#1455000000
0+
0$
b10010010 *
#1460000000
1+
1$
b10 )
#1465000000
0+
0$
1-
1&
0.
0'
b10010011 *
#1470000000
1+
1$
0-
0&
1.
1'
b11 )
#1475000000
0+
0$
1-
1&
b10010100 *
#1475500000
0/
05
06
#1475600000
0!
03
04
#1480000000
1+
1$
0-
0&
b100 )
#1480500000
1/
15
16
#1480600000
1!
13
14
#1485000000
0+
0$
1,
1%
0.
0'
b10010101 *
#1485500000
0/
05
06
#1485600000
0!
03
04
#1490000000
1+
1$
0,
0%
1.
1'
b101 )
#1490500000
1/
15
16
#1490600000
1!
13
14
#1495000000
0+
0$
1,
1%
b10010110 *
#1500000000
1+
1$
0,
0%
b110 )
#1505000000
0+
0$
1,
1%
1-
1&
0.
0'
b10010111 *
#1510000000
1+
1$
0,
0%
0-
0&
1.
1'
b111 )
#1515000000
0+
0$
1,
1%
1-
1&
b10011000 *
#1515500000
0/
05
06
#1515600000
0!
03
04
#1520000000
1+
1$
0,
0%
0-
0&
b1000 )
#1520500000
1/
15
16
#1520600000
1!
13
14
#1525000000
0.
0'
b10011001 *
#1525500000
0/
05
06
#1525600000
0!
03
04
#1530000000
1.
1'
b1001 )
#1530500000
1/
15
16
#1530600000
1!
13
14
#1535000000
b10011010 *
#1540000000
b1010 )
#1545000000
1-
1&
0.
0'
b10011011 *
#1550000000
0-
0&
1.
1'
b1011 )
#1555000000
1-
1&
b10011100 *
#1555500000
0/
05
06
#1555600000
0!
03
04
#1560000000
0-
0&
b1100 )
#1560500000
1/
15
16
#1560600000
1!
13
14
#1565000000
1,
1%
0.
0'
b10011101 *
#1565200000
00
02
01
#1565300000
0!
03
04
#1565500000
0/
05
06
#1565600000
1!
13
14
#1570000000
0,
0%
1.
1'
b1101 )
#1570200000
10
12
11
#1570300000
0!
03
04
#1570500000
1/
15
16
#1570600000
1!
13
14
#1575000000
1,
1%
b10011110 *
#1575200000
00
02
01
#1575300000
0!
03
04
#1580000000
0,
0%
b1110 )
#1580200000
10
12
11
#1580300000
1!
13
14
#1585000000
1,
1%
1-
1&
0.
0'
b10011111 *
#1585200000
00
02
01
#1585300000
0!
03
04
#1590000000
0,
0%
0-
0&
1.
1'
b1111 )
#1590200000
10
12
11
#1590300000
1!
13
14
#1595000000
1,
1%
1-
1&
b10100000 *
#1595200000
00
02
01
#1595300000
0!
03
04
#1595500000
0/
05
06
#1595600000
1!
13
14
#1600000000
0,
0%
0.
0'
b1010 (
b0 )
#1600200000
10
12
11
#1600300000
0!
03
04
#1600500000
1/
15
16
#1600600000
1!
13
14
#1605000000
0+
0$
0-
0&
b10100001 *
#1605500000
0/
05
06
#1605600000
0!
03
04
#1610000000
1+
1$
1-
1&
b1 )
#1610500000
1/
15
16
#1610600000
1!
13
14
#1615000000
0+
0$
0-
0&
1.
1'
b10100010 *
#1620000000
1+
1$
1-
1&
0.
0'
b10 )
