correlations/scripts/verilog/vcd/correlation.vcd
$date
	Tue Jul 12 16:19:01 2022
$end
$version
	Icarus Verilog
$end
$timescale
	1fs
$end
$scope module correlation_2_tb $end
$var wire 1 ! y1 $end
$var reg 1 " VGND $end
$var reg 1 # VPWR $end
$var reg 1 $ a $end
$var reg 1 % b $end
$var reg 1 & r1 $end
$var reg 1 ' r2 $end
$var integer 32 ( i [31:0] $end
$var integer 32 ) j [31:0] $end
$var integer 32 * sim [31:0] $end
$scope module uut_r $end
$var wire 1 " VGND $end
$var wire 1 # VPWR $end
$var wire 1 + _delA_ $end
$var wire 1 , _delB_ $end
$var wire 1 - _delR1_ $end
$var wire 1 . _delR2_ $end
$var wire 1 $ a $end
$var wire 1 % b $end
$var wire 1 & r1 $end
$var wire 1 ' r2 $end
$var wire 1 ! y $end
$var wire 1 / _02_ $end
$var wire 1 0 _01_ $end
$scope module _nand_ $end
$var wire 1 + A $end
$var wire 1 , B $end
$var wire 1 " VGND $end
$var wire 1 " VNB $end
$var wire 1 # VPB $end
$var wire 1 # VPWR $end
$var wire 1 0 Y $end
$scope module base $end
$var wire 1 + A $end
$var wire 1 , B $end
$var wire 1 " VGND $end
$var wire 1 " VNB $end
$var wire 1 # VPB $end
$var wire 1 # VPWR $end
$var wire 1 0 Y $end
$var wire 1 1 nand0_out_Y $end
$var wire 1 2 pwrgood_pp0_out_Y $end
$upscope $end
$upscope $end
$scope module _xnor_ $end
$var wire 1 0 A $end
$var wire 1 " VGND $end
$var wire 1 " VNB $end
$var wire 1 # VPB $end
$var wire 1 # VPWR $end
$var wire 1 ! Y $end
$var wire 1 / B $end
$scope module base $end
$var wire 1 0 A $end
$var wire 1 " VGND $end
$var wire 1 " VNB $end
$var wire 1 # VPB $end
$var wire 1 # VPWR $end
$var wire 1 ! Y $end
$var wire 1 3 pwrgood_pp0_out_Y $end
$var wire 1 4 xnor0_out_Y $end
$var wire 1 / B $end
$upscope $end
$upscope $end
$scope module _xor_ $end
$var wire 1 - A $end
$var wire 1 . B $end
$var wire 1 " VGND $end
$var wire 1 " VNB $end
$var wire 1 # VPB $end
$var wire 1 # VPWR $end
$var wire 1 / X $end
$scope module base $end
$var wire 1 - A $end
$var wire 1 . B $end
$var wire 1 " VGND $end
$var wire 1 " VNB $end
$var wire 1 # VPB $end
$var wire 1 # VPWR $end
$var wire 1 / X $end
$var wire 1 5 pwrgood_pp0_out_X $end
$var wire 1 6 xor0_out_X $end
$upscope $end
$upscope $end
$upscope $end
$upscope $end
$enddefinitions $end
#0
$dumpvars
x6
x5
x4
x3
x2
x1
x0
x/
0.
0-
x,
x+
b0 *
b0 )
b0 (
0'
0&
0%
0$
1#
0"
x!
$end
#20000
0+
#220000
10
12
11
#450000
0,
#500000
0/
05
06
#600000
0!
03
04
#5000000
b1 *
#10000000
b1 )
#15000000
1.
1'
b10 *
#15500000
1/
15
16
#15600000
1!
13
14
#20000000
0.
0'
b10 )
#20500000
0/
05
06
#20600000
0!
03
04
#25000000
1-
1&
b11 *
#25500000
1/
15
16
#25600000
1!
13
14
#30000000
0-
0&
b11 )
#30500000
0/
05
06
#30600000
0!
03
04
#35000000
1-
1&
1.
1'
b100 *
#40000000
0-
0&
0.
0'
b100 )
#45000000
1%
b101 *
#45450000
1,
#50000000
0%
b101 )
#50450000
0,
#55000000
1%
1.
1'
b110 *
#55450000
1,
#55500000
1/
15
16
#55600000
1!
13
14
#60000000
0%
0.
0'
b110 )
#60450000
0,
#60500000
0/
05
06
#60600000
0!
03
04
#65000000
1%
1-
1&
b111 *
#65450000
1,
#65500000
1/
15
16
#65600000
1!
13
14
#70000000
0%
0-
0&
b111 )
#70450000
0,
#70500000
0/
05
06
#70600000
0!
03
04
#75000000
1%
1-
1&
1.
1'
b1000 *
#75450000
1,
#80000000
0%
0-
0&
0.
0'
b1000 )
#80450000
0,
#85000000
1$
b1001 *
#85020000
1+
#90000000
0$
b1001 )
#90020000
0+
#95000000
1$
1.
1'
b1010 *
#95020000
1+
#95500000
1/
15
16
#95600000
1!
13
14
#100000000
0$
0.
0'
b1010 )
#100020000
0+
#100500000
0/
05
06
#100600000
0!
03
04
#105000000
1$
1-
1&
b1011 *
#105020000
1+
#105500000
1/
15
16
#105600000
1!
13
14
#110000000
0$
0-
0&
b1011 )
#110020000
0+
#110500000
0/
05
06
#110600000
0!
03
04
#115000000
1$
1-
1&
1.
1'
b1100 *
#115020000
1+
#120000000
0$
0-
0&
0.
0'
b1100 )
#120020000
0+
#125000000
1$
1%
b1101 *
#125020000
1+
#125450000
1,
#125650000
00
02
01
#125750000
1!
13
14
#130000000
0$
0%
b1101 )
#130020000
0+
#130220000
10
12
11
#130320000
0!
03
04
#130450000
0,
#135000000
1$
1%
1.
1'
b1110 *
#135020000
1+
#135450000
1,
#135500000
1/
15
16
#135600000
1!
13
14
#135650000
00
02
01
#135750000
0!
03
04
#140000000
0$
0%
0.
0'
b1110 )
#140020000
0+
#140220000
10
12
11
#140320000
1!
13
14
#140450000
0,
#140500000
0/
05
06
#140600000
0!
03
04
#145000000
1$
1%
1-
1&
b1111 *
#145020000
1+
#145450000
1,
#145500000
1/
15
16
#145600000
1!
13
14
#145650000
00
02
01
#145750000
0!
03
04
#150000000
0$
0%
0-
0&
b1111 )
#150020000
0+
#150220000
10
12
11
#150320000
1!
13
14
#150450000
0,
#150500000
0/
05
06
#150600000
0!
03
04
#155000000
1$
1%
1-
1&
1.
1'
b10000 *
#155020000
1+
#155450000
1,
#155650000
00
02
01
#155750000
1!
13
14
#160000000
0$
0%
0-
0&
b1 (
b0 )
#160020000
0+
#160220000
10
12
11
#160320000
0!
03
04
#160450000
0,
#160500000
1/
15
16
#160600000
1!
13
14
#165000000
0.
0'
b10001 *
#165500000
0/
05
06
#165600000
0!
03
04
#170000000
1.
1'
b1 )
#170500000
1/
15
16
#170600000
1!
13
14
#175000000
b10010 *
#180000000
b10 )
#185000000
1-
1&
0.
0'
b10011 *
#190000000
0-
0&
1.
1'
b11 )
#195000000
1-
1&
b10100 *
#195500000
0/
05
06
#195600000
0!
03
04
#200000000
0-
0&
b100 )
#200500000
1/
15
16
#200600000
1!
13
14
#205000000
1%
0.
0'
b10101 *
#205450000
1,
#205500000
0/
05
06
#205600000
0!
03
04
#210000000
0%
1.
1'
b101 )
#210450000
0,
#210500000
1/
15
16
#210600000
1!
13
14
#215000000
1%
b10110 *
#215450000
1,
#220000000
0%
b110 )
#220450000
0,
#225000000
1%
1-
1&
0.
0'
b10111 *
#225450000
1,
#230000000
0%
0-
0&
1.
1'
b111 )
#230450000
0,
#235000000
1%
1-
1&
b11000 *
#235450000
1,
#235500000
0/
05
06
#235600000
0!
03
04
#240000000
0%
0-
0&
b1000 )
#240450000
0,
#240500000
1/
15
16
#240600000
1!
13
14
#245000000
1$
0.
0'
b11001 *
#245020000
1+
#245500000
0/
05
06
#245600000
0!
03
04
#250000000
0$
1.
1'
b1001 )
#250020000
0+
#250500000
1/
15
16
#250600000
1!
13
14
#255000000
1$
b11010 *
#255020000
1+
#260000000
0$
b1010 )
#260020000
0+
#265000000
1$
1-
1&
0.
0'
b11011 *
#265020000
1+
#270000000
0$
0-
0&
1.
1'
b1011 )
#270020000
0+
#275000000
1$
1-
1&
b11100 *
#275020000
1+
#275500000
0/
05
06
#275600000
0!
03
04
#280000000
0$
0-
0&
b1100 )
#280020000
0+
#280500000
1/
15
16
#280600000
1!
13
14
#285000000
1$
1%
0.
0'
b11101 *
#285020000
1+
#285450000
1,
#285500000
0/
05
06
#285600000
0!
03
04
#285650000
00
02
01
#285750000
1!
13
14
#290000000
0$
0%
1.
1'
b1101 )
#290020000
0+
#290220000
10
12
11
#290320000
0!
03
04
#290450000
0,
#290500000
1/
15
16
#290600000
1!
13
14
#295000000
1$
1%
b11110 *
#295020000
1+
#295450000
1,
#295650000
00
02
01
#295750000
0!
03
04
#300000000
0$
0%
b1110 )
#300020000
0+
#300220000
10
12
11
#300320000
1!
13
14
#300450000
0,
#305000000
1$
1%
1-
1&
0.
0'
b11111 *
#305020000
1+
#305450000
1,
#305650000
00
02
01
#305750000
0!
03
04
#310000000
0$
0%
0-
0&
1.
1'
b1111 )
#310020000
0+
#310220000
10
12
11
#310320000
1!
13
14
#310450000
0,
#315000000
1$
1%
1-
1&
b100000 *
#315020000
1+
#315450000
1,
#315500000
0/
05
06
#315600000
0!
03
04
#315650000
00
02
01
#315750000
1!
13
14
#320000000
0$
0%
0.
0'
b10 (
b0 )
#320020000
0+
#320220000
10
12
11
#320320000
0!
03
04
#320450000
0,
#320500000
1/
15
16
#320600000
1!
13
14
#325000000
0-
0&
b100001 *
#325500000
0/
05
06
#325600000
0!
03
04
#330000000
1-
1&
b1 )
#330500000
1/
15
16
#330600000
1!
13
14
#335000000
0-
0&
1.
1'
b100010 *
#340000000
1-
1&
0.
0'
b10 )
#345000000
b100011 *
#350000000
b11 )
#355000000
1.
1'
b100100 *
#355500000
0/
05
06
#355600000
0!
03
04
#360000000
0.
0'
b100 )
#360500000
1/
15
16
#360600000
1!
13
14
#365000000
1%
0-
0&
b100101 *
#365450000
1,
#365500000
0/
05
06
#365600000
0!
03
04
#370000000
0%
1-
1&
b101 )
#370450000
0,
#370500000
1/
15
16
#370600000
1!
13
14
#375000000
1%
0-
0&
1.
1'
b100110 *
#375450000
1,
#380000000
0%
1-
1&
0.
0'
b110 )
#380450000
0,
#385000000
1%
b100111 *
#385450000
1,
#390000000
0%
b111 )
#390450000
0,
#395000000
1%
1.
1'
b101000 *
#395450000
1,
#395500000
0/
05
06
#395600000
0!
03
04
#400000000
0%
0.
0'
b1000 )
#400450000
0,
#400500000
1/
15
16
#400600000
1!
13
14
#405000000
1$
0-
0&
b101001 *
#405020000
1+
#405500000
0/
05
06
#405600000
0!
03
04
#410000000
0$
1-
1&
b1001 )
#410020000
0+
#410500000
1/
15
16
#410600000
1!
13
14
#415000000
1$
0-
0&
1.
1'
b101010 *
#415020000
1+
#420000000
0$
1-
1&
0.
0'
b1010 )
#420020000
0+
#425000000
1$
b101011 *
#425020000
1+
#430000000
0$
b1011 )
#430020000
0+
#435000000
1$
1.
1'
b101100 *
#435020000
1+
#435500000
0/
05
06
#435600000
0!
03
04
#440000000
0$
0.
0'
b1100 )
#440020000
0+
#440500000
1/
15
16
#440600000
1!
13
14
#445000000
1$
1%
0-
0&
b101101 *
#445020000
1+
#445450000
1,
#445500000
0/
05
06
#445600000
0!
03
04
#445650000
00
02
01
#445750000
1!
13
14
#450000000
0$
0%
1-
1&
b1101 )
#450020000
0+
#450220000
10
12
11
#450320000
0!
03
04
#450450000
0,
#450500000
1/
15
16
#450600000
1!
13
14
#455000000
1$
1%
0-
0&
1.
1'
b101110 *
#455020000
1+
#455450000
1,
#455650000
00
02
01
#455750000
0!
03
04
#460000000
0$
0%
1-
1&
0.
0'
b1110 )
#460020000
0+
#460220000
10
12
11
#460320000
1!
13
14
#460450000
0,
#465000000
1$
1%
b101111 *
#465020000
1+
#465450000
1,
#465650000
00
02
01
#465750000
0!
03
04
#470000000
0$
0%
b1111 )
#470020000
0+
#470220000
10
12
11
#470320000
1!
13
14
#470450000
0,
#475000000
1$
1%
1.
1'
b110000 *
#475020000
1+
#475450000
1,
#475500000
0/
05
06
#475600000
0!
03
04
#475650000
00
02
01
#475750000
1!
13
14
#480000000
0$
0%
b11 (
b0 )
#480020000
0+
#480220000
10
12
11
#480320000
0!
03
04
#480450000
0,
#485000000
0-
0&
0.
0'
b110001 *
#490000000
1-
1&
1.
1'
b1 )
#495000000
0-
0&
b110010 *
#495500000
1/
15
16
#495600000
1!
13
14
#500000000
1-
1&
b10 )
#500500000
0/
05
06
#500600000
0!
03
04
#505000000
0.
0'
b110011 *
#505500000
1/
15
16
#505600000
1!
13
14
#510000000
1.
1'
b11 )
#510500000
0/
05
06
#510600000
0!
03
04
#515000000
b110100 *
#520000000
b100 )
#525000000
1%
0-
0&
0.
0'
b110101 *
#525450000
1,
#530000000
0%
1-
1&
1.
1'
b101 )
#530450000
0,
#535000000
1%
0-
0&
b110110 *
#535450000
1,
#535500000
1/
15
16
#535600000
1!
13
14
#540000000
0%
1-
1&
b110 )
#540450000
0,
#540500000
0/
05
06
#540600000
0!
03
04
#545000000
1%
0.
0'
b110111 *
#545450000
1,
#545500000
1/
15
16
#545600000
1!
13
14
#550000000
0%
1.
1'
b111 )
#550450000
0,
#550500000
0/
05
06
#550600000
0!
03
04
#555000000
1%
b111000 *
#555450000
1,
#560000000
0%
b1000 )
#560450000
0,
#565000000
1$
0-
0&
0.
0'
b111001 *
#565020000
1+
#570000000
0$
1-
1&
1.
1'
b1001 )
#570020000
0+
#575000000
1$
0-
0&
b111010 *
#575020000
1+
#575500000
1/
15
16
#575600000
1!
13
14
#580000000
0$
1-
1&
b1010 )
#580020000
0+
#580500000
0/
05
06
#580600000
0!
03
04
#585000000
1$
0.
0'
b111011 *
#585020000
1+
#585500000
1/
15
16
#585600000
1!
13
14
#590000000
0$
1.
1'
b1011 )
#590020000
0+
#590500000
0/
05
06
#590600000
0!
03
04
#595000000
1$
b111100 *
#595020000
1+
#600000000
0$
b1100 )
#600020000
0+
#605000000
1$
1%
0-
0&
0.
0'
b111101 *
#605020000
1+
#605450000
1,
#605650000
00
02
01
#605750000
1!
13
14
#610000000
0$
0%
1-
1&
1.
1'
b1101 )
#610020000
0+
#610220000
10
12
11
#610320000
0!
03
04
#610450000
0,
#615000000
1$
1%
0-
0&
b111110 *
#615020000
1+
#615450000
1,
#615500000
1/
15
16
#615600000
1!
13
14
#615650000
00
02
01
#615750000
0!
03
04
#620000000
0$
0%
1-
1&
b1110 )
#620020000
0+
#620220000
10
12
11
#620320000
1!
13
14
#620450000
0,
#620500000
0/
05
06
#620600000
0!
03
04
#625000000
1$
1%
0.
0'
b111111 *
#625020000
1+
#625450000
1,
#625500000
1/
15
16
#625600000
1!
13
14
#625650000
00
02
01
#625750000
0!
03
04
#630000000
0$
0%
1.
1'
b1111 )
#630020000
0+
#630220000
10
12
11
#630320000
1!
13
14
#630450000
0,
#630500000
0/
05
06
#630600000
0!
03
04
#635000000
1$
1%
b1000000 *
#635020000
1+
#635450000
1,
#635650000
00
02
01
#635750000
1!
13
14
#640000000
0$
0-
0&
0.
0'
b100 (
b0 )
#640020000
0+
#640220000
10
12
11
#640320000
0!
03
04
#645000000
0%
b1000001 *
#645450000
0,
#650000000
1%
b1 )
#650450000
1,
#655000000
0%
1.
1'
b1000010 *
#655450000
0,
#655500000
1/
15
16
#655600000
1!
13
14
#660000000
1%
0.
0'
b10 )
#660450000
1,
#660500000
0/
05
06
#660600000
0!
03
04
#665000000
0%
1-
1&
b1000011 *
#665450000
0,
#665500000
1/
15
16
#665600000
1!
13
14
#670000000
1%
0-
0&
b11 )
#670450000
1,
#670500000
0/
05
06
#670600000
0!
03
04
#675000000
0%
1-
1&
1.
1'
b1000100 *
#675450000
0,
#680000000
1%
0-
0&
0.
0'
b100 )
#680450000
1,
#685000000
b1000101 *
#690000000
b101 )
#695000000
1.
1'
b1000110 *
#695500000
1/
15
16
#695600000
1!
13
14
#700000000
0.
0'
b110 )
#700500000
0/
05
06
#700600000
0!
03
04
#705000000
1-
1&
b1000111 *
#705500000
1/
15
16
#705600000
1!
13
14
#710000000
0-
0&
b111 )
#710500000
0/
05
06
#710600000
0!
03
04
#715000000
1-
1&
1.
1'
b1001000 *
#720000000
0-
0&
0.
0'
b1000 )
#725000000
1$
0%
b1001001 *
#725020000
1+
#725220000
00
02
01
#725320000
1!
13
14
#725450000
0,
#725650000
10
12
11
#725750000
0!
03
04
#730000000
0$
1%
b1001 )
#730020000
0+
#730450000
1,
#735000000
1$
0%
1.
1'
b1001010 *
#735020000
1+
#735220000
00
02
01
#735320000
1!
13
14
#735450000
0,
#735500000
1/
15
16
#735600000
0!
03
04
#735650000
10
12
11
#735750000
1!
13
14
#740000000
0$
1%
0.
0'
b1010 )
#740020000
0+
#740450000
1,
#740500000
0/
05
06
#740600000
0!
03
04
#745000000
1$
0%
1-
1&
b1001011 *
#745020000
1+
#745220000
00
02
01
#745320000
1!
13
14
#745450000
0,
#745500000
1/
15
16
#745600000
0!
03
04
#745650000
10
12
11
#745750000
1!
13
14
#750000000
0$
1%
0-
0&
b1011 )
#750020000
0+
#750450000
1,
#750500000
0/
05
06
#750600000
0!
03
04
#755000000
1$
0%
1-
1&
1.
1'
b1001100 *
#755020000
1+
#755220000
00
02
01
#755320000
1!
13
14
#755450000
0,
#755650000
10
12
11
#755750000
0!
03
04
#760000000
0$
1%
0-
0&
0.
0'
b1100 )
#760020000
0+
#760450000
1,
#765000000
1$
b1001101 *
#765020000
1+
#765220000
00
02
01
#765320000
1!
13
14
#770000000
0$
b1101 )
#770020000
0+
#770220000
10
12
11
#770320000
0!
03
04
#775000000
1$
1.
1'
b1001110 *
#775020000
1+
#775220000
00
02
01
#775320000
1!
13
14
#775500000
1/
15
16
#775600000
0!
03
04
#780000000
0$
0.
0'
b1110 )
#780020000
0+
#780220000
10
12
11
#780320000
1!
13
14
#780500000
0/
05
06
#780600000
0!
03
04
#785000000
1$
1-
1&
b1001111 *
#785020000
1+
#785220000
00
02
01
#785320000
1!
13
14
#785500000
1/
15
16
#785600000
0!
03
04
#790000000
0$
0-
0&
b1111 )
#790020000
0+
#790220000
10
12
11
#790320000
1!
13
14
#790500000
0/
05
06
#790600000
0!
03
04
#795000000
1$
1-
1&
1.
1'
b1010000 *
#795020000
1+
#795220000
00
02
01
#795320000
1!
13
14
#800000000
0$
0-
0&
b101 (
b0 )
#800020000
0+
#800220000
10
12
11
#800320000
0!
03
04
#800500000
1/
15
16
#800600000
1!
13
14
#805000000
0%
0.
0'
b1010001 *
#805450000
0,
#805500000
0/
05
06
#805600000
0!
03
04
#810000000
1%
1.
1'
b1 )
#810450000
1,
#810500000
1/
15
16
#810600000
1!
13
14
#815000000
0%
b1010010 *
#815450000
0,
#820000000
1%
b10 )
#820450000
1,
#825000000
0%
1-
1&
0.
0'
b1010011 *
#825450000
0,
#830000000
1%
0-
0&
1.
1'
b11 )
#830450000
1,
#835000000
0%
1-
1&
b1010100 *
#835450000
0,
#835500000
0/
05
06
#835600000
0!
03
04
#840000000
1%
0-
0&
b100 )
#840450000
1,
#840500000
1/
15
16
#840600000
1!
13
14
#845000000
0.
0'
b1010101 *
#845500000
0/
05
06
#845600000
0!
03
04
#850000000
1.
1'
b101 )
#850500000
1/
15
16
#850600000
1!
13
14
#855000000
b1010110 *
#860000000
b110 )
#865000000
1-
1&
0.
0'
b1010111 *
#870000000
0-
0&
1.
1'
b111 )
#875000000
1-
1&
b1011000 *
#875500000
0/
05
06
#875600000
0!
03
04
#880000000
0-
0&
b1000 )
#880500000
1/
15
16
#880600000
1!
13
14
#885000000
1$
0%
0.
0'
b1011001 *
#885020000
1+
#885220000
00
02
01
#885320000
0!
03
04
#885450000
0,
#885500000
0/
05
06
#885600000
1!
13
14
#885650000
10
12
11
#885750000
0!
03
04
#890000000
0$
1%
1.
1'
b1001 )
#890020000
0+
#890450000
1,
#890500000
1/
15
16
#890600000
1!
13
14
#895000000
1$
0%
b1011010 *
#895020000
1+
#895220000
00
02
01
#895320000
0!
03
04
#895450000
0,
#895650000
10
12
11
#895750000
1!
13
14
#900000000
0$
1%
b1010 )
#900020000
0+
#900450000
1,
#905000000
1$
0%
1-
1&
0.
0'
b1011011 *
#905020000
1+
#905220000
00
02
01
#905320000
0!
03
04
#905450000
0,
#905650000
10
12
11
#905750000
1!
13
14
#910000000
0$
1%
0-
0&
1.
1'
b1011 )
#910020000
0+
#910450000
1,
#915000000
1$
0%
1-
1&
b1011100 *
#915020000
1+
#915220000
00
02
01
#915320000
0!
03
04
#915450000
0,
#915500000
0/
05
06
#915600000
1!
13
14
#915650000
10
12
11
#915750000
0!
03
04
#920000000
0$
1%
0-
0&
b1100 )
#920020000
0+
#920450000
1,
#920500000
1/
15
16
#920600000
1!
13
14
#925000000
1$
0.
0'
b1011101 *
#925020000
1+
#925220000
00
02
01
#925320000
0!
03
04
#925500000
0/
05
06
#925600000
1!
13
14
#930000000
0$
1.
1'
b1101 )
#930020000
0+
#930220000
10
12
11
#930320000
0!
03
04
#930500000
1/
15
16
#930600000
1!
13
14
#935000000
1$
b1011110 *
#935020000
1+
#935220000
00
02
01
#935320000
0!
03
04
#940000000
0$
b1110 )
#940020000
0+
#940220000
10
12
11
#940320000
1!
13
14
#945000000
1$
1-
1&
0.
0'
b1011111 *
#945020000
1+
#945220000
00
02
01
#945320000
0!
03
04
#950000000
0$
0-
0&
1.
1'
b1111 )
#950020000
0+
#950220000
10
12
11
#950320000
1!
13
14
#955000000
1$
1-
1&
b1100000 *
#955020000
1+
#955220000
00
02
01
#955320000
0!
03
04
#955500000
0/
05
06
#955600000
1!
13
14
#960000000
0$
0.
0'
b110 (
b0 )
#960020000
0+
#960220000
10
12
11
#960320000
0!
03
04
#960500000
1/
15
16
#960600000
1!
13
14
#965000000
0%
0-
0&
b1100001 *
#965450000
0,
#965500000
0/
05
06
#965600000
0!
03
04
#970000000
1%
1-
1&
b1 )
#970450000
1,
#970500000
1/
15
16
#970600000
1!
13
14
#975000000
0%
0-
0&
1.
1'
b1100010 *
#975450000
0,
#980000000
1%
1-
1&
0.
0'
b10 )
#980450000
1,
#985000000
0%
b1100011 *
#985450000
0,
#990000000
1%
b11 )
#990450000
1,
#995000000
0%
1.
1'
b1100100 *
#995450000
0,
#995500000
0/
05
06
#995600000
0!
03
04
#1000000000
1%
0.
0'
b100 )
#1000450000
1,
#1000500000
1/
15
16
#1000600000
1!
13
14
#1005000000
0-
0&
b1100101 *
#1005500000
0/
05
06
#1005600000
0!
03
04
#1010000000
1-
1&
b101 )
#1010500000
1/
15
16
#1010600000
1!
13
14
#1015000000
0-
0&
1.
1'
b1100110 *
#1020000000
1-
1&
0.
0'
b110 )
#1025000000
b1100111 *
#1030000000
b111 )
#1035000000
1.
1'
b1101000 *
#1035500000
0/
05
06
#1035600000
0!
03
04
#1040000000
0.
0'
b1000 )
#1040500000
1/
15
16
#1040600000
1!
13
14
#1045000000
1$
0%
0-
0&
b1101001 *
#1045020000
1+
#1045220000
00
02
01
#1045320000
0!
03
04
#1045450000
0,
#1045500000
0/
05
06
#1045600000
1!
13
14
#1045650000
10
12
11
#1045750000
0!
03
04
#1050000000
0$
1%
1-
1&
b1001 )
#1050020000
0+
#1050450000
1,
#1050500000
1/
15
16
#1050600000
1!
13
14
#1055000000
1$
0%
0-
0&
1.
1'
b1101010 *
#1055020000
1+
#1055220000
00
02
01
#1055320000
0!
03
04
#1055450000
0,
#1055650000
10
12
11
#1055750000
1!
13
14
#1060000000
0$
1%
1-
1&
0.
0'
b1010 )
#1060020000
0+
#1060450000
1,
#1065000000
1$
0%
b1101011 *
#1065020000
1+
#1065220000
00
02
01
#1065320000
0!
03
04
#1065450000
0,
#1065650000
10
12
11
#1065750000
1!
13
14
#1070000000
0$
1%
b1011 )
#1070020000
0+
#1070450000
1,
#1075000000
1$
0%
1.
1'
b1101100 *
#1075020000
1+
#1075220000
00
02
01
#1075320000
0!
03
04
#1075450000
0,
#1075500000
0/
05
06
#1075600000
1!
13
14
#1075650000
10
12
11
#1075750000
0!
03
04
#1080000000
0$
1%
0.
0'
b1100 )
#1080020000
0+
#1080450000
1,
#1080500000
1/
15
16
#1080600000
1!
13
14
#1085000000
1$
0-
0&
b1101101 *
#1085020000
1+
#1085220000
00
02
01
#1085320000
0!
03
04
#1085500000
0/
05
06
#1085600000
1!
13
14
#1090000000
0$
1-
1&
b1101 )
#1090020000
0+
#1090220000
10
12
11
#1090320000
0!
03
04
#1090500000
1/
15
16
#1090600000
1!
13
14
#1095000000
1$
0-
0&
1.
1'
b1101110 *
#1095020000
1+
#1095220000
00
02
01
#1095320000
0!
03
04
#1100000000
0$
1-
1&
0.
0'
b1110 )
#1100020000
0+
#1100220000
10
12
11
#1100320000
1!
13
14
#1105000000
1$
b1101111 *
#1105020000
1+
#1105220000
00
02
01
#1105320000
0!
03
04
#1110000000
0$
b1111 )
#1110020000
0+
#1110220000
10
12
11
#1110320000
1!
13
14
#1115000000
1$
1.
1'
b1110000 *
#1115020000
1+
#1115220000
00
02
01
#1115320000
0!
03
04
#1115500000
0/
05
06
#1115600000
1!
13
14
#1120000000
0$
b111 (
b0 )
#1120020000
0+
#1120220000
10
12
11
#1120320000
0!
03
04
#1125000000
0%
0-
0&
0.
0'
b1110001 *
#1125450000
0,
#1130000000
1%
1-
1&
1.
1'
b1 )
#1130450000
1,
#1135000000
0%
0-
0&
b1110010 *
#1135450000
0,
#1135500000
1/
15
16
#1135600000
1!
13
14
#1140000000
1%
1-
1&
b10 )
#1140450000
1,
#1140500000
0/
05
06
#1140600000
0!
03
04
#1145000000
0%
0.
0'
b1110011 *
#1145450000
0,
#1145500000
1/
15
16
#1145600000
1!
13
14
#1150000000
1%
1.
1'
b11 )
#1150450000
1,
#1150500000
0/
05
06
#1150600000
0!
03
04
#1155000000
0%
b1110100 *
#1155450000
0,
#1160000000
1%
b100 )
#1160450000
1,
#1165000000
0-
0&
0.
0'
b1110101 *
#1170000000
1-
1&
1.
1'
b101 )
#1175000000
0-
0&
b1110110 *
#1175500000
1/
15
16
#1175600000
1!
13
14
#1180000000
1-
1&
b110 )
#1180500000
0/
05
06
#1180600000
0!
03
04
#1185000000
0.
0'
b1110111 *
#1185500000
1/
15
16
#1185600000
1!
13
14
#1190000000
1.
1'
b111 )
#1190500000
0/
05
06
#1190600000
0!
03
04
#1195000000
b1111000 *
#1200000000
b1000 )
#1205000000
1$
0%
0-
0&
0.
0'
b1111001 *
#1205020000
1+
#1205220000
00
02
01
#1205320000
1!
13
14
#1205450000
0,
#1205650000
10
12
11
#1205750000
0!
03
04
#1210000000
0$
1%
1-
1&
1.
1'
b1001 )
#1210020000
0+
#1210450000
1,
#1215000000
1$
0%
0-
0&
b1111010 *
#1215020000
1+
#1215220000
00
02
01
#1215320000
1!
13
14
#1215450000
0,
#1215500000
1/
15
16
#1215600000
0!
03
04
#1215650000
10
12
11
#1215750000
1!
13
14
#1220000000
0$
1%
1-
1&
b1010 )
#1220020000
0+
#1220450000
1,
#1220500000
0/
05
06
#1220600000
0!
03
04
#1225000000
1$
0%
0.
0'
b1111011 *
#1225020000
1+
#1225220000
00
02
01
#1225320000
1!
13
14
#1225450000
0,
#1225500000
1/
15
16
#1225600000
0!
03
04
#1225650000
10
12
11
#1225750000
1!
13
14
#1230000000
0$
1%
1.
1'
b1011 )
#1230020000
0+
#1230450000
1,
#1230500000
0/
05
06
#1230600000
0!
03
04
#1235000000
1$
0%
b1111100 *
#1235020000
1+
#1235220000
00
02
01
#1235320000
1!
13
14
#1235450000
0,
#1235650000
10
12
11
#1235750000
0!
03
04
#1240000000
0$
1%
b1100 )
#1240020000
0+
#1240450000
1,
#1245000000
1$
0-
0&
0.
0'
b1111101 *
#1245020000
1+
#1245220000
00
02
01
#1245320000
1!
13
14
#1250000000
0$
1-
1&
1.
1'
b1101 )
#1250020000
0+
#1250220000
10
12
11
#1250320000
0!
03
04
#1255000000
1$
0-
0&
b1111110 *
#1255020000
1+
#1255220000
00
02
01
#1255320000
1!
13
14
#1255500000
1/
15
16
#1255600000
0!
03
04
#1260000000
0$
1-
1&
b1110 )
#1260020000
0+
#1260220000
10
12
11
#1260320000
1!
13
14
#1260500000
0/
05
06
#1260600000
0!
03
04
#1265000000
1$
0.
0'
b1111111 *
#1265020000
1+
#1265220000
00
02
01
#1265320000
1!
13
14
#1265500000
1/
15
16
#1265600000
0!
03
04
#1270000000
0$
1.
1'
b1111 )
#1270020000
0+
#1270220000
10
12
11
#1270320000
1!
13
14
#1270500000
0/
05
06
#1270600000
0!
03
04
#1275000000
1$
b10000000 *
#1275020000
1+
#1275220000
00
02
01
#1275320000
1!
13
14
#1280000000
0%
0-
0&
0.
0'
b1000 (
b0 )
#1280450000
0,
#1280650000
10
12
11
#1280750000
0!
03
04
#1285000000
0$
b10000001 *
#1285020000
0+
#1290000000
1$
b1 )
#1290020000
1+
#1295000000
0$
1.
1'
b10000010 *
#1295020000
0+
#1295500000
1/
15
16
#1295600000
1!
13
14
#1300000000
1$
0.
0'
b10 )
#1300020000
1+
#1300500000
0/
05
06
#1300600000
0!
03
04
#1305000000
0$
1-
1&
b10000011 *
#1305020000
0+
#1305500000
1/
15
16
#1305600000
1!
13
14
#1310000000
1$
0-
0&
b11 )
#1310020000
1+
#1310500000
0/
05
06
#1310600000
0!
03
04
#1315000000
0$
1-
1&
1.
1'
b10000100 *
#1315020000
0+
#1320000000
1$
0-
0&
0.
0'
b100 )
#1320020000
1+
#1325000000
0$
1%
b10000101 *
#1325020000
0+
#1325450000
1,
#1330000000
1$
0%
b101 )
#1330020000
1+
#1330220000
00
02
01
#1330320000
1!
13
14
#1330450000
0,
#1330650000
10
12
11
#1330750000
0!
03
04
#1335000000
0$
1%
1.
1'
b10000110 *
#1335020000
0+
#1335450000
1,
#1335500000
1/
15
16
#1335600000
1!
13
14
#1340000000
1$
0%
0.
0'
b110 )
#1340020000
1+
#1340220000
00
02
01
#1340320000
0!
03
04
#1340450000
0,
#1340500000
0/
05
06
#1340600000
1!
13
14
#1340650000
10
12
11
#1340750000
0!
03
04
#1345000000
0$
1%
1-
1&
b10000111 *
#1345020000
0+
#1345450000
1,
#1345500000
1/
15
16
#1345600000
1!
13
14
#1350000000
1$
0%
0-
0&
b111 )
#1350020000
1+
#1350220000
00
02
01
#1350320000
0!
03
04
#1350450000
0,
#1350500000
0/
05
06
#1350600000
1!
13
14
#1350650000
10
12
11
#1350750000
0!
03
04
#1355000000
0$
1%
1-
1&
1.
1'
b10001000 *
#1355020000
0+
