correlations/scripts/verilog/vcd/correlation.vcd
$date
	Thu Jul 21 16:36:23 2022
$end
$version
	Icarus Verilog
$end
$timescale
	1fs
$end
$scope module tb $end
$var wire 1 ! out $end
$var reg 1 " VGND $end
$var reg 1 # VPWR $end
$var reg 1 $ clk $end
$var reg 4 % in [3:0] $end
$var integer 32 & i [31:0] $end
$var integer 32 ' inputs [31:0] $end
$var integer 32 ( j [31:0] $end
$var integer 32 ) sim [31:0] $end
$scope module uut $end
$var wire 1 " VGND $end
$var wire 1 # VPWR $end
$var wire 1 $ clk $end
$var wire 4 * in [3:0] $end
$var wire 1 ! out $end
$var wire 4 + in_del [3:0] $end
$scope module test $end
$var wire 1 " VGND $end
$var wire 1 # VPWR $end
$var wire 4 , in [3:0] $end
$var wire 1 ! out $end
$var wire 1 - _02_ $end
$var wire 1 . _01_ $end
$scope module _nand_ $end
$var wire 1 / A $end
$var wire 1 0 B $end
$var wire 1 " VGND $end
$var wire 1 " VNB $end
$var wire 1 # VPB $end
$var wire 1 # VPWR $end
$var wire 1 . Y $end
$scope module base $end
$var wire 1 / A $end
$var wire 1 0 B $end
$var wire 1 " VGND $end
$var wire 1 " VNB $end
$var wire 1 # VPB $end
$var wire 1 # VPWR $end
$var wire 1 . Y $end
$var wire 1 1 nand0_out_Y $end
$var wire 1 2 pwrgood_pp0_out_Y $end
$upscope $end
$upscope $end
$scope module _xnor_ $end
$var wire 1 . A $end
$var wire 1 " VGND $end
$var wire 1 " VNB $end
$var wire 1 # VPB $end
$var wire 1 # VPWR $end
$var wire 1 ! Y $end
$var wire 1 - B $end
$scope module base $end
$var wire 1 . A $end
$var wire 1 " VGND $end
$var wire 1 " VNB $end
$var wire 1 # VPB $end
$var wire 1 # VPWR $end
$var wire 1 ! Y $end
$var wire 1 3 pwrgood_pp0_out_Y $end
$var wire 1 4 xnor0_out_Y $end
$var wire 1 - B $end
$upscope $end
$upscope $end
$scope module _xor_ $end
$var wire 1 5 A $end
$var wire 1 6 B $end
$var wire 1 " VGND $end
$var wire 1 " VNB $end
$var wire 1 # VPB $end
$var wire 1 # VPWR $end
$var wire 1 - X $end
$scope module base $end
$var wire 1 5 A $end
$var wire 1 6 B $end
$var wire 1 " VGND $end
$var wire 1 " VNB $end
$var wire 1 # VPB $end
$var wire 1 # VPWR $end
$var wire 1 - X $end
$var wire 1 7 pwrgood_pp0_out_X $end
$var wire 1 8 xor0_out_X $end
$upscope $end
$upscope $end
$upscope $end
$upscope $end
$upscope $end
$enddefinitions $end
#0
$dumpvars
x8
x7
06
05
x4
x3
x2
x1
00
0/
x.
x-
b0 ,
bx00 +
b0 *
b0 )
b0 (
b10000000000000000000000000000011 '
b0 &
b0 %
0$
1#
0"
x!
$end
#20000
b0x00 +
#200000
1.
12
11
#450000
b0 +
#500000
0-
07
08
#600000
0!
03
04
#2000000
1$
#4000000
0$
#5000000
b1 )
#6000000
1$
#8000000
0$
#10000000
1$
b1 (
#12000000
0$
#14000000
1$
#15000000
b1 +
16
b1 %
b1 *
b1 ,
b10 )
#15500000
1-
17
18
#15600000
1!
13
14
#16000000
0$
#18000000
1$
#20000000
b0 +
06
0$
b0 %
b0 *
b0 ,
b10 (
#20500000
0-
07
08
#20600000
0!
03
04
#22000000
1$
#24000000
0$
#25000000
b10 +
15
b10 %
b10 *
b10 ,
b11 )
#25500000
1-
17
18
#25600000
1!
13
14
#26000000
1$
#28000000
0$
#30000000
b0 +
05
1$
b0 %
b0 *
b0 ,
b11 (
#30500000
0-
07
08
#30600000
0!
03
04
#32000000
0$
#34000000
1$
#35000000
b11 +
15
16
b11 %
b11 *
b11 ,
b100 )
#36000000
0$
#38000000
1$
#40000000
b0 +
05
06
0$
b0 %
b0 *
b0 ,
b100 (
#42000000
1$
#44000000
0$
#45000000
10
b100 %
b100 *
b100 ,
b101 )
#45450000
b100 +
#46000000
1$
#48000000
0$
#50000000
00
1$
b0 %
b0 *
b0 ,
b101 (
#50450000
b0 +
#52000000
0$
#54000000
1$
#55000000
b1 +
10
16
b101 %
b101 *
b101 ,
b110 )
#55450000
b101 +
#55500000
1-
17
18
#55600000
1!
13
14
#56000000
0$
#58000000
1$
#60000000
b100 +
00
06
0$
b0 %
b0 *
b0 ,
b110 (
#60450000
b0 +
#60500000
0-
07
08
#60600000
0!
03
04
#62000000
1$
#64000000
0$
#65000000
b10 +
10
15
b110 %
b110 *
b110 ,
b111 )
#65450000
b110 +
#65500000
1-
17
18
#65600000
1!
13
14
#66000000
1$
#68000000
0$
#70000000
b100 +
00
05
1$
b0 %
b0 *
b0 ,
b111 (
#70450000
b0 +
#70500000
0-
07
08
#70600000
0!
03
04
#72000000
0$
#74000000
1$
#75000000
b11 +
10
15
16
b111 %
b111 *
b111 ,
b1000 )
#75450000
b111 +
#76000000
0$
#78000000
1$
#80000000
b100 +
00
05
06
0$
b0 %
b0 *
b0 ,
b1000 (
#80450000
b0 +
#82000000
1$
#84000000
0$
#85000000
1/
b1000 %
b1000 *
b1000 ,
b1001 )
#85020000
b1000 +
#86000000
1$
#88000000
0$
#90000000
0/
1$
b0 %
b0 *
b0 ,
b1001 (
#90020000
b0 +
#92000000
0$
#94000000
1$
#95000000
b1 +
1/
16
b1001 %
b1001 *
b1001 ,
b1010 )
#95020000
b1001 +
#95500000
1-
17
18
#95600000
1!
13
14
#96000000
0$
#98000000
1$
#100000000
b1000 +
0/
06
0$
b0 %
b0 *
b0 ,
b1010 (
#100020000
b0 +
#100500000
0-
07
08
#100600000
0!
03
04
#102000000
1$
#104000000
0$
#105000000
b10 +
1/
15
b1010 %
b1010 *
b1010 ,
b1011 )
#105020000
b1010 +
#105500000
1-
17
18
#105600000
1!
13
14
#106000000
1$
#108000000
0$
#110000000
b1000 +
0/
05
1$
b0 %
b0 *
b0 ,
b1011 (
#110020000
b0 +
#110500000
0-
07
08
#110600000
0!
03
04
#112000000
0$
#114000000
1$
#115000000
b11 +
1/
15
16
b1011 %
b1011 *
b1011 ,
b1100 )
#115020000
b1011 +
#116000000
0$
#118000000
1$
#120000000
b1000 +
0/
05
06
0$
b0 %
b0 *
b0 ,
b1100 (
#120020000
b0 +
#122000000
1$
#124000000
0$
#125000000
1/
10
b1100 %
b1100 *
b1100 ,
b1101 )
#125020000
b1000 +
#125200000
0.
02
01
#125300000
1!
13
14
#125450000
b1100 +
#126000000
1$
#128000000
0$
#130000000
0/
00
1$
b0 %
b0 *
b0 ,
b1101 (
#130020000
b100 +
#130200000
1.
12
11
#130300000
0!
03
04
#130450000
b0 +
#132000000
0$
#134000000
1$
#135000000
b1 +
1/
10
16
b1101 %
b1101 *
b1101 ,
b1110 )
#135020000
b1001 +
#135200000
0.
02
01
#135300000
1!
13
14
#135450000
b1101 +
#135500000
1-
17
18
#135600000
0!
03
04
#136000000
0$
#138000000
1$
#140000000
b1100 +
0/
00
06
0$
b0 %
b0 *
b0 ,
b1110 (
#140020000
b100 +
#140200000
1.
12
11
#140300000
1!
13
14
#140450000
b0 +
#140500000
0-
07
08
#140600000
0!
03
04
#142000000
1$
#144000000
0$
#145000000
b10 +
1/
10
15
b1110 %
b1110 *
b1110 ,
b1111 )
#145020000
b1010 +
#145200000
0.
02
01
#145300000
1!
13
14
#145450000
b1110 +
#145500000
1-
17
18
#145600000
0!
03
04
#146000000
1$
#148000000
0$
#150000000
b1100 +
0/
00
05
1$
b0 %
b0 *
b0 ,
b1111 (
#150020000
b100 +
#150200000
1.
12
11
#150300000
1!
13
14
#150450000
b0 +
#150500000
0-
07
08
#150600000
0!
03
04
#152000000
0$
#154000000
1$
#155000000
b11 +
1/
10
15
16
b1111 %
b1111 *
b1111 ,
b10000 )
#155020000
b1011 +
#155200000
0.
02
01
#155300000
1!
13
14
#155450000
b1111 +
#156000000
0$
#158000000
1$
#160000000
b1101 +
0/
00
05
0$
b1 %
b1 *
b1 ,
b1 &
b0 (
#160020000
b101 +
#160200000
1.
12
11
#160300000
0!
03
04
#160450000
b1 +
#160500000
1-
17
18
#160600000
1!
13
14
#162000000
1$
#164000000
0$
#165000000
b0 +
06
b0 %
b0 *
b0 ,
b10001 )
#165500000
0-
07
08
#165600000
0!
03
04
#166000000
1$
#168000000
0$
#170000000
b1 +
16
1$
b1 %
b1 *
b1 ,
b1 (
#170500000
1-
17
18
#170600000
1!
13
14
#172000000
0$
#174000000
1$
#175000000
b10010 )
#176000000
0$
#178000000
1$
#180000000
0$
b10 (
#182000000
1$
#184000000
0$
#185000000
b10 +
15
06
b10 %
b10 *
b10 ,
b10011 )
#186000000
1$
#188000000
0$
#190000000
b1 +
05
16
1$
b1 %
b1 *
b1 ,
b11 (
#192000000
0$
#194000000
1$
#195000000
b11 +
15
b11 %
b11 *
b11 ,
b10100 )
#195500000
0-
07
08
#195600000
0!
03
04
#196000000
0$
#198000000
1$
#200000000
b1 +
05
0$
b1 %
b1 *
b1 ,
b100 (
#200500000
1-
17
18
#200600000
1!
13
14
#202000000
1$
#204000000
0$
#205000000
b0 +
10
06
b100 %
b100 *
b100 ,
b10101 )
#205450000
b100 +
#205500000
0-
07
08
#205600000
0!
03
04
#206000000
1$
#208000000
0$
#210000000
b101 +
00
16
1$
b1 %
b1 *
b1 ,
b101 (
#210450000
b1 +
#210500000
1-
17
18
#210600000
1!
13
14
#212000000
0$
#214000000
1$
#215000000
10
b101 %
b101 *
b101 ,
b10110 )
#215450000
b101 +
#216000000
0$
#218000000
1$
#220000000
00
0$
b1 %
b1 *
b1 ,
b110 (
#220450000
b1 +
#222000000
1$
#224000000
0$
#225000000
b10 +
10
15
06
b110 %
b110 *
b110 ,
b10111 )
#225450000
b110 +
#226000000
1$
#228000000
0$
#230000000
b101 +
00
05
16
1$
b1 %
b1 *
b1 ,
b111 (
#230450000
b1 +
#232000000
0$
#234000000
1$
#235000000
b11 +
10
15
b111 %
b111 *
b111 ,
b11000 )
#235450000
b111 +
#235500000
0-
07
08
#235600000
0!
03
04
#236000000
0$
#238000000
1$
#240000000
b101 +
00
05
0$
b1 %
b1 *
b1 ,
b1000 (
#240450000
b1 +
#240500000
1-
17
18
#240600000
1!
13
14
#242000000
1$
#244000000
0$
#245000000
b0 +
1/
06
b1000 %
b1000 *
b1000 ,
b11001 )
#245020000
b1000 +
#245500000
0-
07
08
#245600000
0!
03
04
#246000000
1$
#248000000
0$
#250000000
b1001 +
0/
16
1$
b1 %
b1 *
b1 ,
b1001 (
#250020000
b1 +
#250500000
1-
17
18
#250600000
1!
13
14
#252000000
0$
#254000000
1$
#255000000
1/
b1001 %
b1001 *
b1001 ,
b11010 )
#255020000
b1001 +
#256000000
0$
#258000000
1$
#260000000
0/
0$
b1 %
b1 *
b1 ,
b1010 (
#260020000
b1 +
#262000000
1$
#264000000
0$
#265000000
b10 +
1/
15
06
b1010 %
b1010 *
b1010 ,
b11011 )
#265020000
b1010 +
#266000000
1$
#268000000
0$
#270000000
b1001 +
0/
05
16
1$
b1 %
b1 *
b1 ,
b1011 (
#270020000
b1 +
#272000000
0$
#274000000
1$
#275000000
b11 +
1/
15
b1011 %
b1011 *
b1011 ,
b11100 )
#275020000
b1011 +
#275500000
0-
07
08
#275600000
0!
03
04
#276000000
0$
#278000000
1$
#280000000
b1001 +
0/
05
0$
b1 %
b1 *
b1 ,
b1100 (
#280020000
b1 +
#280500000
1-
17
18
#280600000
1!
13
14
#282000000
1$
#284000000
0$
#285000000
b0 +
1/
10
06
b1100 %
b1100 *
b1100 ,
b11101 )
#285020000
b1000 +
#285200000
0.
02
01
#285300000
0!
03
04
#285450000
b1100 +
#285500000
0-
07
08
#285600000
1!
13
14
#286000000
1$
#288000000
0$
#290000000
b1101 +
0/
00
16
1$
b1 %
b1 *
b1 ,
b1101 (
#290020000
b101 +
#290200000
1.
12
11
#290300000
0!
03
04
#290450000
b1 +
#290500000
1-
17
18
#290600000
1!
13
14
#292000000
0$
#294000000
1$
#295000000
1/
10
b1101 %
b1101 *
b1101 ,
b11110 )
#295020000
b1001 +
#295200000
0.
02
01
#295300000
0!
03
04
#295450000
b1101 +
#296000000
0$
#298000000
1$
#300000000
0/
00
0$
b1 %
b1 *
b1 ,
b1110 (
#300020000
b101 +
#300200000
1.
12
11
#300300000
1!
13
14
#300450000
b1 +
#302000000
1$
#304000000
0$
#305000000
b10 +
1/
10
15
06
b1110 %
b1110 *
b1110 ,
b11111 )
#305020000
b1010 +
#305200000
0.
02
01
#305300000
0!
03
04
#305450000
b1110 +
#306000000
1$
#308000000
0$
#310000000
b1101 +
0/
00
05
16
1$
b1 %
b1 *
b1 ,
b1111 (
#310020000
b101 +
#310200000
1.
12
11
#310300000
1!
13
14
#310450000
b1 +
#312000000
0$
#314000000
1$
#315000000
b11 +
1/
10
15
b1111 %
b1111 *
b1111 ,
b100000 )
#315020000
b1011 +
#315200000
0.
02
01
#315300000
0!
03
04
#315450000
b1111 +
#315500000
0-
07
08
#315600000
1!
13
14
#316000000
0$
#318000000
1$
#320000000
b1110 +
0/
00
06
0$
b10 %
b10 *
b10 ,
b10 &
b0 (
#320020000
b110 +
#320200000
1.
12
11
#320300000
0!
03
04
#320450000
b10 +
#320500000
1-
17
18
#320600000
1!
13
14
#322000000
1$
#324000000
0$
#325000000
b0 +
05
b0 %
b0 *
b0 ,
b100001 )
#325500000
0-
07
08
#325600000
0!
03
04
#326000000
1$
#328000000
0$
#330000000
b10 +
15
1$
b10 %
b10 *
b10 ,
b1 (
#330500000
1-
17
18
#330600000
1!
13
14
#332000000
0$
#334000000
1$
#335000000
b1 +
05
16
b1 %
b1 *
b1 ,
b100010 )
#336000000
0$
#338000000
1$
#340000000
b10 +
15
06
0$
b10 %
b10 *
b10 ,
b10 (
#342000000
1$
#344000000
0$
#345000000
b100011 )
#346000000
1$
#348000000
0$
#350000000
1$
b11 (
#352000000
0$
#354000000
1$
#355000000
b11 +
16
b11 %
b11 *
b11 ,
b100100 )
#355500000
0-
07
08
#355600000
0!
03
04
#356000000
0$
#358000000
1$
#360000000
b10 +
06
0$
b10 %
b10 *
b10 ,
b100 (
#360500000
1-
17
18
#360600000
1!
13
14
#362000000
1$
#364000000
0$
#365000000
b0 +
10
05
b100 %
b100 *
b100 ,
b100101 )
#365450000
b100 +
#365500000
0-
07
08
#365600000
0!
03
04
#366000000
1$
#368000000
0$
#370000000
b110 +
00
15
1$
b10 %
b10 *
b10 ,
b101 (
#370450000
b10 +
#370500000
1-
17
18
#370600000
1!
13
14
#372000000
0$
#374000000
1$
#375000000
b1 +
10
05
16
b101 %
b101 *
b101 ,
b100110 )
#375450000
b101 +
#376000000
0$
#378000000
1$
#380000000
b110 +
00
15
06
0$
b10 %
b10 *
b10 ,
b110 (
#380450000
b10 +
#382000000
1$
#384000000
0$
#385000000
10
b110 %
b110 *
b110 ,
b100111 )
#385450000
b110 +
#386000000
1$
#388000000
0$
#390000000
00
1$
b10 %
b10 *
b10 ,
b111 (
#390450000
b10 +
#392000000
0$
#394000000
1$
#395000000
b11 +
10
16
b111 %
b111 *
b111 ,
b101000 )
#395450000
b111 +
#395500000
0-
07
08
#395600000
0!
03
04
#396000000
0$
#398000000
1$
#400000000
b110 +
00
06
0$
b10 %
b10 *
b10 ,
b1000 (
#400450000
b10 +
#400500000
1-
17
18
#400600000
1!
13
14
#402000000
1$
#404000000
0$
#405000000
b0 +
1/
05
b1000 %
b1000 *
b1000 ,
b101001 )
#405020000
b1000 +
#405500000
0-
07
08
#405600000
0!
03
04
#406000000
1$
#408000000
0$
#410000000
b1010 +
0/
15
1$
b10 %
b10 *
b10 ,
b1001 (
#410020000
b10 +
#410500000
1-
17
18
#410600000
1!
13
14
#412000000
0$
#414000000
1$
#415000000
b1 +
1/
05
16
b1001 %
b1001 *
b1001 ,
b101010 )
#415020000
b1001 +
#416000000
0$
#418000000
1$
#420000000
b1010 +
0/
15
06
0$
b10 %
b10 *
b10 ,
b1010 (
#420020000
b10 +
#422000000
1$
#424000000
0$
#425000000
1/
b1010 %
b1010 *
b1010 ,
b101011 )
#425020000
b1010 +
#426000000
1$
#428000000
0$
#430000000
0/
1$
b10 %
b10 *
b10 ,
b1011 (
#430020000
b10 +
#432000000
0$
#434000000
1$
#435000000
b11 +
1/
16
b1011 %
b1011 *
b1011 ,
b101100 )
#435020000
b1011 +
#435500000
0-
07
08
#435600000
0!
03
04
#436000000
0$
#438000000
1$
#440000000
b1010 +
0/
06
0$
b10 %
b10 *
b10 ,
b1100 (
#440020000
b10 +
#440500000
1-
17
18
#440600000
1!
13
14
#442000000
1$
#444000000
0$
#445000000
b0 +
1/
10
05
b1100 %
b1100 *
b1100 ,
b101101 )
#445020000
b1000 +
#445200000
0.
02
01
#445300000
0!
03
04
#445450000
b1100 +
#445500000
0-
07
08
#445600000
1!
13
14
#446000000
1$
#448000000
0$
#450000000
b1110 +
0/
00
15
1$
b10 %
b10 *
b10 ,
b1101 (
#450020000
b110 +
#450200000
1.
12
11
#450300000
0!
03
04
#450450000
b10 +
#450500000
1-
17
18
#450600000
1!
13
14
#452000000
0$
#454000000
1$
#455000000
b1 +
1/
10
05
16
b1101 %
b1101 *
b1101 ,
b101110 )
#455020000
b1001 +
#455200000
0.
02
01
#455300000
0!
03
04
#455450000
b1101 +
#456000000
0$
#458000000
1$
#460000000
b1110 +
0/
00
15
06
0$
b10 %
b10 *
b10 ,
b1110 (
#460020000
b110 +
#460200000
1.
12
11
#460300000
1!
13
14
#460450000
b10 +
#462000000
1$
#464000000
0$
#465000000
1/
10
b1110 %
b1110 *
b1110 ,
b101111 )
#465020000
b1010 +
#465200000
0.
02
01
#465300000
0!
03
04
#465450000
b1110 +
#466000000
1$
#468000000
0$
#470000000
0/
00
1$
b10 %
b10 *
b10 ,
b1111 (
#470020000
b110 +
#470200000
1.
12
11
#470300000
1!
13
14
#470450000
b10 +
#472000000
0$
#474000000
1$
#475000000
b11 +
1/
10
16
b1111 %
b1111 *
b1111 ,
b110000 )
#475020000
b1011 +
#475200000
0.
02
01
#475300000
0!
03
04
#475450000
b1111 +
#475500000
0-
07
08
#475600000
1!
13
14
#476000000
0$
#478000000
1$
#480000000
0/
00
0$
b11 %
b11 *
b11 ,
b11 &
b0 (
#480020000
b111 +
#480200000
1.
12
11
#480300000
0!
03
04
#480450000
b11 +
#482000000
1$
#484000000
0$
#485000000
b0 +
05
06
b0 %
b0 *
b0 ,
b110001 )
#486000000
1$
#488000000
0$
#490000000
b11 +
15
16
1$
b11 %
b11 *
b11 ,
b1 (
#492000000
0$
#494000000
1$
#495000000
b1 +
05
b1 %
b1 *
b1 ,
b110010 )
#495500000
1-
17
18
#495600000
1!
13
14
#496000000
0$
#498000000
1$
#500000000
b11 +
15
0$
b11 %
b11 *
b11 ,
b10 (
#500500000
0-
07
08
#500600000
0!
03
04
#502000000
1$
#504000000
0$
#505000000
b10 +
06
b10 %
b10 *
b10 ,
b110011 )
#505500000
1-
17
18
#505600000
1!
13
14
#506000000
1$
#508000000
0$
#510000000
b11 +
16
1$
b11 %
b11 *
b11 ,
b11 (
#510500000
0-
07
08
#510600000
0!
03
04
#512000000
0$
#514000000
1$
#515000000
b110100 )
#516000000
0$
#518000000
1$
#520000000
0$
b100 (
#522000000
1$
#524000000
0$
#525000000
b0 +
10
05
06
b100 %
b100 *
b100 ,
b110101 )
#525450000
b100 +
#526000000
1$
#528000000
0$
#530000000
b111 +
00
15
16
1$
b11 %
b11 *
b11 ,
b101 (
#530450000
b11 +
#532000000
0$
#534000000
1$
#535000000
b1 +
10
05
b101 %
b101 *
b101 ,
b110110 )
#535450000
b101 +
#535500000
1-
17
18
#535600000
1!
13
14
#536000000
0$
#538000000
1$
#540000000
b111 +
00
15
0$
b11 %
b11 *
b11 ,
b110 (
#540450000
b11 +
#540500000
0-
07
08
#540600000
0!
03
04
#542000000
1$
#544000000
0$
#545000000
b10 +
10
06
b110 %
b110 *
b110 ,
b110111 )
#545450000
b110 +
#545500000
1-
17
18
#545600000
1!
13
14
#546000000
1$
#548000000
0$
#550000000
b111 +
00
16
1$
b11 %
b11 *
b11 ,
b111 (
#550450000
b11 +
#550500000
0-
07
08
#550600000
0!
03
04
#552000000
0$
#554000000
1$
#555000000
10
b111 %
b111 *
b111 ,
b111000 )
#555450000
b111 +
#556000000
0$
#558000000
1$
#560000000
00
0$
b11 %
b11 *
b11 ,
b1000 (
#560450000
b11 +
#562000000
1$
#564000000
0$
#565000000
b0 +
1/
05
06
b1000 %
b1000 *
b1000 ,
b111001 )
#565020000
b1000 +
#566000000
1$
#568000000
0$
#570000000
b1011 +
0/
15
16
1$
b11 %
b11 *
b11 ,
b1001 (
#570020000
b11 +
#572000000
0$
#574000000
1$
#575000000
b1 +
1/
05
b1001 %
b1001 *
b1001 ,
b111010 )
#575020000
b1001 +
#575500000
1-
17
18
#575600000
1!
13
14
#576000000
0$
#578000000
1$
#580000000
b1011 +
0/
15
0$
b11 %
b11 *
b11 ,
b1010 (
#580020000
b11 +
#580500000
0-
07
08
#580600000
0!
03
04
#582000000
1$
#584000000
0$
#585000000
b10 +
1/
06
b1010 %
b1010 *
b1010 ,
b111011 )
#585020000
b1010 +
#585500000
1-
17
18
#585600000
1!
13
14
#586000000
1$
#588000000
0$
#590000000
b1011 +
0/
16
1$
b11 %
b11 *
b11 ,
b1011 (
#590020000
b11 +
#590500000
0-
07
08
#590600000
0!
03
04
#592000000
0$
#594000000
1$
#595000000
1/
b1011 %
b1011 *
b1011 ,
b111100 )
#595020000
b1011 +
#596000000
0$
#598000000
1$
#600000000
0/
0$
b11 %
b11 *
b11 ,
b1100 (
#600020000
b11 +
#602000000
1$
#604000000
0$
#605000000
b0 +
1/
10
05
06
b1100 %
b1100 *
b1100 ,
b111101 )
#605020000
b1000 +
#605200000
0.
02
01
#605300000
1!
13
14
#605450000
b1100 +
#606000000
1$
#608000000
0$
#610000000
b1111 +
0/
00
15
16
1$
b11 %
b11 *
b11 ,
b1101 (
#610020000
b111 +
#610200000
1.
12
11
#610300000
0!
03
04
#610450000
b11 +
#612000000
0$
#614000000
1$
#615000000
b1 +
1/
10
05
b1101 %
b1101 *
b1101 ,
b111110 )
#615020000
b1001 +
#615200000
0.
02
01
#615300000
1!
13
14
#615450000
b1101 +
#615500000
1-
17
18
#615600000
0!
03
04
#616000000
0$
#618000000
1$
#620000000
b1111 +
0/
00
15
0$
b11 %
b11 *
b11 ,
b1110 (
#620020000
b111 +
#620200000
1.
12
11
#620300000
1!
13
14
#620450000
b11 +
#620500000
0-
07
08
#620600000
0!
03
04
#622000000
1$
#624000000
0$
#625000000
b10 +
1/
10
06
b1110 %
b1110 *
b1110 ,
b111111 )
#625020000
b1010 +
#625200000
0.
02
01
#625300000
1!
13
14
#625450000
b1110 +
#625500000
1-
17
18
#625600000
0!
03
04
#626000000
1$
#628000000
0$
#630000000
b1111 +
0/
00
16
1$
b11 %
b11 *
b11 ,
b1111 (
#630020000
b111 +
#630200000
1.
12
11
#630300000
1!
13
14
#630450000
b11 +
#630500000
0-
07
08
#630600000
0!
03
04
#632000000
0$
#634000000
1$
#635000000
1/
10
b1111 %
b1111 *
b1111 ,
b1000000 )
#635020000
b1011 +
#635200000
0.
02
01
#635300000
1!
13
14
#635450000
b1111 +
#636000000
0$
#638000000
1$
#640000000
b1100 +
0/
05
06
0$
b100 %
b100 *
b100 ,
b100 &
b0 (
#640020000
b100 +
#640200000
1.
12
11
#640300000
0!
03
04
#642000000
1$
#644000000
0$
#645000000
00
b0 %
b0 *
b0 ,
b1000001 )
#645450000
b0 +
#646000000
1$
#648000000
0$
#650000000
10
1$
b100 %
b100 *
b100 ,
b1 (
#650450000
b100 +
#652000000
0$
#654000000
1$
#655000000
b101 +
00
16
b1 %
b1 *
b1 ,
b1000010 )
#655450000
b1 +
#655500000
1-
17
18
#655600000
1!
13
14
#656000000
0$
#658000000
1$
#660000000
b0 +
10
06
0$
b100 %
b100 *
b100 ,
b10 (
#660450000
b100 +
#660500000
0-
07
08
#660600000
0!
03
04
#662000000
1$
#664000000
0$
#665000000
b110 +
00
15
b10 %
b10 *
b10 ,
b1000011 )
#665450000
b10 +
#665500000
1-
17
18
#665600000
1!
13
14
#666000000
1$
#668000000
0$
#670000000
b0 +
10
05
1$
b100 %
b100 *
b100 ,
b11 (
#670450000
b100 +
#670500000
0-
07
08
#670600000
0!
03
04
#672000000
0$
#674000000
1$
#675000000
b111 +
00
15
16
b11 %
b11 *
b11 ,
b1000100 )
#675450000
b11 +
#676000000
0$
#678000000
1$
#680000000
b0 +
10
05
06
0$
b100 %
b100 *
b100 ,
b100 (
#680450000
b100 +
#682000000
1$
#684000000
0$
#685000000
b1000101 )
#686000000
1$
#688000000
0$
#690000000
1$
b101 (
#692000000
0$
#694000000
1$
#695000000
b101 +
16
b101 %
b101 *
b101 ,
b1000110 )
#695500000
1-
17
18
#695600000
1!
13
14
#696000000
0$
#698000000
1$
#700000000
b100 +
06
0$
b100 %
b100 *
b100 ,
b110 (
#700500000
0-
07
08
#700600000
0!
03
04
#702000000
1$
#704000000
0$
#705000000
b110 +
15
b110 %
b110 *
b110 ,
b1000111 )
#705500000
1-
17
18
#705600000
1!
13
14
#706000000
1$
#708000000
0$
#710000000
b100 +
05
1$
b100 %
b100 *
b100 ,
b111 (
#710500000
0-
07
08
#710600000
0!
03
04
#712000000
0$
#714000000
1$
#715000000
b111 +
15
16
b111 %
b111 *
b111 ,
b1001000 )
#716000000
0$
#718000000
1$
#720000000
b100 +
05
06
0$
b100 %
b100 *
b100 ,
b1000 (
#722000000
1$
#724000000
0$
#725000000
1/
00
b1000 %
b1000 *
b1000 ,
b1001001 )
#725020000
b1100 +
#725450000
b1000 +
#726000000
1$
#728000000
0$
#730000000
0/
10
1$
b100 %
b100 *
b100 ,
b1001 (
#730020000
b0 +
#730450000
b100 +
#732000000
0$
#734000000
1$
#735000000
b101 +
1/
00
16
b1001 %
b1001 *
b1001 ,
b1001010 )
#735020000
b1101 +
#735450000
b1001 +
#735500000
1-
17
18
#735600000
1!
13
14
#736000000
0$
#738000000
1$
#740000000
b1000 +
0/
10
06
0$
b100 %
b100 *
b100 ,
b1010 (
#740020000
b0 +
#740450000
b100 +
#740500000
0-
07
08
#740600000
0!
03
04
#742000000
1$
#744000000
0$
#745000000
b110 +
1/
00
15
b1010 %
b1010 *
b1010 ,
b1001011 )
#745020000
b1110 +
#745450000
b1010 +
#745500000
1-
17
18
#745600000
1!
13
14
#746000000
1$
#748000000
0$
#750000000
b1000 +
0/
10
05
1$
b100 %
b100 *
b100 ,
b1011 (
#750020000
b0 +
#750450000
b100 +
#750500000
0-
07
08
#750600000
0!
03
04
#752000000
0$
#754000000
1$
#755000000
b111 +
1/
00
15
16
b1011 %
b1011 *
b1011 ,
b1001100 )
#755020000
b1111 +
#755450000
b1011 +
#756000000
0$
#758000000
1$
#760000000
b1000 +
0/
10
05
06
0$
b100 %
b100 *
b100 ,
b1100 (
#760020000
b0 +
#760450000
b100 +
#762000000
1$
#764000000
0$
#765000000
1/
b1100 %
b1100 *
b1100 ,
b1001101 )
#765020000
b1100 +
#765200000
0.
02
01
#765300000
1!
13
14
#766000000
1$
#768000000
0$
#770000000
0/
1$
b100 %
b100 *
b100 ,
b1101 (
#770020000
b100 +
#770200000
1.
12
11
#770300000
0!
03
04
#772000000
0$
#774000000
1$
#775000000
b101 +
1/
16
b1101 %
b1101 *
b1101 ,
b1001110 )
#775020000
b1101 +
#775200000
0.
02
01
#775300000
1!
13
14
#775500000
1-
17
18
#775600000
0!
03
04
#776000000
0$
#778000000
1$
#780000000
b1100 +
0/
06
0$
b100 %
b100 *
b100 ,
b1110 (
#780020000
b100 +
#780200000
1.
12
11
#780300000
1!
13
14
#780500000
0-
07
08
#780600000
0!
03
04
#782000000
1$
#784000000
0$
#785000000
b110 +
1/
15
b1110 %
b1110 *
b1110 ,
b1001111 )
#785020000
b1110 +
#785200000
0.
02
01
#785300000
1!
13
14
#785500000
1-
17
18
#785600000
0!
03
04
#786000000
1$
#788000000
0$
#790000000
b1100 +
0/
05
1$
b100 %
b100 *
b100 ,
b1111 (
#790020000
b100 +
#790200000
1.
12
11
#790300000
1!
13
14
#790500000
0-
07
08
#790600000
0!
03
04
#792000000
0$
#794000000
1$
#795000000
b111 +
1/
15
16
b1111 %
b1111 *
b1111 ,
b1010000 )
#795020000
b1111 +
#795200000
0.
02
01
#795300000
1!
13
14
#796000000
0$
#798000000
1$
#800000000
b1101 +
0/
05
0$
b101 %
b101 *
b101 ,
b101 &
b0 (
#800020000
b101 +
#800200000
1.
12
11
#800300000
0!
03
04
#800500000
1-
17
18
#800600000
1!
13
14
#802000000
1$
#804000000
0$
#805000000
b100 +
00
06
b0 %
b0 *
b0 ,
b1010001 )
#805450000
b0 +
#805500000
0-
07
08
#805600000
0!
03
04
#806000000
1$
#808000000
0$
#810000000
b1 +
10
16
1$
b101 %
b101 *
b101 ,
b1 (
#810450000
b101 +
#810500000
1-
17
18
#810600000
1!
13
14
#812000000
0$
#814000000
1$
#815000000
00
b1 %
b1 *
b1 ,
b1010010 )
#815450000
b1 +
#816000000
0$
#818000000
1$
#820000000
10
0$
b101 %
b101 *
b101 ,
b10 (
#820450000
b101 +
#822000000
1$
#824000000
0$
#825000000
b110 +
00
15
06
b10 %
b10 *
b10 ,
b1010011 )
#825450000
b10 +
#826000000
1$
#828000000
0$
#830000000
b1 +
10
05
16
1$
b101 %
b101 *
b101 ,
b11 (
#830450000
b101 +
#832000000
0$
#834000000
1$
#835000000
b111 +
00
15
b11 %
b11 *
b11 ,
b1010100 )
#835450000
b11 +
#835500000
0-
07
08
#835600000
0!
03
04
#836000000
0$
#838000000
1$
#840000000
b1 +
10
05
0$
b101 %
b101 *
b101 ,
b100 (
#840450000
b101 +
#840500000
1-
17
18
