correlations/scripts/prove/correlation.vcd
$date
	Thu Jul 14 11:48:34 2022
$end
$version
	Icarus Verilog
$end
$timescale
	1fs
$end
$scope module tb $end
$var wire 1 ! clock $end
$var wire 1 " out $end
$var reg 1 # VGND $end
$var reg 1 $ VPWR $end
$var reg 1 % clk $end
$var reg 4 & in [3:0] $end
$var integer 32 ' i [31:0] $end
$var integer 32 ( j [31:0] $end
$var integer 32 ) sim [31:0] $end
$scope module uut $end
$var wire 1 # VGND $end
$var wire 1 $ VPWR $end
$var wire 1 ! clk $end
$var wire 4 * in [3:0] $end
$var wire 1 " out $end
$var wire 4 + in_del [3:0] $end
$scope module test $end
$var wire 1 # VGND $end
$var wire 1 $ VPWR $end
$var wire 4 , in [3:0] $end
$var wire 1 " y $end
$var wire 1 - _02_ $end
$var wire 1 . _01_ $end
$scope module _nand_ $end
$var wire 1 / A $end
$var wire 1 0 B $end
$var wire 1 # VGND $end
$var wire 1 # VNB $end
$var wire 1 $ VPB $end
$var wire 1 $ VPWR $end
$var wire 1 . Y $end
$scope module base $end
$var wire 1 / A $end
$var wire 1 0 B $end
$var wire 1 # VGND $end
$var wire 1 # VNB $end
$var wire 1 $ VPB $end
$var wire 1 $ VPWR $end
$var wire 1 . Y $end
$var wire 1 1 nand0_out_Y $end
$var wire 1 2 pwrgood_pp0_out_Y $end
$upscope $end
$upscope $end
$scope module _xnor_ $end
$var wire 1 . A $end
$var wire 1 # VGND $end
$var wire 1 # VNB $end
$var wire 1 $ VPB $end
$var wire 1 $ VPWR $end
$var wire 1 " Y $end
$var wire 1 - B $end
$scope module base $end
$var wire 1 . A $end
$var wire 1 # VGND $end
$var wire 1 # VNB $end
$var wire 1 $ VPB $end
$var wire 1 $ VPWR $end
$var wire 1 " Y $end
$var wire 1 3 pwrgood_pp0_out_Y $end
$var wire 1 4 xnor0_out_Y $end
$var wire 1 - B $end
$upscope $end
$upscope $end
$scope module _xor_ $end
$var wire 1 5 A $end
$var wire 1 6 B $end
$var wire 1 # VGND $end
$var wire 1 # VNB $end
$var wire 1 $ VPB $end
$var wire 1 $ VPWR $end
$var wire 1 - X $end
$scope module base $end
$var wire 1 5 A $end
$var wire 1 6 B $end
$var wire 1 # VGND $end
$var wire 1 # VNB $end
$var wire 1 $ VPB $end
$var wire 1 $ VPWR $end
$var wire 1 - X $end
$var wire 1 7 pwrgood_pp0_out_X $end
$var wire 1 8 xor0_out_X $end
$upscope $end
$upscope $end
$upscope $end
$upscope $end
$upscope $end
$enddefinitions $end
#0
$dumpvars
08
07
06
05
04
03
12
11
00
0/
1.
0-
b0 ,
b0xx +
b0 *
b0 )
b0 (
b0 '
b0 &
0%
1$
0#
0"
z!
$end
#2000000
b0x0 +
#3000000
b0 +
#5000000
b1 )
1%
#10000000
b1 (
0%
#15000000
1/
b1 &
b1 *
b1 ,
b10 )
1%
#17000000
b1 +
#20000000
0/
b0 &
b0 *
b0 ,
b10 (
0%
#22000000
b0 +
#25000000
10
b10 &
b10 *
b10 ,
b11 )
1%
#28000000
b10 +
#30000000
00
b0 &
b0 *
b0 ,
b11 (
0%
#33000000
b0 +
#35000000
1"
13
14
0.
02
01
1/
10
b11 &
b11 *
b11 ,
b100 )
1%
#37000000
b1 +
#38000000
b11 +
#40000000
0"
03
04
1.
12
11
0/
00
b0 &
b0 *
b0 ,
b100 (
0%
#42000000
b10 +
#43000000
b0 +
#45000000
1"
13
14
1-
17
18
b100 +
15
b100 &
b100 *
b100 ,
b101 )
1%
#50000000
0"
03
04
0-
07
08
b0 +
05
b0 &
b0 *
b0 ,
b101 (
0%
#55000000
1"
13
14
1-
17
18
b100 +
1/
15
b101 &
b101 *
b101 ,
b110 )
1%
#57000000
b101 +
#60000000
0"
03
04
0-
07
08
b1 +
0/
05
b0 &
b0 *
b0 ,
b110 (
0%
#62000000
b0 +
#65000000
1"
13
14
1-
17
18
b100 +
10
15
b110 &
b110 *
b110 ,
b111 )
1%
#68000000
b110 +
#70000000
0"
03
04
0-
07
08
b10 +
00
05
b0 &
b0 *
b0 ,
b111 (
0%
#73000000
b0 +
#75000000
0.
1-
02
17
01
18
b100 +
1/
10
15
b111 &
b111 *
b111 ,
b1000 )
1%
#77000000
b101 +
#78000000
b111 +
#80000000
1.
0-
12
07
11
08
b11 +
0/
00
05
b0 &
b0 *
b0 ,
b1000 (
0%
#82000000
b10 +
#83000000
b0 +
#85000000
1"
13
14
1-
17
18
b1000 +
16
b1000 &
b1000 *
b1000 ,
b1001 )
1%
#90000000
0"
03
04
0-
07
08
b0 +
06
b0 &
b0 *
b0 ,
b1001 (
0%
#95000000
1"
13
14
1-
17
18
b1000 +
1/
16
b1001 &
b1001 *
b1001 ,
b1010 )
1%
#97000000
b1001 +
#100000000
0"
03
04
0-
07
08
b1 +
0/
06
b0 &
b0 *
b0 ,
b1010 (
0%
#102000000
b0 +
#105000000
1"
13
14
1-
17
18
b1000 +
10
16
b1010 &
b1010 *
b1010 ,
b1011 )
1%
#108000000
b1010 +
#110000000
0"
03
04
0-
07
08
b10 +
00
06
b0 &
b0 *
b0 ,
b1011 (
0%
#113000000
b0 +
#115000000
0.
1-
02
17
01
18
b1000 +
1/
10
16
b1011 &
b1011 *
b1011 ,
b1100 )
1%
#117000000
b1001 +
#118000000
b1011 +
#120000000
1.
0-
12
07
11
08
b11 +
0/
00
06
b0 &
b0 *
b0 ,
b1100 (
0%
#122000000
b10 +
#123000000
b0 +
#125000000
b1100 +
15
16
b1100 &
b1100 *
b1100 ,
b1101 )
1%
#130000000
b0 +
05
06
b0 &
b0 *
b0 ,
b1101 (
0%
#135000000
b1100 +
1/
15
16
b1101 &
b1101 *
b1101 ,
b1110 )
1%
#137000000
b1101 +
#140000000
b1 +
0/
05
06
b0 &
b0 *
b0 ,
b1110 (
0%
#142000000
b0 +
#145000000
b1100 +
10
15
16
b1110 &
b1110 *
b1110 ,
b1111 )
1%
#148000000
b1110 +
#150000000
b10 +
00
05
06
b0 &
b0 *
b0 ,
b1111 (
0%
#153000000
b0 +
#155000000
1"
13
14
0.
02
01
b1100 +
1/
10
15
16
b1111 &
b1111 *
b1111 ,
b10000 )
1%
#157000000
b1101 +
#158000000
b1111 +
#160000000
0"
03
04
1.
12
11
b11 +
00
05
06
b1 &
b1 *
b1 ,
b1 '
b0 (
0%
#163000000
b1 +
#165000000
0/
b0 &
b0 *
b0 ,
b10001 )
1%
#167000000
b0 +
#170000000
1/
b1 &
b1 *
b1 ,
b1 (
0%
#172000000
b1 +
#175000000
b10010 )
1%
#180000000
b10 (
0%
#185000000
0/
10
b10 &
b10 *
b10 ,
b10011 )
1%
#187000000
b0 +
#188000000
b10 +
#190000000
1/
00
b1 &
b1 *
b1 ,
b11 (
0%
#192000000
b11 +
#193000000
b1 +
#195000000
1"
13
14
0.
02
01
10
b11 &
b11 *
b11 ,
b10100 )
1%
#198000000
b11 +
#200000000
0"
03
04
1.
12
11
00
b1 &
b1 *
b1 ,
b100 (
0%
#203000000
b1 +
#205000000
1"
13
14
1-
17
18
b101 +
0/
15
b100 &
b100 *
b100 ,
b10101 )
1%
#207000000
b100 +
#210000000
0"
03
04
0-
07
08
b0 +
1/
05
b1 &
b1 *
b1 ,
b101 (
0%
#212000000
b1 +
#215000000
1"
13
14
1-
17
18
b101 +
15
b101 &
b101 *
b101 ,
b10110 )
1%
#220000000
0"
03
04
0-
07
08
b1 +
05
b1 &
b1 *
b1 ,
b110 (
0%
#225000000
1"
13
14
1-
17
18
b101 +
0/
10
15
b110 &
b110 *
b110 ,
b10111 )
1%
#227000000
b100 +
#228000000
b110 +
#230000000
0"
03
04
0-
07
08
b10 +
1/
00
05
b1 &
b1 *
b1 ,
b111 (
0%
#232000000
b11 +
#233000000
b1 +
#235000000
0.
1-
02
17
01
18
b101 +
10
15
b111 &
b111 *
b111 ,
b11000 )
1%
#238000000
b111 +
#240000000
1.
0-
12
07
11
08
b11 +
00
05
b1 &
b1 *
b1 ,
b1000 (
0%
#243000000
b1 +
#245000000
1"
13
14
1-
17
18
b1001 +
0/
16
b1000 &
b1000 *
b1000 ,
b11001 )
1%
#247000000
b1000 +
#250000000
0"
03
04
0-
07
08
b0 +
1/
06
b1 &
b1 *
b1 ,
b1001 (
0%
#252000000
b1 +
#255000000
1"
13
14
1-
17
18
b1001 +
16
b1001 &
b1001 *
b1001 ,
b11010 )
1%
#260000000
0"
03
04
0-
07
08
b1 +
06
b1 &
b1 *
b1 ,
b1010 (
0%
#265000000
1"
13
14
1-
17
18
b1001 +
0/
10
16
b1010 &
b1010 *
b1010 ,
b11011 )
1%
#267000000
b1000 +
#268000000
b1010 +
#270000000
0"
03
04
0-
07
08
b10 +
1/
00
06
b1 &
b1 *
b1 ,
b1011 (
0%
#272000000
b11 +
#273000000
b1 +
#275000000
0.
1-
02
17
01
18
b1001 +
10
16
b1011 &
b1011 *
b1011 ,
b11100 )
1%
#278000000
b1011 +
#280000000
1.
0-
12
07
11
08
b11 +
00
06
b1 &
b1 *
b1 ,
b1100 (
0%
#283000000
b1 +
#285000000
b1101 +
0/
15
16
b1100 &
b1100 *
b1100 ,
b11101 )
1%
#287000000
b1100 +
#290000000
b0 +
1/
05
06
b1 &
b1 *
b1 ,
b1101 (
0%
#292000000
b1 +
#295000000
b1101 +
15
16
b1101 &
b1101 *
b1101 ,
b11110 )
1%
#300000000
b1 +
05
06
b1 &
b1 *
b1 ,
b1110 (
0%
#305000000
b1101 +
0/
10
15
16
b1110 &
b1110 *
b1110 ,
b11111 )
1%
#307000000
b1100 +
#308000000
b1110 +
#310000000
b10 +
1/
00
05
06
b1 &
b1 *
b1 ,
b1111 (
0%
#312000000
b11 +
#313000000
b1 +
#315000000
1"
13
14
0.
02
01
b1101 +
10
15
16
b1111 &
b1111 *
b1111 ,
b100000 )
1%
#318000000
b1111 +
#320000000
0"
03
04
1.
12
11
b11 +
0/
05
06
b10 &
b10 *
b10 ,
b10 '
b0 (
0%
#322000000
b10 +
#325000000
00
b0 &
b0 *
b0 ,
b100001 )
1%
#328000000
b0 +
#330000000
10
b10 &
b10 *
b10 ,
b1 (
0%
#333000000
b10 +
#335000000
1/
00
b1 &
b1 *
b1 ,
b100010 )
1%
#337000000
b11 +
#338000000
b1 +
#340000000
0/
10
b10 &
b10 *
b10 ,
b10 (
0%
#342000000
b0 +
#343000000
b10 +
#345000000
b100011 )
1%
#350000000
b11 (
0%
#355000000
1"
13
14
0.
02
01
1/
b11 &
b11 *
b11 ,
b100100 )
1%
#357000000
b11 +
#360000000
0"
03
04
1.
12
11
0/
b10 &
b10 *
b10 ,
b100 (
0%
#362000000
b10 +
#365000000
1"
13
14
1-
17
18
b110 +
00
15
b100 &
b100 *
b100 ,
b100101 )
1%
#368000000
b100 +
#370000000
0"
03
04
0-
07
08
b0 +
10
05
b10 &
b10 *
b10 ,
b101 (
0%
#373000000
b10 +
#375000000
1"
13
14
1-
17
18
b110 +
1/
00
15
b101 &
b101 *
b101 ,
b100110 )
1%
#377000000
b111 +
#378000000
b101 +
#380000000
0"
03
04
0-
07
08
b1 +
0/
10
05
b10 &
b10 *
b10 ,
b110 (
0%
#382000000
b0 +
#383000000
b10 +
#385000000
1"
13
14
1-
17
18
b110 +
15
b110 &
b110 *
b110 ,
b100111 )
1%
#390000000
0"
03
04
0-
07
08
b10 +
05
b10 &
b10 *
b10 ,
b111 (
0%
#395000000
0.
1-
02
17
01
18
b110 +
1/
15
b111 &
b111 *
b111 ,
b101000 )
1%
#397000000
b111 +
#400000000
1.
0-
12
07
11
08
b11 +
0/
05
b10 &
b10 *
b10 ,
b1000 (
0%
#402000000
b10 +
#405000000
1"
13
14
1-
17
18
b1010 +
00
16
b1000 &
b1000 *
b1000 ,
b101001 )
1%
#408000000
b1000 +
#410000000
0"
03
04
0-
07
08
b0 +
10
06
b10 &
b10 *
b10 ,
b1001 (
0%
#413000000
b10 +
#415000000
1"
13
14
1-
17
18
b1010 +
1/
00
16
b1001 &
b1001 *
b1001 ,
b101010 )
1%
#417000000
b1011 +
#418000000
b1001 +
#420000000
0"
03
04
0-
07
08
b1 +
0/
10
06
b10 &
b10 *
b10 ,
b1010 (
0%
#422000000
b0 +
#423000000
b10 +
#425000000
1"
13
14
1-
17
18
b1010 +
16
b1010 &
b1010 *
b1010 ,
b101011 )
1%
#430000000
0"
03
04
0-
07
08
b10 +
06
b10 &
b10 *
b10 ,
b1011 (
0%
#435000000
0.
1-
02
17
01
18
b1010 +
1/
16
b1011 &
b1011 *
b1011 ,
b101100 )
1%
#437000000
b1011 +
#440000000
1.
0-
12
07
11
08
b11 +
0/
06
b10 &
b10 *
b10 ,
b1100 (
0%
#442000000
b10 +
#445000000
b1110 +
00
15
16
b1100 &
b1100 *
b1100 ,
b101101 )
1%
#448000000
b1100 +
#450000000
b0 +
10
05
06
b10 &
b10 *
b10 ,
b1101 (
0%
#453000000
b10 +
#455000000
b1110 +
1/
00
15
16
b1101 &
b1101 *
b1101 ,
b101110 )
1%
#457000000
b1111 +
#458000000
b1101 +
#460000000
b1 +
0/
10
05
06
b10 &
b10 *
b10 ,
b1110 (
0%
#462000000
b0 +
#463000000
b10 +
#465000000
b1110 +
15
16
b1110 &
b1110 *
b1110 ,
b101111 )
1%
#470000000
b10 +
05
06
b10 &
b10 *
b10 ,
b1111 (
0%
#475000000
1"
13
14
0.
02
01
b1110 +
1/
15
16
b1111 &
b1111 *
b1111 ,
b110000 )
1%
#477000000
b1111 +
#480000000
b11 +
05
06
b11 &
b11 *
b11 ,
b11 '
b0 (
0%
#485000000
0"
03
04
1.
12
11
0/
00
b0 &
b0 *
b0 ,
b110001 )
1%
#487000000
b10 +
#488000000
b0 +
#490000000
1"
13
14
0.
02
01
1/
10
b11 &
b11 *
b11 ,
b1 (
0%
#492000000
b1 +
#493000000
b11 +
#495000000
0"
03
04
1.
12
11
00
b1 &
b1 *
b1 ,
b110010 )
1%
#498000000
b1 +
#500000000
1"
13
14
0.
02
01
10
b11 &
b11 *
b11 ,
b10 (
0%
#503000000
b11 +
#505000000
0"
03
04
1.
12
11
0/
b10 &
b10 *
b10 ,
b110011 )
1%
#507000000
b10 +
#510000000
1"
13
14
0.
02
01
1/
b11 &
b11 *
b11 ,
b11 (
0%
#512000000
b11 +
#515000000
b110100 )
1%
#520000000
b100 (
0%
#525000000
1.
1-
12
17
11
18
b111 +
0/
00
15
b100 &
b100 *
b100 ,
b110101 )
1%
#527000000
b110 +
#528000000
b100 +
#530000000
0.
0-
02
07
01
08
b0 +
1/
10
05
b11 &
b11 *
b11 ,
b101 (
0%
#532000000
b1 +
#533000000
b11 +
#535000000
1.
1-
12
17
11
18
b111 +
00
15
b101 &
b101 *
b101 ,
b110110 )
1%
#538000000
b101 +
#540000000
0.
0-
02
07
01
08
b1 +
10
05
b11 &
b11 *
b11 ,
b110 (
0%
#543000000
b11 +
#545000000
1.
1-
12
17
11
18
b111 +
0/
15
b110 &
b110 *
b110 ,
b110111 )
1%
#547000000
b110 +
#550000000
0.
0-
02
07
01
08
b10 +
1/
05
b11 &
b11 *
b11 ,
b111 (
0%
#552000000
b11 +
#555000000
0"
03
04
1-
17
18
b111 +
15
b111 &
b111 *
b111 ,
b111000 )
1%
#560000000
1"
13
14
0-
07
08
b11 +
05
b11 &
b11 *
b11 ,
b1000 (
0%
#565000000
1.
1-
12
17
11
18
b1011 +
0/
00
16
b1000 &
b1000 *
b1000 ,
b111001 )
1%
#567000000
b1010 +
#568000000
b1000 +
#570000000
0.
0-
02
07
01
08
b0 +
1/
10
06
b11 &
b11 *
b11 ,
b1001 (
0%
#572000000
b1 +
#573000000
b11 +
#575000000
1.
1-
12
17
11
18
b1011 +
00
16
b1001 &
b1001 *
b1001 ,
b111010 )
1%
#578000000
b1001 +
#580000000
0.
0-
02
07
01
08
b1 +
10
06
b11 &
b11 *
b11 ,
b1010 (
0%
#583000000
b11 +
#585000000
1.
1-
12
17
11
18
b1011 +
0/
16
b1010 &
b1010 *
b1010 ,
b111011 )
1%
#587000000
b1010 +
#590000000
0.
0-
02
07
01
08
b10 +
1/
06
b11 &
b11 *
b11 ,
b1011 (
0%
#592000000
b11 +
#595000000
0"
03
04
1-
17
18
b1011 +
16
b1011 &
b1011 *
b1011 ,
b111100 )
1%
#600000000
1"
13
14
0-
07
08
b11 +
06
b11 &
b11 *
b11 ,
b1100 (
0%
#605000000
0"
03
04
1.
12
11
b1111 +
0/
00
15
16
b1100 &
b1100 *
b1100 ,
b111101 )
1%
#607000000
b1110 +
#608000000
b1100 +
#610000000
1"
13
14
0.
02
01
b0 +
1/
10
05
06
b11 &
b11 *
b11 ,
b1101 (
0%
#612000000
b1 +
#613000000
b11 +
#615000000
0"
03
04
1.
12
11
b1111 +
00
15
16
b1101 &
b1101 *
b1101 ,
b111110 )
1%
#618000000
b1101 +
#620000000
1"
13
14
0.
02
01
b1 +
10
05
06
b11 &
b11 *
b11 ,
b1110 (
0%
#623000000
b11 +
#625000000
0"
03
04
1.
12
11
b1111 +
0/
15
16
b1110 &
b1110 *
b1110 ,
b111111 )
1%
#627000000
b1110 +
#630000000
1"
13
14
0.
02
01
b10 +
1/
05
06
b11 &
b11 *
b11 ,
b1111 (
0%
#632000000
b11 +
#635000000
b1111 +
15
16
b1111 &
b1111 *
b1111 ,
b1000000 )
1%
#640000000
1.
1-
12
17
11
18
b111 +
0/
00
06
b100 &
b100 *
b100 ,
b100 '
b0 (
0%
#642000000
b110 +
#643000000
b100 +
#645000000
0"
03
04
0-
07
08
b0 +
05
b0 &
b0 *
b0 ,
b1000001 )
1%
#650000000
1"
13
14
1-
17
18
b100 +
15
b100 &
b100 *
b100 ,
b1 (
0%
#655000000
0"
03
04
0-
07
08
b0 +
1/
05
b1 &
b1 *
b1 ,
b1000010 )
1%
#657000000
b1 +
#660000000
1"
13
14
1-
17
18
b101 +
0/
15
b100 &
b100 *
b100 ,
b10 (
0%
#662000000
b100 +
#665000000
0"
03
04
0-
07
08
b0 +
10
05
b10 &
b10 *
b10 ,
b1000011 )
1%
#668000000
b10 +
#670000000
1"
13
14
1-
17
18
b110 +
00
15
b100 &
b100 *
b100 ,
b11 (
0%
#673000000
b100 +
#675000000
0.
0-
02
07
01
08
b0 +
1/
10
05
b11 &
b11 *
b11 ,
b1000100 )
1%
#677000000
b1 +
#678000000
b11 +
#680000000
1.
1-
12
17
11
18
b111 +
0/
00
15
b100 &
b100 *
b100 ,
b100 (
0%
#682000000
b110 +
#683000000
b100 +
#685000000
b1000101 )
1%
#690000000
b101 (
0%
#695000000
1/
b101 &
b101 *
b101 ,
b1000110 )
1%
#697000000
b101 +
#700000000
0/
b100 &
b100 *
b100 ,
b110 (
0%
#702000000
b100 +
#705000000
10
b110 &
b110 *
b110 ,
b1000111 )
1%
#708000000
b110 +
#710000000
00
b100 &
b100 *
b100 ,
b111 (
0%
#713000000
b100 +
#715000000
0"
03
04
0.
02
01
1/
10
b111 &
b111 *
b111 ,
b1001000 )
1%
#717000000
b101 +
#718000000
b111 +
#720000000
1"
13
14
1.
12
11
0/
00
b100 &
b100 *
b100 ,
b1000 (
0%
#722000000
b110 +
#723000000
b100 +
#725000000
b1000 +
05
16
b1000 &
b1000 *
b1000 ,
b1001001 )
1%
#730000000
b100 +
15
06
b100 &
b100 *
b100 ,
b1001 (
0%
#735000000
b1000 +
1/
05
16
b1001 &
b1001 *
b1001 ,
b1001010 )
1%
#737000000
b1001 +
#740000000
b101 +
0/
15
06
b100 &
b100 *
b100 ,
b1010 (
0%
#742000000
b100 +
#745000000
b1000 +
10
05
16
b1010 &
b1010 *
b1010 ,
b1001011 )
1%
#748000000
b1010 +
#750000000
b110 +
00
15
06
b100 &
b100 *
b100 ,
b1011 (
0%
#753000000
b100 +
#755000000
0"
03
04
0.
02
01
b1000 +
1/
10
05
16
b1011 &
b1011 *
b1011 ,
b1001100 )
1%
#757000000
b1001 +
#758000000
b1011 +
#760000000
1"
13
14
1.
12
11
b111 +
0/
00
15
06
b100 &
b100 *
b100 ,
b1100 (
0%
#762000000
b110 +
#763000000
b100 +
#765000000
0"
03
04
0-
07
08
b1100 +
16
b1100 &
b1100 *
b1100 ,
b1001101 )
1%
#770000000
1"
13
14
1-
17
18
b100 +
06
b100 &
b100 *
b100 ,
b1101 (
0%
#775000000
0"
03
04
0-
07
08
b1100 +
1/
16
b1101 &
b1101 *
b1101 ,
b1001110 )
1%
#777000000
b1101 +
#780000000
1"
13
14
1-
17
18
b101 +
0/
06
b100 &
b100 *
b100 ,
b1110 (
0%
#782000000
b100 +
#785000000
0"
03
04
0-
07
08
b1100 +
10
16
b1110 &
b1110 *
b1110 ,
b1001111 )
1%
#788000000
b1110 +
#790000000
1"
13
14
1-
17
18
b110 +
00
06
b100 &
b100 *
b100 ,
b1111 (
0%
#793000000
b100 +
#795000000
0.
0-
02
07
01
08
b1100 +
1/
10
16
b1111 &
b1111 *
b1111 ,
b1010000 )
1%
#797000000
b1101 +
#798000000
b1111 +
#800000000
1.
1-
12
17
11
18
b111 +
00
06
b101 &
b101 *
b101 ,
b101 '
b0 (
0%
#803000000
b101 +
#805000000
0"
03
04
0-
07
08
b1 +
0/
05
b0 &
b0 *
b0 ,
b1010001 )
1%
#807000000
b0 +
#810000000
1"
13
14
1-
17
18
b100 +
1/
15
b101 &
b101 *
b101 ,
b1 (
0%
#812000000
b101 +
#815000000
0"
03
04
0-
07
08
b1 +
05
b1 &
b1 *
b1 ,
b1010010 )
1%
#820000000
1"
13
14
1-
17
18
b101 +
15
b101 &
b101 *
b101 ,
b10 (
0%
#825000000
0"
03
04
0-
07
08
b1 +
0/
10
05
b10 &
b10 *
b10 ,
b1010011 )
1%
#827000000
b0 +
#828000000
b10 +
#830000000
1"
13
14
1-
17
18
b110 +
1/
00
15
b101 &
b101 *
b101 ,
b11 (
0%
#832000000
b111 +
#833000000
b101 +
#835000000
0.
0-
02
07
01
08
b1 +
10
05
b11 &
b11 *
b11 ,
b1010100 )
1%
#838000000
b11 +
#840000000
1.
1-
12
17
11
18
b111 +
00
15
b101 &
b101 *
b101 ,
b100 (
0%
#843000000
b101 +
#845000000
0/
b100 &
b100 *
b100 ,
b1010101 )
1%
#847000000
b100 +
#850000000
1/
b101 &
b101 *
b101 ,
b101 (
0%
#852000000
b101 +
#855000000
b1010110 )
1%
#860000000
b110 (
0%
#865000000
0/
10
b110 &
b110 *
b110 ,
b1010111 )
1%
#867000000
b100 +
#868000000
b110 +
#870000000
1/
00
b101 &
b101 *
b101 ,
b111 (
0%
#872000000
b111 +
#873000000
b101 +
#875000000
0"
03
04
0.
02
01
10
b111 &
b111 *
b111 ,
b1011000 )
1%
#878000000
b111 +
#880000000
1"
13
14
1.
12
11
00
b101 &
b101 *
b101 ,
b1000 (
0%
#883000000
b101 +
#885000000
b1001 +
0/
05
16
b1000 &
b1000 *
b1000 ,
b1011001 )
1%
#887000000
b1000 +
#890000000
b100 +
1/
15
06
b101 &
b101 *
b101 ,
b1001 (
0%
#892000000
b101 +
#895000000
b1001 +
05
16
b1001 &
b1001 *
b1001 ,
b1011010 )
1%
#900000000
b101 +
15
06
b101 &
b101 *
b101 ,
b1010 (
0%
#905000000
b1001 +
0/
10
05
16
b1010 &
b1010 *
b1010 ,
b1011011 )
1%
#907000000
b1000 +
#908000000
b1010 +
#910000000
b110 +
1/
00
15
06
b101 &
b101 *
b101 ,
b1011 (
0%
#912000000
b111 +
#913000000
b101 +
#915000000
0"
03
04
0.
02
01
b1001 +
10
05
16
b1011 &
b1011 *
b1011 ,
b1011100 )
1%
#918000000
b1011 +
#920000000
1"
13
14
1.
12
11
b111 +
00
15
06
b101 &
b101 *
b101 ,
b1100 (
0%
#923000000
b101 +
#925000000
0"
03
04
0-
07
08
b1101 +
0/
16
b1100 &
b1100 *
b1100 ,
b1011101 )
1%
#927000000
b1100 +
#930000000
1"
13
14
1-
17
18
b100 +
1/
06
b101 &
b101 *
b101 ,
b1101 (
0%
#932000000
b101 +
#935000000
0"
03
04
0-
07
08
b1101 +
16
b1101 &
b1101 *
b1101 ,
b1011110 )
1%
#940000000
1"
13
14
1-
17
18
b101 +
06
b101 &
b101 *
b101 ,
b1110 (
0%
#945000000
0"
03
04
0-
07
08
b1101 +
0/
10
16
b1110 &
b1110 *
b1110 ,
b1011111 )
1%
#947000000
b1100 +
#948000000
b1110 +
#950000000
1"
13
14
1-
17
18
b110 +
1/
00
06
b101 &
b101 *
b101 ,
b1111 (
0%
#952000000
b111 +
#953000000
b101 +
#955000000
0.
0-
02
07
01
08
b1101 +
10
16
b1111 &
b1111 *
b1111 ,
b1100000 )
1%
#958000000
b1111 +
#960000000
1.
1-
12
17
11
18
b111 +
0/
06
b110 &
b110 *
b110 ,
b110 '
b0 (
0%
#962000000
b110 +
#965000000
0"
03
04
0-
07
08
b10 +
00
05
b0 &
b0 *
b0 ,
b1100001 )
1%
#968000000
b0 +
#970000000
1"
13
14
1-
17
18
b100 +
10
15
b110 &
b110 *
b110 ,
b1 (
0%
#973000000
b110 +
#975000000
0"
03
04
0-
07
08
b10 +
1/
00
05
b1 &
b1 *
b1 ,
b1100010 )
1%
#977000000
b11 +
#978000000
b1 +
#980000000
1"
13
14
1-
17
18
b101 +
0/
10
15
b110 &
b110 *
b110 ,
b10 (
0%
#982000000
b100 +
#983000000
b110 +
#985000000
0"
03
04
0-
07
08
b10 +
05
b10 &
b10 *
b10 ,
b1100011 )
1%
#990000000
1"
13
14
1-
17
18
b110 +
15
b110 &
b110 *
b110 ,
b11 (
0%
#995000000
0.
0-
02
07
01
08
b10 +
1/
05
b11 &
b11 *
b11 ,
b1100100 )
1%
#997000000
b11 +
#1000000000
1.
1-
12
17
11
18
b111 +
0/
15
b110 &
b110 *
b110 ,
b100 (
0%
#1002000000
b110 +
#1005000000
00
b100 &
b100 *
b100 ,
b1100101 )
1%
#1008000000
b100 +
#1010000000
10
b110 &
b110 *
b110 ,
b101 (
0%
#1013000000
b110 +
#1015000000
1/
00
b101 &
b101 *
b101 ,
b1100110 )
1%
#1017000000
b111 +
#1018000000
b101 +
#1020000000
0/
10
b110 &
b110 *
b110 ,
b110 (
0%
#1022000000
b100 +
#1023000000
b110 +
#1025000000
b1100111 )
1%
#1030000000
b111 (
0%
#1035000000
0"
03
04
0.
02
01
1/
b111 &
b111 *
b111 ,
b1101000 )
1%
#1037000000
b111 +
#1040000000
1"
13
14
1.
12
11
0/
b110 &
b110 *
b110 ,
b1000 (
0%
#1042000000
b110 +
#1045000000
b1010 +
00
05
16
b1000 &
b1000 *
b1000 ,
b1101001 )
1%
#1048000000
b1000 +
#1050000000
b100 +
10
15
06
b110 &
b110 *
b110 ,
b1001 (
0%
#1053000000
b110 +
#1055000000
b1010 +
1/
00
05
16
b1001 &
b1001 *
b1001 ,
b1101010 )
1%
#1057000000
b1011 +
#1058000000
b1001 +
#1060000000
b101 +
0/
10
15
06
b110 &
b110 *
b110 ,
b1010 (
0%
#1062000000
b100 +
#1063000000
b110 +
#1065000000
b1010 +
05
16
b1010 &
b1010 *
b1010 ,
b1101011 )
1%
#1070000000
b110 +
15
06
b110 &
b110 *
b110 ,
b1011 (
0%
#1075000000
0"
03
04
0.
02
01
b1010 +
1/
05
16
b1011 &
b1011 *
b1011 ,
b1101100 )
1%
#1077000000
b1011 +
#1080000000
1"
13
14
1.
12
11
b111 +
0/
15
06
b110 &
b110 *
b110 ,
b1100 (
0%
#1082000000
b110 +
#1085000000
0"
03
04
0-
07
08
b1110 +
00
16
b1100 &
b1100 *
b1100 ,
b1101101 )
1%
#1088000000
b1100 +
#1090000000
1"
13
14
1-
17
18
b100 +
10
06
b110 &
b110 *
b110 ,
b1101 (
0%
#1093000000
b110 +
#1095000000
0"
03
04
0-
07
08
b1110 +
1/
00
16
b1101 &
b1101 *
b1101 ,
b1101110 )
1%
#1097000000
b1111 +
#1098000000
b1101 +
#1100000000
1"
13
14
1-
17
18
b101 +
0/
10
06
b110 &
b110 *
b110 ,
b1110 (
0%
#1102000000
b100 +
#1103000000
b110 +
#1105000000
0"
03
04
0-
07
08
b1110 +
16
b1110 &
b1110 *
b1110 ,
b1101111 )
1%
#1110000000
1"
13
14
1-
17
18
b110 +
06
b110 &
b110 *
b110 ,
b1111 (
0%
#1115000000
0.
0-
02
07
01
08
b1110 +
1/
16
b1111 &
b1111 *
b1111 ,
b1110000 )
1%
#1117000000
b1111 +
#1120000000
0"
03
04
1-
17
18
b111 +
06
b111 &
b111 *
b111 ,
b111 '
b0 (
0%
#1125000000
1.
0-
12
07
11
08
b11 +
0/
00
05
b0 &
b0 *
b0 ,
b1110001 )
1%
#1127000000
b10 +
#1128000000
b0 +
#1130000000
0.
1-
02
17
01
18
b100 +
1/
10
15
b111 &
b111 *
b111 ,
b1 (
0%
#1132000000
b101 +
#1133000000
b111 +
#1135000000
1.
0-
12
07
11
08
b11 +
00
05
b1 &
b1 *
b1 ,
b1110010 )
1%
#1138000000
b1 +
#1140000000
0.
1-
02
17
01
18
b101 +
10
15
b111 &
b111 *
b111 ,
b10 (
0%
#1143000000
b111 +
#1145000000
1.
0-
12
07
11
08
b11 +
0/
05
b10 &
b10 *
b10 ,
b1110011 )
1%
#1147000000
b10 +
#1150000000
0.
1-
02
17
01
18
b110 +
1/
15
b111 &
b111 *
b111 ,
b11 (
0%
#1152000000
b111 +
#1155000000
1"
13
14
0-
07
08
b11 +
05
b11 &
b11 *
b11 ,
b1110100 )
1%
#1160000000
0"
03
04
1-
17
18
b111 +
15
b111 &
b111 *
b111 ,
b100 (
0%
#1165000000
1"
13
14
1.
12
11
0/
00
b100 &
b100 *
b100 ,
b1110101 )
1%
#1167000000
b110 +
#1168000000
b100 +
